T1;360;3600;0.1;0.1;45;0.009
T2;360;3600;0.1;0.1;390;0.078
T1;900;3600;0.1;0.25;114;0.0228
T2;900;3600;0.1;0.25;967;0.1934
T1;1800;3600;0.1;0.5;208;0.0416
T2;1800;3600;0.1;0.5;1971;0.3942
T1;2700;3600;0.1;0.75;308;0.0616
T2;2700;3600;0.1;0.75;2990;0.598
T1;3600;3600;0.1;1;409;0.0818
T2;3600;3600;0.1;1;3936;0.7872
T1;4500;3600;0.1;1.25;427;0.0854
T2;4500;3600;0.1;1.25;3960;0.792
T1;5400;3600;0.1;1.5;479;0.0958
T2;5400;3600;0.1;1.5;3910;0.782
T1;6300;3600;0.1;1.75;452;0.0904
T2;6300;3600;0.1;1.75;3933;0.7866
T1;7200;3600;0.1;2;435;0.087
T2;7200;3600;0.1;2;3930;0.786
T1;9000;3600;0.1;2.5;436;0.0872
T2;9000;3600;0.1;2.5;3932;0.7864
T1;10800;3600;0.1;3;465;0.093
T2;10800;3600;0.1;3;3881;0.7762
T1;12600;3600;0.1;3.5;407;0.0814
T2;12600;3600;0.1;3.5;3966;0.7932
T1;14400;3600;0.1;4;447;0.0894
T2;14400;3600;0.1;4;3945;0.789
T1;16200;3600;0.1;4.5;422;0.0844
T2;16200;3600;0.1;4.5;3917;0.7834
T1;18000;3600;0.1;5;431;0.0862
T2;18000;3600;0.1;5;3959;0.7918
T1;360;3600;0.25;0.1;108;0.0216
T2;360;3600;0.25;0.1;327;0.0654
T1;900;3600;0.25;0.25;267;0.0534
T2;900;3600;0.25;0.25;814;0.1628
T1;1800;3600;0.25;0.5;532;0.1064
T2;1800;3600;0.25;0.5;1646;0.3292
T1;2700;3600;0.25;0.75;858;0.1716
T2;2700;3600;0.25;0.75;2443;0.4886
T1;3600;3600;0.25;1;1066;0.2132
T2;3600;3600;0.25;1;3234;0.6468
T1;4500;3600;0.25;1.25;1087;0.2174
T2;4500;3600;0.25;1.25;3298;0.6596
T1;5400;3600;0.25;1.5;1053;0.2106
T2;5400;3600;0.25;1.5;3333;0.6666
T1;6300;3600;0.25;1.75;1079;0.2158
T2;6300;3600;0.25;1.75;3307;0.6614
T1;7200;3600;0.25;2;1067;0.2134
T2;7200;3600;0.25;2;3297;0.6594
T1;9000;3600;0.25;2.5;1098;0.2196
T2;9000;3600;0.25;2.5;3269;0.6538
T1;10800;3600;0.25;3;1074;0.2148
T2;10800;3600;0.25;3;3273;0.6546
T1;12600;3600;0.25;3.5;1122;0.2244
T2;12600;3600;0.25;3.5;3252;0.6504
T1;14400;3600;0.25;4;1132;0.2264
T2;14400;3600;0.25;4;3263;0.6526
T1;16200;3600;0.25;4.5;1103;0.2206
T2;16200;3600;0.25;4.5;3236;0.6472
T1;18000;3600;0.25;5;1102;0.2204
T2;18000;3600;0.25;5;3288;0.6576
T1;360;3600;0.5;0.1;215;0.043
T2;360;3600;0.5;0.1;220;0.044
T1;900;3600;0.5;0.25;519;0.1038
T2;900;3600;0.5;0.25;563;0.1126
T1;1800;3600;0.5;0.5;1114;0.2228
T2;1800;3600;0.5;0.5;1060;0.212
T1;2700;3600;0.5;0.75;1596;0.3192
T2;2700;3600;0.5;0.75;1705;0.341
T1;3600;3600;0.5;1;2146;0.4292
T2;3600;3600;0.5;1;2129;0.4258
T1;4500;3600;0.5;1.25;2152;0.4304
T2;4500;3600;0.5;1.25;2233;0.4466
T1;5400;3600;0.5;1.5;2121;0.4242
T2;5400;3600;0.5;1.5;2267;0.4534
T1;6300;3600;0.5;1.75;2222;0.4444
T2;6300;3600;0.5;1.75;2162;0.4324
T1;7200;3600;0.5;2;2194;0.4388
T2;7200;3600;0.5;2;2171;0.4342
T1;9000;3600;0.5;2.5;2135;0.427
T2;9000;3600;0.5;2.5;2232;0.4464
T1;10800;3600;0.5;3;2145;0.429
T2;10800;3600;0.5;3;2202;0.4404
T1;12600;3600;0.5;3.5;2220;0.444
T2;12600;3600;0.5;3.5;2152;0.4304
T1;14400;3600;0.5;4;2184;0.4368
T2;14400;3600;0.5;4;2211;0.4422
T1;16200;3600;0.5;4.5;2214;0.4428
T2;16200;3600;0.5;4.5;2125;0.425
T1;18000;3600;0.5;5;2200;0.44
T2;18000;3600;0.5;5;2190;0.438
