step;d2;d3;d1
0;0;0;0
1;0;0;0
2;0;0;0
3;0;0;0
4;0;0;0
5;0;0;0
6;0;0;0
7;0;0;0
8;0;0;0
9;0;0;0
10;0;0;0
11;0;0;0
12;0;0;0
13;0;0;0
14;0;0;0
15;0;0;0
16;0;0;0
17;0;0;0
18;0;0;0
19;0;0;0
20;0;0;0
21;0;0;0
22;0;0;0
23;0;0;0
24;0;0;0
25;0;0;0
26;0;0;0
27;0;0;0
28;0;0;0
29;0;0;0
30;0;0;0
31;0;0;0
32;0;0;0
33;0;0;0
34;0;0;0
35;0;0;0
36;0;0;0
37;0;0;0
38;0;0;0
39;0;0;0
40;0;0;0
41;0;0;0
42;0;0;0
43;0;0;0
44;0;0;0
45;0;0;0
46;0;0;0
47;0;0;0
48;0;0;0
49;0;0;0
50;0;0;0
51;0;0;0
52;0;0;0
53;0;0;0
54;0;0;0
55;0;0;0
56;0;0;0
57;0;0;0
58;0;0;0
59;0;0;0
60;0;0;0
61;0;0;0
62;0;0;0
63;0;0;0
64;0;0;0
65;0;0;0
66;0;0;0
67;0;0;0
68;0;0;0
69;0;0;0
70;0;0;0
71;0;0;0
72;0;1;0
73;0;0;1
74;0;1;0
75;1;1;1
76;1;1;0
77;1;1;1
78;1;1;0
79;1;2;1
80;0;3;1
81;0;3;1
82;0;3;0
83;1;3;0
84;1;3;1
85;0;4;0
86;1;5;0
87;0;6;0
88;1;7;1
89;2;8;0
90;1;9;1
91;1;9;0
92;0;10;1
93;0;10;0
94;1;10;0
95;1;10;1
96;1;10;0
97;1;11;1
98;0;12;1
99;2;12;0
100;1;13;0
101;0;14;1
102;1;15;1
103;1;15;1
104;1;16;0
105;1;16;1
106;0;17;1
107;0;18;0
108;1;19;0
109;2;19;1
110;2;19;0
111;3;19;1
112;2;20;1
113;4;20;1
114;5;21;0
115;5;22;0
116;4;23;1
117;5;24;0
118;4;25;0
119;4;25;2
120;4;25;2
121;5;25;1
122;5;26;1
123;6;26;0
124;6;27;1
125;6;26;0
126;5;27;1
127;5;28;0
128;4;29;2
129;4;29;1
130;4;29;1
131;3;30;0
132;3;30;1
133;2;31;0
134;3;31;0
135;3;32;0
136;3;32;0
137;2;33;0
138;4;34;0
139;3;35;0
140;3;35;1
141;3;36;1
142;3;36;0
143;3;36;1
144;3;35;1
145;4;35;0
146;3;36;1
147;2;37;0
148;3;37;1
149;3;37;0
150;3;37;1
151;4;38;1
152;4;38;1
153;4;38;1
154;4;38;1
155;3;39;0
156;3;40;2
157;4;40;1
158;4;41;0
159;4;41;0
160;6;42;0
161;7;43;0
162;6;44;1
163;6;44;2
164;6;45;1
165;6;45;1
166;5;46;1
167;5;46;0
168;6;45;1
169;7;45;0
170;8;46;0
171;8;47;0
172;7;48;0
173;8;48;0
174;9;47;0
175;9;47;0
176;10;48;1
177;10;48;0
178;9;49;0
179;9;49;2
180;8;49;1
181;9;50;1
182;9;51;1
183;9;51;1
184;10;51;0
185;9;52;0
186;10;52;0
187;10;51;0
188;11;51;1
189;11;52;0
190;11;52;0
191;12;52;0
192;12;53;0
193;11;54;2
194;11;55;1
195;10;56;2
196;11;56;1
197;11;56;2
198;11;56;2
199;11;56;1
200;10;57;1
201;9;58;1
202;8;59;1
203;7;60;1
204;7;60;0
205;6;60;0
206;7;60;1
207;6;60;0
208;6;61;0
209;6;62;2
210;4;63;2
211;6;63;1
212;6;64;0
213;5;65;0
214;4;66;2
215;5;67;1
216;5;67;0
217;6;67;0
218;7;66;0
219;7;67;0
220;6;68;1
221;5;69;1
222;5;69;0
223;4;70;0
224;4;71;1
225;5;71;1
226;4;72;1
227;3;73;1
228;4;73;0
229;3;74;1
230;4;75;0
231;4;74;1
232;5;74;0
233;5;75;1
234;5;74;1
235;5;74;0
236;6;75;0
237;5;76;1
238;5;77;0
239;5;77;1
240;5;77;0
241;6;77;0
242;7;77;0
243;8;77;0
244;9;76;0
245;9;76;0
246;8;77;1
247;8;77;1
248;10;77;0
249;11;77;0
250;10;78;1
251;9;78;0
252;9;78;2
253;9;78;1
254;9;78;2
255;8;79;2
256;8;81;2
257;8;81;1
258;8;82;1
259;8;82;1
260;9;81;1
261;9;81;0
262;9;81;1
263;8;82;0
264;8;82;1
265;7;83;0
266;6;84;0
267;5;85;2
268;6;85;1
269;6;86;2
270;5;87;1
271;6;87;0
272;6;87;0
273;6;88;1
274;7;87;1
275;7;87;0
276;7;87;2
277;6;88;4
278;5;89;3
279;7;89;2
280;7;90;1
281;6;90;2
282;7;91;2
283;6;92;2
284;6;93;1
285;6;93;0
286;6;94;1
287;6;95;0
288;6;95;1
289;5;95;0
290;6;95;0
291;7;95;0
292;6;96;1
293;6;96;0
294;7;96;0
295;8;96;0
296;7;97;1
297;7;97;1
298;6;98;0
299;7;98;1
300;7;98;0
301;8;98;1
302;8;98;1
303;8;98;0
304;7;99;2
305;8;100;1
306;9;101;0
307;10;101;0
308;10;101;1
309;11;101;0
310;11;101;0
311;12;102;1
312;11;103;1
313;11;104;0
314;11;105;0
315;10;106;2
316;11;107;1
317;10;107;0
318;10;108;2
319;9;108;1
320;11;108;0
321;11;108;0
322;11;108;1
323;10;108;1
324;9;110;0
325;9;111;1
326;10;111;1
327;9;112;0
328;9;112;0
329;10;112;0
330;10;112;1
331;9;113;0
332;10;113;1
333;11;114;0
334;11;114;0
335;13;114;0
336;14;115;0
337;13;116;0
338;14;116;0
339;14;116;0
340;15;116;1
341;15;117;0
342;15;118;0
343;14;118;1
344;15;118;0
345;15;118;1
346;16;118;0
347;16;118;1
348;16;118;1
349;16;118;1
350;17;117;1
351;17;117;1
352;18;117;0
353;17;118;0
354;17;119;1
355;17;119;1
356;18;119;1
357;17;120;0
358;18;120;1
359;17;121;0
360;16;122;2
361;16;122;1
362;17;122;0
363;16;123;1
364;16;122;0
365;16;123;2
366;17;123;1
367;16;124;1
368;16;124;1
369;15;125;1
370;15;125;1
371;16;125;1
372;15;126;1
373;16;127;0
374;16;128;0
375;17;127;0
376;16;128;1
377;17;128;2
378;17;129;1
379;17;129;1
380;17;130;0
381;16;131;0
382;16;132;1
383;16;133;0
384;16;134;1
385;17;134;0
386;17;135;0
387;17;135;1
388;17;136;0
389;18;135;1
390;18;136;1
391;17;137;0
392;17;138;1
393;17;139;0
394;16;140;1
395;17;140;0
396;17;140;1
397;17;139;0
398;18;138;0
399;18;137;0
400;19;139;1
401;18;140;1
402;17;141;0
403;17;142;1
404;16;144;0
405;16;145;0
406;16;146;0
407;16;147;0
408;17;147;0
409;16;148;1
410;16;148;2
411;17;148;1
412;18;148;0
413;18;148;1
414;19;149;0
415;19;149;0
416;19;149;1
417;18;150;1
418;19;150;1
419;20;151;0
420;19;151;0
421;19;153;0
422;19;153;0
423;19;154;1
424;19;154;1
425;19;154;2
426;18;155;2
427;18;156;2
428;17;157;1
429;17;158;0
430;18;158;0
431;18;158;1
432;17;159;0
433;17;159;1
434;18;159;1
435;18;159;1
436;17;160;1
437;16;161;1
438;15;162;0
439;16;162;1
440;16;162;0
441;16;162;0
442;17;162;1
443;17;163;0
444;17;163;2
445;18;163;1
446;18;164;0
447;19;164;1
448;18;165;1
449;19;166;0
450;17;167;1
451;18;168;0
452;18;168;0
453;18;169;0
454;19;169;0
455;18;169;0
456;18;171;1
457;17;172;0
458;17;172;1
459;17;172;0
460;17;174;1
461;16;175;2
462;17;176;1
463;16;177;1
464;16;178;1
465;16;177;1
466;15;178;0
467;15;178;0
468;14;179;1
469;14;180;1
470;14;180;0
471;13;181;2
472;13;182;1
473;12;183;0
474;12;183;2
475;11;184;1
476;11;184;1
477;10;185;0
478;10;185;0
479;11;185;0
480;10;186;1
481;11;186;0
482;11;187;0
483;10;188;0
484;11;188;1
485;11;189;0
486;11;189;1
487;11;189;1
488;11;189;1
489;11;189;0
490;10;190;2
491;11;190;1
492;12;190;1
493;11;191;1
494;11;191;0
495;11;192;1
496;11;192;0
497;11;193;1
498;12;193;0
499;12;193;1
500;11;194;0
501;12;194;0
502;11;195;1
503;12;195;0
504;11;196;0
505;10;196;1
506;11;197;1
507;11;198;0
508;11;199;0
509;9;200;1
510;8;201;0
511;7;201;0
512;8;201;1
513;8;201;1
514;7;202;1
515;7;202;1
516;7;202;1
517;6;203;0
518;7;204;0
519;7;204;0
520;7;205;0
521;7;206;0
522;6;207;0
523;5;208;0
524;5;209;1
525;5;209;0
526;5;210;0
527;5;210;1
528;4;211;0
529;5;210;0
530;5;209;1
531;5;209;0
532;5;209;1
533;5;208;0
534;5;209;1
535;6;210;1
536;7;209;0
537;8;210;0
538;7;211;1
539;6;212;0
540;5;213;1
541;4;214;0
542;4;215;0
543;4;215;1
544;4;216;0
545;4;215;1
546;4;215;1
547;4;215;1
548;4;215;1
549;3;216;0
550;4;216;1
551;4;216;0
552;4;216;1
553;4;217;0
554;4;218;0
555;5;218;0
556;7;218;0
557;6;219;0
558;5;220;0
559;6;220;1
560;5;221;1
561;6;222;0
562;6;223;0
563;5;224;1
564;5;224;0
565;6;224;0
566;6;223;0
567;6;223;1
568;6;224;1
569;7;224;0
570;7;223;1
571;7;223;0
572;7;222;1
573;7;222;0
574;7;223;0
575;7;223;1
576;8;224;0
577;8;224;0
578;8;224;2
579;8;223;2
580;9;223;1
581;9;223;1
582;9;224;2
583;9;225;3
584;9;224;2
585;10;223;1
586;11;223;0
587;11;223;0
588;10;224;1
589;11;224;1
590;10;224;1
591;10;224;1
592;10;225;0
593;9;226;0
594;10;226;0
595;10;226;0
596;10;227;1
597;9;228;2
598;9;228;2
599;8;229;2
600;7;230;2
601;8;230;1
602;8;231;0
603;7;232;0
604;7;233;1
605;7;234;1
606;7;235;0
607;7;236;0
608;8;237;0
609;7;238;1
610;7;238;1
611;8;239;0
612;8;240;0
613;9;240;0
614;9;240;1
615;8;241;0
616;7;242;1
617;7;243;0
618;7;242;1
619;7;242;1
620;8;243;0
621;8;244;0
622;9;243;0
623;8;244;0
624;9;244;0
625;9;244;0
626;9;245;2
627;9;245;1
628;9;246;1
629;8;247;0
630;8;248;1
631;8;249;0
632;8;250;1
633;7;251;0
634;8;251;1
635;8;250;1
636;8;250;1
637;7;252;0
638;7;253;1
639;7;253;0
640;7;254;0
641;8;253;0
642;8;253;1
643;8;253;1
644;8;253;0
645;9;253;0
646;9;253;0
647;9;253;1
648;8;253;0
649;7;254;2
650;8;254;2
651;8;254;1
652;9;255;1
653;8;256;0
654;9;256;1
655;8;257;1
656;8;258;0
657;7;259;0
658;8;258;0
659;9;258;0
660;9;259;0
661;10;259;0
662;10;259;0
663;10;260;0
664;11;260;0
665;12;261;0
666;11;262;1
667;10;263;0
668;10;263;2
669;11;263;2
670;11;264;1
671;12;265;0
672;11;266;1
673;10;267;1
674;10;267;0
675;11;267;1
676;12;267;0
677;12;267;0
678;13;267;0
679;12;269;0
680;13;268;0
681;12;268;1
682;12;268;0
683;12;269;1
684;12;270;0
685;13;270;1
686;12;271;0
687;12;272;1
688;12;272;0
689;12;273;1
690;12;272;1
691;12;273;0
692;12;273;2
693;12;274;2
694;12;275;2
695;12;275;2
696;12;276;1
697;13;276;0
698;14;276;0
699;13;277;1
700;12;278;1
701;13;278;0
702;13;278;0
703;12;279;0
704;12;280;0
705;11;281;1
706;10;282;1
707;10;282;1
708;11;282;0
709;11;282;1
710;10;283;1
711;10;283;0
712;10;284;1
713;10;284;0
714;10;285;0
715;11;285;0
716;10;286;1
717;10;286;0
718;10;285;2
719;11;286;1
720;9;287;0
721;10;288;1
722;10;287;2
723;9;288;1
724;10;289;0
725;11;290;0
726;10;291;0
727;9;291;1
728;9;292;1
729;9;293;0
730;9;293;0
731;9;294;2
732;9;294;2
733;8;295;2
734;8;296;2
735;9;296;1
736;9;297;1
737;8;298;1
738;8;298;1
739;8;298;0
740;8;298;1
741;8;298;2
742;8;299;1
743;8;299;1
744;8;299;1
745;7;300;1
746;8;300;0
747;8;301;0
748;9;301;0
749;8;302;1
750;8;302;1
751;8;302;1
752;9;302;0
753;9;302;0
754;10;302;1
755;9;303;0
756;9;303;1
757;9;303;0
758;9;304;0
759;11;304;0
760;10;305;0
761;11;306;0
762;11;306;0
763;10;307;1
764;9;308;0
765;10;309;1
766;9;310;0
767;11;310;0
768;10;311;1
769;10;312;0
770;11;313;0
771;12;313;0
772;13;313;0
773;13;313;0
774;12;314;1
775;13;315;0
776;12;316;1
777;12;317;1
778;11;317;1
779;11;317;0
780;10;318;1
781;12;318;0
782;12;318;0
783;11;319;1
784;11;319;0
785;11;319;1
786;11;319;1
787;10;319;1
788;9;320;1
789;9;320;1
790;9;321;0
791;9;321;1
792;9;320;0
793;10;320;1
794;9;321;1
795;9;321;1
796;8;322;1
797;8;323;0
798;7;324;1
799;8;324;0
800;7;325;0
801;8;325;0
802;8;325;2
803;8;325;1
804;8;326;1
805;7;327;0
806;6;328;0
807;6;329;0
808;8;329;0
809;8;330;0
810;8;330;0
811;9;329;1
812;9;329;0
813;8;330;1
814;9;330;1
815;8;331;0
816;8;332;1
817;7;333;1
818;7;333;0
819;7;333;1
820;7;332;0
821;8;333;1
822;8;334;0
823;9;335;0
824;9;336;0
825;9;337;1
826;8;338;0
827;8;338;1
828;8;338;1
829;7;339;1
830;6;340;0
831;7;341;1
832;6;342;1
833;6;342;0
834;6;342;1
835;6;342;0
836;7;342;0
837;7;342;0
838;6;342;1
839;7;342;2
840;8;342;1
841;9;342;0
842;8;343;1
843;7;343;1
844;6;344;1
845;5;345;1
846;5;345;1
847;5;346;0
848;4;347;0
849;4;347;1
850;3;347;2
851;3;348;1
852;3;348;1
853;2;349;1
854;3;349;0
855;3;349;1
856;3;350;0
857;3;351;0
858;2;352;0
859;1;353;2
860;0;354;2
861;1;355;1
862;1;355;0
863;1;356;1
864;0;357;0
865;0;357;2
866;0;357;3
867;0;358;3
868;1;358;3
869;1;357;2
870;1;357;1
871;0;358;0
872;1;359;1
873;1;359;1
874;2;359;0
875;2;359;0
876;2;359;1
877;2;360;1
878;1;361;0
879;2;361;0
880;3;361;0
881;3;361;0
882;2;362;2
883;2;363;1
884;2;364;0
885;2;365;1
886;2;365;0
887;1;366;1
888;0;367;1
889;1;368;0
890;0;369;0
891;1;370;0
892;2;371;0
893;2;371;0
894;1;372;0
895;0;373;0
896;0;374;1
897;0;375;1
898;0;375;1
899;0;375;1
900;0;376;0
901;1;376;0
902;0;377;1
903;2;377;0
904;1;378;1
905;0;378;1
906;0;379;1
907;1;380;0
908;2;380;0
909;2;380;0
910;3;380;0
911;4;381;0
912;4;382;0
913;4;383;1
914;3;384;0
915;3;384;0
916;3;385;1
917;3;385;0
918;2;386;1
919;2;387;0
920;2;386;1
921;1;387;1
922;0;388;1
923;0;388;1
924;1;389;0
925;1;389;0
926;2;389;0
927;1;390;0
928;2;391;0
929;2;392;0
930;2;392;1
931;2;393;0
932;1;394;1
933;1;394;2
934;0;395;2
935;0;395;2
936;0;395;2
937;0;395;1
938;2;395;0
939;2;396;0
940;2;397;0
941;3;397;0
942;3;396;1
943;4;396;1
944;4;396;0
945;5;396;0
946;5;396;1
947;5;396;0
948;7;395;0
949;8;395;0
950;8;395;0
951;7;396;1
952;8;395;1
953;7;396;0
954;6;398;0
955;6;398;0
956;8;399;0
957;7;400;0
958;6;401;1
959;6;402;1
960;6;401;1
961;5;402;1
962;5;403;0
963;5;404;1
964;5;405;0
965;6;405;1
966;5;405;2
967;6;405;1
968;7;406;0
969;6;407;1
970;6;407;1
971;7;407;0
972;7;408;0
973;6;408;1
974;6;409;0
975;5;410;0
976;5;409;1
977;5;410;2
978;5;411;2
979;4;413;1
980;4;413;2
981;5;414;1
982;6;414;0
983;7;414;0
984;7;415;0
985;6;415;1
986;6;416;1
987;6;417;0
988;5;418;1
989;5;418;0
990;5;419;2
991;6;420;1
992;7;421;0
993;6;420;0
994;7;419;0
995;7;419;0
996;7;420;1
997;8;420;0
998;9;421;0
999;10;421;0
1000;10;421;0
1001;9;422;0
1002;10;422;0
1003;9;423;1
1004;10;423;1
1005;10;423;0
1006;11;423;0
1007;12;424;0
1008;11;425;0
1009;10;426;1
1010;10;426;1
1011;10;426;0
1012;10;426;1
1013;10;427;0
1014;11;427;0
1015;11;427;0
1016;10;427;1
1017;11;427;0
1018;10;428;0
1019;10;428;1
1020;10;429;1
1021;11;428;1
1022;10;429;1
1023;9;430;0
1024;10;431;0
1025;9;432;1
1026;8;433;0
1027;9;433;1
1028;9;433;2
1029;10;433;1
1030;9;434;0
1031;9;434;2
1032;8;435;1
1033;7;436;1
1034;7;436;1
1035;7;436;1
1036;7;436;0
1037;6;437;1
1038;6;438;1
1039;6;438;1
1040;6;439;0
1041;6;439;0
1042;6;440;0
1043;7;440;1
1044;6;441;1
1045;5;442;1
1046;5;442;1
1047;5;442;0
1048;5;443;2
1049;5;444;1
1050;5;445;0
1051;4;446;1
1052;3;446;0
1053;3;447;1
1054;4;449;0
1055;4;449;1
1056;4;449;0
1057;6;450;0
1058;6;451;1
1059;7;451;0
1060;7;451;0
1061;6;452;1
1062;5;453;0
1063;6;453;0
1064;6;453;0
1065;5;454;1
1066;5;454;1
1067;5;454;1
1068;4;455;0
1069;6;455;0
1070;6;456;0
1071;6;455;1
1072;6;455;1
1073;6;456;0
1074;5;457;0
1075;4;458;1
1076;5;457;1
1077;4;458;1
1078;3;458;0
1079;3;459;1
1080;2;460;0
1081;2;461;1
1082;2;462;1
1083;1;463;0
1084;3;463;0
1085;3;463;1
1086;2;464;0
1087;2;464;0
1088;2;464;1
1089;1;465;0
1090;1;465;2
1091;0;466;2
1092;0;466;2
1093;0;467;1
1094;1;467;1
1095;0;468;1
1096;0;469;0
1097;1;469;1
1098;1;470;0
1099;1;470;1
1100;1;471;0
1101;2;470;0
1102;1;471;0
1103;0;472;0
1104;1;472;0
1105;1;472;1
1106;2;472;0
1107;3;472;0
1108;3;472;1
1109;3;472;0
1110;3;472;1
1111;4;472;0
1112;5;473;0
1113;4;474;1
1114;4;474;0
1115;4;475;1
1116;4;474;1
1117;3;475;0
1118;2;476;1
1119;4;476;0
1120;4;476;0
1121;3;477;1
1122;2;478;2
1123;3;477;1
1124;2;478;0
1125;2;478;2
1126;3;478;1
1127;4;478;0
1128;4;478;0
1129;4;479;1
1130;3;480;2
1131;4;480;1
1132;4;480;0
1133;5;480;1
1134;5;481;0
1135;4;481;0
1136;4;481;1
1137;4;481;1
1138;5;481;0
1139;4;482;1
1140;5;482;1
1141;5;483;0
1142;5;484;0
1143;5;484;0
1144;5;484;0
1145;7;484;0
1146;7;484;1
1147;7;484;1
1148;7;484;0
1149;6;485;1
1150;6;486;0
1151;5;487;1
1152;4;488;2
1153;3;489;2
1154;4;489;1
1155;5;489;0
1156;4;490;1
1157;4;491;0
1158;4;492;0
1159;4;492;0
1160;5;492;0
1161;4;493;2
1162;3;493;2
1163;4;493;1
1164;4;493;0
1165;3;494;0
1166;3;495;0
1167;3;495;1
1168;3;496;0
1169;3;497;1
1170;2;498;2
1171;1;499;2
1172;1;500;3
1173;2;501;2
1174;2;501;2
1175;1;501;1
1176;1;502;1
1177;1;501;0
1178;1;500;0
1179;0;502;0
1180;1;503;1
1181;1;503;0
1182;1;503;0
1183;1;503;0
1184;1;503;1
1185;0;504;0
1186;0;504;1
1187;1;505;0
1188;1;506;1
1189;0;507;0
1190;1;508;1
1191;1;508;1
1192;2;509;0
1193;2;510;1
1194;1;511;0
1195;2;511;1
1196;3;511;0
1197;4;511;0
1198;4;511;0
1199;4;511;1
1200;4;511;1
1201;3;512;0
1202;3;513;1
1203;2;514;1
1204;1;515;1
1205;2;515;0
1206;1;516;0
1207;2;516;0
1208;2;517;0
1209;2;518;0
1210;1;518;1
1211;1;519;0
1212;1;519;0
1213;1;520;1
1214;1;521;0
1215;1;521;0
1216;3;520;0
1217;3;520;1
1218;2;521;1
1219;2;522;0
1220;3;523;0
1221;3;522;1
1222;3;523;0
1223;3;523;1
1224;3;524;0
1225;4;524;1
1226;4;524;0
1227;4;524;0
1228;4;524;1
1229;5;524;0
1230;4;524;0
1231;5;525;0
1232;4;526;1
1233;4;526;0
1234;4;527;0
1235;4;527;0
1236;3;528;2
1237;3;528;2
1238;4;529;1
1239;4;529;1
1240;3;530;0
1241;2;531;2
1242;1;532;2
1243;0;533;1
1244;1;533;1
1245;0;534;1
1246;0;534;0
1247;0;535;0
1248;2;535;0
1249;2;535;0
1250;4;535;0
1251;3;535;1
1252;3;535;0
1253;3;536;0
1254;3;535;0
1255;3;535;0
1256;5;536;0
1257;4;536;0
1258;3;537;2
1259;2;538;2
1260;3;538;1
1261;4;538;0
1262;4;538;0
1263;4;538;0
1264;4;539;1
1265;4;540;0
1266;3;540;1
1267;2;541;0
1268;3;541;0
1269;4;541;0
1270;4;541;0
1271;4;542;0
1272;5;541;1
1273;5;541;1
1274;5;541;1
1275;5;542;0
1276;6;543;0
1277;7;544;0
1278;6;545;0
1279;6;544;0
1280;5;545;2
1281;5;546;1
1282;4;547;0
1283;4;547;0
1284;5;547;0
1285;5;547;0
1286;6;547;1
1287;7;547;0
1288;7;548;0
1289;7;549;1
1290;6;550;0
1291;5;551;1
1292;4;552;1
1293;5;552;1
1294;5;552;0
1295;5;552;1
1296;4;553;0
1297;4;554;0
1298;5;555;1
1299;6;555;0
1300;6;555;1
1301;7;554;0
1302;7;554;1
1303;6;555;0
1304;6;555;1
1305;6;554;0
1306;6;554;1
1307;7;553;1
1308;7;554;1
1309;7;553;2
1310;6;554;2
1311;6;556;1
1312;6;557;0
1313;6;558;0
1314;7;558;0
1315;7;558;1
1316;7;559;0
1317;6;559;0
1318;6;559;1
1319;7;560;0
1320;7;561;1
1321;8;560;0
1322;9;559;0
1323;8;560;0
1324;8;561;1
1325;7;562;0
1326;6;563;2
1327;6;564;1
1328;6;564;1
1329;7;563;0
1330;8;563;0
1331;8;564;0
1332;7;564;0
1333;6;565;0
1334;5;566;0
1335;5;566;0
1336;6;567;0
1337;6;567;1
1338;6;567;0
1339;5;568;2
1340;5;569;1
1341;4;570;1
1342;3;571;0
1343;3;572;1
1344;3;572;1
1345;3;573;0
1346;3;574;0
1347;4;575;1
1348;3;576;0
1349;4;577;0
1350;5;576;0
1351;5;576;0
1352;4;577;1
1353;4;577;2
1354;3;578;2
1355;4;578;2
1356;5;578;1
1357;5;578;0
1358;5;579;0
1359;4;580;1
1360;4;581;0
1361;3;582;1
1362;2;583;1
1363;3;583;1
1364;3;584;0
1365;5;584;0
1366;4;585;0
1367;4;585;2
1368;4;585;2
1369;3;586;2
1370;3;586;1
1371;3;586;1
1372;4;586;1
1373;4;587;1
1374;4;588;0
1375;5;588;0
1376;6;588;0
1377;6;589;0
1378;5;590;0
1379;7;589;0
1380;6;589;0
1381;7;589;0
1382;8;589;0
1383;8;589;0
1384;8;589;0
1385;8;590;0
1386;9;590;0
1387;10;590;0
1388;10;591;0
1389;9;592;1
1390;8;593;1
1391;8;594;1
1392;7;595;2
1393;7;595;2
1394;7;595;1
1395;6;596;0
1396;6;595;0
1397;7;595;0
1398;8;595;0
1399;8;596;0
1400;8;597;0
1401;8;597;0
1402;7;598;1
1403;7;599;1
1404;6;600;2
1405;5;601;2
1406;5;602;1
1407;4;603;0
1408;4;604;0
1409;5;605;0
1410;6;605;0
1411;7;605;1
1412;7;606;1
1413;6;606;3
1414;5;607;3
1415;6;607;2
1416;6;607;3
1417;5;607;3
1418;5;607;3
1419;5;608;2
1420;4;608;1
1421;4;608;0
1422;4;609;1
1423;3;610;2
1424;3;610;1
1425;3;611;0
1426;2;611;0
1427;4;611;0
1428;4;611;0
1429;5;611;0
1430;4;613;0
1431;5;613;0
1432;5;613;1
1433;5;613;1
1434;6;613;0
1435;5;614;1
1436;5;615;1
1437;5;616;0
1438;4;617;0
1439;6;617;0
1440;6;617;0
1441;5;618;0
1442;4;619;1
1443;4;619;0
1444;3;620;0
1445;3;621;1
1446;3;622;0
1447;3;623;0
1448;2;624;0
1449;3;624;0
1450;4;623;0
1451;5;624;0
1452;4;625;0
1453;4;626;0
1454;6;625;0
1455;6;626;0
1456;7;626;1
1457;7;626;0
1458;7;627;0
1459;8;627;0
1460;7;627;0
1461;7;627;1
1462;7;627;0
1463;7;628;1
1464;6;629;0
1465;5;630;1
1466;5;630;1
1467;5;630;1
1468;6;630;0
1469;6;630;0
1470;7;630;1
1471;6;631;1
1472;6;632;2
1473;7;633;1
1474;7;634;0
1475;7;634;0
1476;7;635;1
1477;6;636;0
1478;5;637;0
1479;6;637;0
1480;8;637;0
1481;8;637;0
1482;8;637;2
1483;9;637;1
1484;10;637;0
1485;11;638;0
1486;11;639;0
1487;12;639;0
1488;13;639;0
1489;12;639;1
1490;12;639;1
1491;11;640;0
1492;13;640;0
1493;12;641;0
1494;12;640;1
1495;12;640;1
1496;11;641;0
1497;12;641;1
1498;11;642;1
1499;10;643;0
1500;9;644;2
1501;9;645;2
1502;9;646;3
1503;9;647;2
1504;9;647;2
1505;10;646;1
1506;10;646;0
1507;9;647;2
1508;8;648;1
1509;10;648;0
1510;10;649;1
1511;10;650;0
1512;10;651;0
1513;10;651;1
1514;9;652;0
1515;8;653;2
1516;9;654;1
1517;8;655;0
1518;9;655;0
1519;9;656;1
1520;8;656;2
1521;9;656;1
1522;9;656;0
1523;9;657;1
1524;8;657;1
1525;8;657;1
1526;8;658;0
1527;8;659;1
1528;8;660;0
1529;8;659;1
1530;7;660;1
1531;6;661;0
1532;6;660;0
1533;6;660;1
1534;6;660;0
1535;6;660;2
1536;6;660;2
1537;6;659;2
1538;6;660;2
1539;6;661;1
1540;5;661;1
1541;5;662;1
1542;5;662;0
1543;5;662;1
1544;5;662;0
1545;6;662;0
1546;6;662;1
1547;6;662;0
1548;6;663;1
1549;5;664;0
1550;4;664;0
1551;5;664;1
1552;5;665;0
1553;4;666;0
1554;4;666;1
1555;5;666;1
1556;5;666;1
1557;5;666;0
1558;5;666;1
1559;6;667;1
1560;5;668;1
1561;5;667;1
1562;6;668;0
1563;5;669;0
1564;5;670;1
1565;6;670;0
1566;5;671;0
1567;5;672;1
1568;5;672;0
1569;6;672;0
1570;7;672;0
1571;6;673;0
1572;7;674;0
1573;7;674;0
1574;6;675;1
1575;6;675;0
1576;7;675;0
1577;7;675;1
1578;7;674;1
1579;7;674;0
1580;7;675;2
1581;8;675;2
1582;8;674;2
1583;8;674;1
1584;8;674;2
1585;8;674;2
1586;9;675;1
1587;10;676;0
1588;10;676;0
1589;12;675;0
1590;13;676;0
1591;12;677;0
1592;11;678;2
1593;11;678;1
1594;11;678;0
1595;13;678;0
1596;12;679;0
1597;13;680;1
1598;12;681;0
1599;12;681;1
1600;13;681;1
1601;14;681;0
1602;14;682;0
1603;13;683;0
1604;14;683;0
1605;14;684;1
1606;14;684;0
1607;15;684;0
1608;15;684;1
1609;15;684;2
1610;15;683;2
1611;15;684;2
1612;14;685;2
1613;15;685;1
1614;15;685;0
1615;16;685;0
1616;16;685;0
1617;15;686;1
1618;15;686;0
1619;15;686;1
1620;15;687;0
1621;14;688;0
1622;16;688;0
1623;17;689;0
1624;17;689;0
1625;18;690;0
1626;17;691;1
1627;16;692;0
1628;17;692;1
1629;16;692;0
1630;16;692;0
1631;17;692;0
1632;16;691;0
1633;16;692;0
1634;17;692;1
1635;18;692;0
1636;17;693;0
1637;17;693;2
1638;18;694;1
1639;17;695;1
1640;16;696;1
1641;17;695;0
1642;17;695;0
1643;18;696;0
1644;17;697;0
1645;16;698;1
1646;16;699;0
1647;16;700;0
1648;15;701;0
1649;16;701;0
1650;17;701;1
1651;18;701;1
1652;18;701;1
1653;18;701;0
1654;17;701;0
1655;17;701;2
1656;18;702;1
1657;17;703;0
1658;18;703;1
1659;18;703;0
1660;18;703;1
1661;18;704;0
1662;18;705;1
1663;17;706;1
1664;16;707;1
1665;16;708;1
1666;16;708;1
1667;15;709;1
1668;16;709;0
1669;16;709;1
1670;16;708;1
1671;16;708;1
1672;16;709;1
1673;15;710;1
1674;14;711;2
1675;15;711;1
1676;16;712;0
1677;16;713;0
1678;16;713;2
1679;15;713;2
1680;14;714;1
1681;14;715;0
1682;14;715;0
1683;13;716;2
1684;13;717;2
1685;13;717;2
1686;15;717;1
1687;15;718;0
1688;15;719;1
1689;15;719;0
1690;15;719;2
1691;15;720;2
1692;15;721;1
1693;14;722;0
1694;14;722;0
1695;14;723;1
1696;14;723;0
1697;14;724;1
1698;15;725;0
1699;16;725;0
1700;16;725;1
1701;15;725;0
1702;14;726;1
1703;15;727;1
1704;14;728;1
1705;14;728;0
1706;13;729;1
1707;13;728;1
1708;14;729;1
1709;13;729;2
1710;13;729;2
1711;13;729;1
1712;13;729;1
1713;12;730;0
1714;12;730;2
1715;13;730;1
1716;13;731;1
1717;12;732;1
1718;11;733;1
1719;11;733;0
1720;10;734;1
1721;9;735;2
1722;10;736;1
1723;9;737;0
1724;9;738;2
1725;8;738;2
1726;8;738;2
1727;7;739;2
1728;7;740;2
1729;7;741;1
1730;6;742;1
1731;6;743;0
1732;7;743;0
1733;6;744;0
1734;6;745;1
1735;6;745;1
1736;6;746;0
1737;5;747;1
1738;5;747;1
1739;6;747;1
1740;6;748;0
1741;5;749;1
1742;5;749;1
1743;5;750;0
1744;5;750;0
1745;5;750;0
1746;5;751;0
1747;5;751;2
1748;6;751;1
1749;6;752;1
1750;5;752;0
1751;5;752;1
1752;4;753;1
1753;4;754;1
1754;5;754;0
1755;4;755;1
1756;4;756;0
1757;3;757;0
1758;4;757;1
1759;4;757;2
1760;4;757;1
1761;4;757;1
1762;4;758;0
1763;5;758;0
1764;5;758;1
1765;5;758;2
1766;4;759;2
1767;3;759;1
1768;3;758;3
1769;3;759;2
1770;3;758;1
1771;2;759;2
1772;1;760;2
1773;1;761;1
1774;1;763;0
1775;1;764;0
1776;0;765;1
1777;1;766;0
1778;1;766;1
1779;0;767;2
1780;1;766;1
1781;1;767;0
1782;1;767;0
1783;2;768;0
1784;2;770;1
1785;2;770;0
1786;2;770;1
1787;2;771;1
1788;2;772;2
1789;2;771;1
1790;2;772;0
1791;1;772;1
1792;2;773;1
1793;2;772;0
1794;2;772;1
1795;2;773;0
1796;3;773;0
1797;3;774;1
1798;3;774;0
1799;3;774;1
1800;3;774;0
1801;3;774;1
1802;2;776;0
1803;3;777;0
1804;2;779;0
1805;3;778;1
1806;3;777;0
1807;3;778;1
1808;3;779;0
1809;5;780;1
1810;4;780;0
1811;5;782;1
1812;4;784;0
1813;3;784;2
1814;3;784;2
1815;2;784;2
1816;3;784;1
1817;2;785;1
1818;2;784;1
1819;2;784;0
1820;1;785;1
1821;1;785;1
1822;2;785;0
1823;1;786;1
1824;0;787;1
1825;0;788;0
1826;0;788;1
1827;0;788;2
1828;0;788;2
1829;0;788;1
1830;0;789;2
1831;0;790;1
1832;0;790;0
1833;2;789;0
1834;2;789;0
1835;2;789;1
1836;2;790;0
1837;2;789;0
1838;2;789;0
1839;3;790;0
1840;3;790;0
1841;2;791;1
1842;3;792;0
1843;3;792;1
1844;2;793;0
1845;3;793;0
1846;3;794;1
1847;2;795;2
1848;2;795;1
1849;2;795;1
1850;2;796;0
1851;0;797;1
1852;1;797;0
1853;0;798;1
1854;0;799;0
1855;2;800;0
1856;1;801;1
1857;0;802;1
1858;0;803;0
1859;1;804;0
1860;1;804;1
1861;2;804;1
1862;2;805;0
1863;2;805;1
1864;2;806;1
1865;1;807;0
1866;1;807;1
1867;1;807;1
1868;0;808;2
1869;1;808;1
1870;1;808;1
1871;1;809;0
1872;1;810;0
1873;2;810;0
1874;2;810;1
1875;2;810;0
1876;2;810;1
1877;2;810;0
1878;1;811;1
1879;1;812;1
1880;1;812;0
1881;1;812;1
1882;2;812;0
1883;2;812;1
1884;3;812;0
1885;2;813;1
1886;1;814;1
1887;0;814;0
1888;1;814;1
1889;0;815;0
1890;0;815;1
1891;2;815;0
1892;3;815;0
1893;3;815;0
1894;4;815;1
1895;4;815;0
1896;5;816;0
1897;5;817;0
1898;5;817;1
1899;6;817;0
1900;6;818;0
1901;6;819;1
1902;6;820;0
1903;5;820;0
1904;4;821;1
1905;4;822;0
1906;4;822;0
1907;3;823;0
1908;3;823;1
1909;3;824;0
1910;3;824;0
1911;4;824;0
1912;4;825;0
1913;5;825;0
1914;5;826;1
1915;5;826;1
1916;5;826;0
1917;6;827;0
1918;5;828;0
1919;5;828;0
1920;7;829;0
1921;8;829;0
1922;9;829;0
1923;8;830;0
1924;9;830;1
1925;10;830;0
1926;10;831;0
1927;10;831;1
1928;10;830;1
1929;10;831;0
1930;10;830;1
1931;9;831;1
1932;9;832;1
1933;8;833;2
1934;7;834;1
1935;8;834;0
1936;7;835;1
1937;6;835;1
1938;5;836;0
1939;5;835;1
1940;4;836;1
1941;3;837;2
1942;3;837;2
1943;3;838;2
1944;3;839;1
1945;3;840;1
1946;2;841;0
1947;3;841;1
1948;3;841;1
1949;4;841;0
1950;3;842;0
1951;3;842;0
1952;4;842;0
1953;3;843;0
1954;3;843;0
1955;3;843;0
1956;2;844;2
1957;2;845;2
1958;3;845;1
1959;3;846;0
1960;2;847;0
1961;3;847;1
1962;3;848;1
1963;3;848;0
1964;2;849;1
1965;2;849;1
1966;1;850;2
1967;0;851;1
1968;0;852;1
1969;1;853;0
1970;0;854;1
1971;0;855;0
1972;1;856;1
1973;1;857;0
1974;2;856;0
1975;1;857;1
1976;0;858;0
1977;0;859;2
1978;0;860;1
1979;1;860;0
1980;2;861;1
1981;3;861;0
1982;3;860;0
1983;4;861;0
1984;4;861;0
1985;3;862;0
1986;3;863;0
1987;4;864;0
1988;4;864;0
1989;3;865;1
1990;2;866;1
1991;2;865;1
1992;2;867;0
1993;2;868;0
1994;2;869;1
1995;3;869;0
1996;3;870;0
1997;3;869;1
1998;3;869;0
1999;3;870;1
2000;4;870;0
2001;3;871;0
2002;3;871;2
2003;2;872;2
2004;3;871;1
2005;3;871;1
2006;4;871;0
2007;3;872;0
2008;4;873;0
2009;4;873;1
2010;4;872;2
2011;5;871;1
2012;6;871;0
2013;5;872;1
2014;5;872;1
2015;5;872;1
2016;4;873;1
2017;3;874;2
2018;2;875;2
2019;1;876;1
2020;2;877;1
2021;2;877;0
2022;1;878;1
2023;0;879;0
2024;1;879;1
2025;1;880;1
2026;1;880;1
2027;1;880;0
2028;1;880;1
2029;1;881;1
2030;1;881;0
2031;3;881;0
2032;3;882;0
2033;2;883;0
2034;3;883;0
2035;2;884;1
2036;2;885;1
2037;2;886;0
2038;3;887;0
2039;2;888;0
2040;3;888;0
2041;2;889;1
2042;2;890;0
2043;2;890;0
2044;2;890;2
2045;2;891;1
2046;2;891;0
2047;2;891;0
2048;3;892;0
2049;3;892;0
2050;3;892;0
2051;3;892;1
2052;4;893;0
2053;4;893;1
2054;5;893;1
2055;4;894;1
2056;4;894;0
2057;4;895;0
2058;5;895;1
2059;5;895;0
2060;4;896;0
2061;4;897;1
2062;4;897;1
2063;4;897;0
2064;4;898;0
2065;3;899;2
2066;3;899;2
2067;3;900;2
2068;3;901;2
2069;2;902;2
2070;2;903;2
2071;1;904;2
2072;1;904;2
2073;1;905;1
2074;0;906;1
2075;1;907;0
2076;1;907;1
2077;1;907;0
2078;2;908;1
2079;3;909;0
2080;3;909;0
2081;3;910;1
2082;2;911;0
2083;1;912;1
2084;1;911;2
2085;1;912;1
2086;1;913;0
2087;2;914;0
2088;2;913;1
2089;2;913;1
2090;1;914;0
2091;1;913;2
2092;0;914;2
2093;0;915;3
2094;0;915;3
2095;0;915;2
2096;1;916;2
2097;0;916;2
2098;0;916;1
2099;2;916;0
2100;2;916;1
2101;2;915;0
2102;2;916;1
2103;1;917;1
2104;1;917;0
2105;2;917;0
2106;3;917;0
2107;3;917;1
2108;2;918;0
2109;3;918;1
2110;2;919;0
2111;3;919;1
2112;3;919;1
2113;2;920;0
2114;3;920;1
2115;2;921;0
2116;3;922;0
2117;3;922;0
2118;3;923;1
2119;2;924;0
2120;3;924;1
2121;3;924;0
2122;3;925;1
2123;4;925;0
2124;4;925;0
2125;3;926;0
2126;4;926;0
2127;5;926;0
2128;6;926;0
2129;6;925;0
2130;6;925;1
2131;6;925;0
2132;8;925;0
2133;7;926;0
2134;8;927;0
2135;8;926;1
2136;8;927;0
2137;8;926;1
2138;8;926;0
2139;9;926;0
2140;9;926;1
2141;8;927;0
2142;10;926;0
2143;9;927;0
2144;8;928;1
2145;8;928;2
2146;8;929;1
2147;7;929;1
2148;7;929;1
2149;6;930;0
2150;7;931;1
2151;5;931;0
2152;4;932;1
2153;5;932;1
2154;4;933;1
2155;3;934;1
2156;3;935;0
2157;4;935;0
2158;4;935;1
2159;4;936;0
2160;4;936;0
2161;4;937;0
2162;3;938;2
2163;3;938;1
2164;3;939;1
2165;4;939;0
2166;4;939;1
2167;4;939;0
2168;5;939;0
2169;4;940;1
2170;4;940;1
2171;4;941;0
2172;3;942;0
2173;3;942;2
2174;3;942;1
2175;2;943;0
2176;2;944;1
2177;2;944;1
2178;2;944;1
2179;2;945;0
2180;2;945;1
2181;2;946;0
2182;2;946;0
2183;3;945;0
2184;3;945;0
2185;3;945;1
2186;2;946;1
2187;3;945;1
2188;4;946;0
2189;5;946;0
2190;5;946;0
2191;5;947;0
2192;6;947;0
2193;6;948;0
2194;7;946;0
2195;9;946;0
2196;9;946;0
2197;8;946;0
2198;8;947;0
2199;7;948;1
2200;7;948;0
2201;6;949;2
2202;6;949;2
2203;6;949;2
2204;7;949;1
2205;7;950;0
2206;7;951;0
2207;7;951;0
2208;8;951;0
2209;7;952;0
2210;8;952;0
2211;8;953;1
2212;7;954;0
2213;8;954;1
2214;8;955;0
2215;8;955;1
2216;7;956;1
2217;7;956;0
2218;7;956;1
2219;7;956;0
2220;7;955;1
2221;6;956;0
2222;5;957;1
2223;4;958;2
2224;5;958;1
2225;4;959;1
2226;4;958;1
2227;5;957;0
2228;5;957;1
2229;5;957;0
2230;5;957;1
2231;5;958;0
2232;4;960;0
2233;4;960;0
2234;5;961;1
2235;6;960;0
2236;5;961;1
2237;5;961;0
2238;5;961;0
2239;5;961;2
2240;6;961;1
2241;6;961;0
2242;6;962;1
2243;6;962;1
2244;5;963;1
2245;5;963;0
2246;5;964;0
2247;4;965;1
2248;4;965;1
2249;5;965;0
2250;6;965;0
2251;7;965;0
2252;6;966;1
2253;5;967;0
2254;5;968;2
2255;4;969;1
2256;4;970;0
2257;3;971;1
2258;3;972;2
2259;3;973;1
2260;3;974;0
2261;4;974;0
2262;3;975;0
2263;4;976;1
2264;4;976;1
2265;3;977;0
2266;2;977;0
2267;1;978;0
2268;2;978;0
2269;2;978;1
2270;3;977;0
2271;2;978;0
2272;3;979;0
2273;3;980;0
2274;4;981;0
2275;4;981;1
2276;4;982;0
2277;3;983;1
2278;3;983;1
2279;3;983;1
2280;2;984;0
2281;2;984;1
2282;4;984;0
2283;4;984;0
2284;4;985;0
2285;4;986;0
2286;4;987;0
2287;4;987;0
2288;3;988;0
2289;3;989;2
2290;2;990;1
2291;1;991;1
2292;1;992;0
2293;1;993;0
2294;0;994;1
2295;2;995;0
2296;2;995;1
2297;2;995;1
2298;2;996;0
2299;1;997;1
2300;1;997;1
2301;2;997;1
2302;2;998;0
2303;1;999;0
2304;1;999;1
2305;2;999;1
2306;3;1000;0
2307;3;1001;0
2308;5;1002;0
2309;4;1002;0
2310;3;1003;2
2311;4;1004;1
2312;4;1004;1
2313;3;1005;1
2314;3;1005;1
2315;3;1005;2
2316;4;1005;1
2317;5;1005;0
2318;5;1006;0
2319;5;1006;1
2320;4;1007;0
2321;5;1007;0
2322;5;1006;2
2323;4;1007;1
2324;3;1008;1
2325;3;1008;0
2326;2;1008;1
2327;1;1008;1
2328;2;1008;0
2329;2;1009;1
2330;1;1010;1
2331;1;1010;1
2332;0;1011;0
2333;0;1012;1
2334;0;1012;0
2335;0;1013;2
2336;1;1014;1
2337;1;1014;0
2338;1;1015;1
2339;1;1015;0
2340;0;1016;2
2341;0;1017;1
2342;1;1018;1
2343;1;1018;1
2344;1;1018;1
2345;1;1018;1
2346;1;1019;0
2347;1;1018;0
2348;0;1019;2
2349;0;1020;1
2350;0;1021;1
2351;1;1021;0
2352;2;1020;0
2353;1;1021;1
2354;0;1022;0
2355;1;1022;1
2356;1;1023;1
2357;0;1023;1
2358;1;1023;0
2359;1;1023;0
2360;1;1024;1
2361;2;1023;0
2362;2;1023;0
2363;1;1024;0
2364;0;1025;0
2365;1;1025;0
2366;1;1026;1
2367;0;1027;1
2368;1;1028;1
2369;1;1029;0
2370;1;1029;0
2371;1;1030;1
2372;2;1030;0
2373;2;1030;1
2374;1;1031;1
2375;1;1032;2
2376;0;1033;1
2377;1;1033;1
2378;2;1033;0
2379;3;1033;0
2380;2;1034;0
2381;2;1034;1
2382;1;1035;0
2383;0;1036;2
2384;0;1036;1
2385;2;1037;0
2386;2;1038;1
2387;2;1039;0
2388;2;1037;1
2389;2;1037;0
2390;2;1038;0
2391;2;1038;0
2392;1;1039;1
2393;2;1040;0
2394;4;1040;0
2395;5;1040;0
2396;4;1041;1
2397;5;1042;0
2398;5;1043;1
2399;4;1044;1
2400;4;1045;0
2401;5;1045;0
2402;6;1045;0
2403;5;1045;1
2404;6;1045;0
2405;5;1046;1
2406;5;1047;0
2407;5;1048;0
2408;4;1049;0
2409;4;1050;0
2410;5;1050;0
2411;4;1051;0
2412;4;1051;2
2413;4;1051;1
2414;4;1051;2
2415;4;1051;2
2416;5;1051;2
2417;6;1051;1
2418;5;1052;0
2419;4;1053;1
2420;3;1054;1
2421;3;1055;1
2422;2;1056;1
2423;3;1055;0
2424;3;1055;0
2425;3;1055;1
2426;4;1055;1
2427;4;1056;0
2428;4;1055;0
2429;4;1055;2
2430;4;1055;1
2431;5;1055;0
2432;4;1056;1
2433;4;1057;0
2434;4;1057;0
2435;3;1058;1
2436;3;1057;0
2437;4;1059;0
2438;5;1059;0
2439;5;1058;1
2440;6;1058;0
2441;5;1059;0
2442;5;1059;0
2443;5;1060;1
2444;5;1060;1
2445;5;1060;0
2446;5;1061;2
2447;6;1062;1
2448;6;1062;1
2449;5;1063;0
2450;5;1063;1
2451;4;1064;0
2452;5;1064;0
2453;4;1065;0
2454;4;1065;1
2455;3;1066;1
2456;3;1066;1
2457;3;1067;0
2458;4;1067;0
2459;3;1068;1
2460;4;1068;1
2461;4;1068;0
2462;4;1068;0
2463;5;1069;0
2464;5;1070;0
2465;5;1070;0
2466;4;1071;1
2467;5;1071;0
2468;6;1071;0
2469;6;1071;0
2470;6;1070;0
2471;6;1070;0
2472;7;1070;0
2473;8;1070;0
2474;9;1070;0
2475;9;1070;1
2476;9;1070;1
2477;9;1071;0
2478;9;1072;2
2479;8;1073;2
2480;8;1073;3
2481;7;1074;3
2482;6;1075;2
2483;6;1074;3
2484;5;1075;3
2485;6;1075;2
2486;6;1076;1
2487;6;1077;1
2488;6;1078;1
2489;6;1079;1
2490;5;1080;0
2491;6;1082;0
2492;6;1081;0
2493;7;1082;1
2494;8;1082;0
2495;8;1083;0
2496;9;1083;0
2497;9;1083;1
2498;10;1083;0
2499;9;1084;0
2500;10;1085;1
2501;10;1085;1
2502;11;1086;1
2503;9;1087;0
2504;11;1087;0
2505;11;1089;0
2506;12;1089;0
2507;13;1088;0
2508;14;1088;0
2509;14;1088;0
2510;13;1088;2
2511;13;1088;1
2512;13;1089;1
2513;12;1090;1
2514;11;1091;1
2515;11;1091;0
2516;12;1091;1
2517;12;1091;0
2518;13;1090;1
2519;13;1090;0
2520;14;1090;1
2521;13;1091;0
2522;14;1091;1
2523;15;1092;0
2524;15;1092;0
2525;16;1093;0
2526;17;1093;0
2527;16;1094;1
2528;16;1094;0
2529;15;1095;2
2530;14;1096;1
2531;14;1096;2
2532;15;1096;1
2533;14;1097;0
2534;13;1098;0
2535;14;1098;1
2536;14;1098;1
2537;13;1098;1
2538;14;1098;0
2539;14;1099;0
2540;14;1099;1
2541;15;1100;0
2542;15;1100;1
2543;14;1101;1
2544;14;1102;0
2545;14;1101;1
2546;14;1102;0
2547;14;1102;0
2548;14;1102;2
2549;14;1102;1
2550;14;1102;1
2551;14;1103;0
2552;14;1103;1
2553;13;1104;0
2554;13;1104;1
2555;13;1105;0
2556;14;1105;0
2557;14;1105;1
2558;14;1105;1
2559;13;1106;0
2560;14;1107;0
2561;14;1107;0
2562;15;1107;0
2563;15;1107;0
2564;16;1108;0
2565;16;1108;0
2566;16;1108;1
2567;15;1109;1
2568;16;1109;0
2569;15;1110;0
2570;15;1110;0
2571;15;1110;1
2572;15;1110;0
2573;15;1111;0
2574;14;1112;1
2575;14;1112;2
2576;15;1112;1
2577;14;1113;0
2578;15;1113;0
2579;15;1114;0
2580;14;1114;0
2581;16;1113;0
2582;17;1114;0
2583;16;1115;0
2584;16;1116;2
2585;17;1116;1
2586;17;1117;0
2587;17;1117;0
2588;16;1118;0
2589;16;1117;1
2590;16;1117;1
2591;16;1117;0
2592;16;1118;0
2593;16;1119;0
2594;16;1120;0
2595;16;1121;0
2596;15;1122;0
2597;15;1123;1
2598;15;1123;0
2599;15;1123;1
2600;15;1124;1
2601;14;1125;1
2602;14;1127;0
2603;14;1128;0
2604;15;1128;0
2605;16;1127;0
2606;16;1127;0
2607;15;1128;2
2608;14;1129;2
2609;15;1130;2
2610;16;1130;1
2611;17;1131;1
2612;17;1132;1
2613;17;1132;0
2614;19;1132;0
2615;20;1132;0
2616;21;1132;0
2617;22;1132;0
2618;22;1133;0
2619;21;1134;0
2620;22;1135;1
2621;20;1136;1
2622;20;1136;0
2623;20;1136;0
2624;21;1136;0
2625;22;1136;0
2626;22;1136;1
2627;23;1136;1
2628;22;1137;1
2629;21;1138;1
2630;21;1138;1
2631;22;1138;1
2632;22;1139;0
2633;21;1140;0
2634;22;1141;1
2635;23;1141;0
2636;24;1140;0
2637;24;1141;0
2638;25;1140;0
2639;26;1140;1
2640;25;1141;1
2641;25;1141;0
2642;26;1142;1
2643;26;1142;0
2644;26;1143;0
2645;27;1143;0
2646;26;1144;1
2647;26;1144;0
2648;28;1146;0
2649;28;1146;0
2650;29;1147;1
2651;28;1148;0
2652;28;1149;0
2653;27;1149;2
2654;26;1150;2
2655;27;1150;1
2656;26;1151;1
2657;26;1151;1
2658;26;1151;0
2659;25;1152;0
2660;26;1152;0
2661;26;1153;0
2662;26;1154;0
2663;26;1154;0
2664;26;1154;1
2665;25;1154;1
2666;25;1154;0
2667;26;1154;0
2668;26;1155;1
2669;26;1154;0
2670;25;1156;1
2671;24;1157;0
2672;23;1158;1
2673;23;1158;1
2674;22;1159;1
2675;22;1159;0
2676;23;1159;1
2677;22;1160;0
2678;23;1160;2
2679;23;1160;1
2680;23;1159;2
2681;23;1159;2
2682;23;1159;1
2683;25;1159;0
2684;25;1159;1
2685;26;1159;0
2686;26;1160;0
2687;27;1160;0
2688;27;1161;0
2689;26;1162;1
2690;26;1162;0
2691;27;1163;0
2692;27;1164;0
2693;28;1164;1
2694;27;1165;0
2695;27;1166;0
2696;27;1166;0
2697;27;1167;1
2698;27;1168;0
2699;26;1169;0
2700;26;1169;1
2701;26;1169;1
2702;26;1168;1
2703;25;1170;1
2704;25;1170;0
2705;25;1170;0
2706;26;1170;1
2707;26;1170;0
2708;25;1171;1
2709;25;1171;1
2710;25;1171;1
2711;25;1172;0
2712;25;1173;0
2713;26;1173;0
2714;26;1174;0
2715;27;1173;0
2716;27;1174;0
2717;27;1175;1
2718;26;1176;0
2719;25;1176;1
2720;24;1177;1
2721;24;1178;0
2722;25;1178;0
2723;26;1178;0
2724;26;1178;0
2725;27;1179;0
2726;27;1179;0
2727;28;1179;0
2728;27;1180;1
2729;28;1180;0
2730;29;1180;0
2731;28;1181;1
2732;28;1181;0
2733;28;1182;1
2734;27;1183;0
2735;28;1184;0
2736;28;1184;0
2737;27;1185;2
2738;26;1186;2
2739;26;1187;3
2740;26;1188;2
2741;25;1189;1
2742;24;1190;0
2743;24;1191;0
2744;24;1192;0
2745;23;1193;1
2746;22;1194;2
2747;22;1194;1
2748;22;1195;1
2749;22;1196;0
2750;22;1195;1
2751;22;1195;0
2752;21;1196;0
2753;21;1196;1
2754;21;1195;0
2755;21;1196;0
2756;21;1197;0
2757;23;1197;0
2758;22;1198;1
2759;22;1198;0
2760;22;1198;1
2761;23;1198;0
2762;22;1199;1
2763;21;1200;1
2764;20;1201;0
2765;21;1202;0
2766;21;1203;0
2767;21;1204;1
2768;21;1205;0
2769;22;1205;0
2770;21;1206;0
2771;21;1206;1
2772;21;1206;0
2773;21;1206;2
2774;21;1206;2
2775;21;1206;1
2776;21;1207;1
2777;23;1207;0
2778;22;1208;1
2779;22;1208;0
2780;23;1208;1
2781;22;1208;1
2782;22;1209;1
2783;22;1208;0
2784;24;1208;0
2785;24;1208;1
2786;23;1209;1
2787;23;1210;1
2788;22;1211;1
2789;21;1212;0
2790;21;1212;2
2791;21;1213;2
2792;21;1212;1
2793;23;1212;0
2794;22;1213;0
2795;22;1214;1
2796;21;1215;2
2797;21;1216;1
2798;21;1217;1
2799;21;1217;1
2800;21;1218;0
2801;20;1219;1
2802;19;1220;0
2803;19;1220;1
2804;19;1221;1
2805;19;1220;1
2806;20;1221;0
2807;19;1222;2
2808;18;1223;2
2809;18;1224;2
2810;17;1225;2
2811;16;1226;1
2812;16;1227;1
2813;17;1228;0
2814;16;1228;0
2815;15;1229;0
2816;15;1229;1
2817;15;1229;0
2818;15;1230;1
2819;15;1230;0
2820;15;1230;0
2821;15;1230;2
2822;16;1231;1
2823;18;1231;1
2824;18;1231;0
2825;17;1232;2
2826;18;1232;1
2827;18;1232;0
2828;19;1232;1
2829;19;1232;0
2830;19;1233;0
2831;18;1234;0
2832;19;1234;0
2833;19;1235;0
2834;19;1236;1
2835;18;1237;0
2836;16;1238;2
2837;16;1238;1
2838;15;1239;1
2839;15;1240;1
2840;15;1240;0
2841;16;1240;0
2842;16;1240;1
2843;16;1241;0
2844;16;1242;0
2845;17;1242;0
2846;17;1243;0
2847;17;1243;1
2848;18;1242;1
2849;19;1242;0
2850;19;1243;1
2851;20;1244;0
2852;20;1244;0
2853;19;1245;1
2854;19;1246;0
2855;19;1246;0
2856;20;1246;0
2857;21;1246;1
2858;20;1247;1
2859;19;1248;1
2860;20;1249;0
2861;21;1249;0
2862;21;1248;1
2863;21;1248;0
2864;23;1248;0
2865;23;1247;0
2866;24;1247;1
2867;24;1248;1
2868;23;1249;0
2869;23;1250;0
2870;22;1251;1
2871;21;1252;0
2872;20;1253;0
2873;20;1254;1
2874;21;1254;1
2875;22;1255;0
2876;22;1255;0
2877;22;1256;0
2878;22;1257;1
2879;21;1258;1
2880;22;1258;0
2881;21;1258;0
2882;22;1258;1
2883;21;1259;0
2884;21;1260;0
2885;21;1260;1
2886;20;1261;0
2887;20;1262;1
2888;19;1263;1
2889;19;1264;0
2890;19;1264;1
2891;19;1265;1
2892;17;1266;0
2893;17;1266;0
2894;17;1267;0
2895;18;1267;0
2896;18;1268;0
2897;18;1267;0
2898;19;1267;1
2899;20;1267;0
2900;21;1267;0
2901;21;1268;0
2902;20;1269;0
2903;19;1270;0
2904;20;1270;0
2905;20;1269;1
2906;20;1269;0
2907;19;1270;1
2908;20;1270;0
2909;20;1270;1
2910;20;1270;1
2911;20;1271;0
2912;20;1271;1
2913;21;1271;1
2914;20;1272;1
2915;20;1273;0
2916;20;1274;0
2917;20;1275;0
2918;20;1275;1
2919;19;1276;1
2920;19;1276;1
2921;20;1276;0
2922;21;1276;0
2923;20;1277;1
2924;20;1278;0
2925;20;1279;1
2926;21;1278;0
2927;21;1279;0
2928;21;1278;0
2929;21;1279;0
2930;22;1279;0
2931;23;1279;1
2932;23;1279;1
2933;23;1280;1
2934;23;1280;1
2935;24;1280;0
2936;23;1281;1
2937;21;1282;2
2938;21;1283;1
2939;22;1283;0
2940;21;1284;0
2941;21;1284;2
2942;21;1285;1
2943;21;1285;0
2944;20;1286;0
2945;20;1287;1
2946;21;1287;0
2947;22;1288;0
2948;21;1289;0
2949;22;1289;1
2950;21;1290;0
2951;23;1291;0
2952;23;1292;0
2953;22;1293;1
2954;21;1294;1
2955;21;1294;1
2956;21;1295;0
2957;22;1296;1
2958;23;1296;0
2959;23;1296;0
2960;23;1297;0
2961;23;1297;1
2962;23;1296;1
2963;22;1297;0
2964;21;1299;1
2965;20;1300;1
2966;20;1300;1
2967;20;1300;1
2968;21;1301;1
2969;21;1301;0
2970;21;1300;1
2971;21;1299;0
2972;22;1300;0
2973;23;1299;0
2974;24;1300;1
2975;25;1300;0
2976;25;1300;0
2977;25;1299;1
2978;24;1300;1
2979;24;1300;0
2980;24;1300;1
2981;26;1300;0
2982;26;1301;0
2983;25;1302;1
2984;24;1303;0
2985;23;1303;1
2986;23;1304;0
2987;22;1305;1
2988;21;1306;1
2989;21;1306;1
2990;23;1306;0
2991;23;1307;0
2992;24;1306;1
2993;23;1307;1
2994;22;1308;0
2995;21;1309;1
2996;20;1310;0
2997;20;1310;0
2998;19;1311;1
2999;19;1311;1
3000;21;1311;0
3001;22;1311;0
3002;21;1312;1
3003;21;1313;0
3004;21;1314;0
3005;21;1315;0
3006;20;1316;1
3007;21;1315;0
3008;20;1315;1
3009;20;1316;0
3010;22;1316;0
3011;22;1317;0
3012;23;1317;0
3013;23;1316;1
3014;23;1316;1
3015;23;1317;0
3016;24;1316;0
3017;24;1316;0
3018;23;1317;0
3019;24;1318;0
3020;23;1319;1
3021;22;1320;1
3022;22;1320;1
3023;23;1320;1
3024;24;1320;0
3025;25;1320;0
3026;26;1320;0
3027;25;1321;0
3028;26;1321;1
3029;26;1321;0
3030;27;1322;1
3031;26;1322;0
3032;27;1322;0
3033;27;1323;0
3034;26;1324;1
3035;26;1324;1
3036;26;1325;0
3037;26;1326;0
3038;25;1327;1
3039;24;1328;1
3040;24;1328;1
3041;24;1327;1
3042;23;1328;0
3043;23;1329;0
3044;23;1329;1
3045;23;1330;0
3046;23;1330;0
3047;22;1331;2
3048;22;1331;2
3049;21;1331;1
3050;22;1332;1
3051;22;1333;0
3052;22;1334;0
3053;23;1334;0
3054;23;1334;1
3055;23;1335;0
3056;22;1336;0
3057;23;1336;1
3058;24;1337;0
3059;24;1338;0
3060;24;1339;2
3061;23;1340;2
3062;23;1340;2
3063;22;1341;1
3064;21;1342;1
3065;20;1342;0
3066;19;1343;1
3067;19;1343;0
3068;19;1343;3
3069;19;1343;2
3070;20;1343;2
3071;20;1344;1
3072;19;1345;0
3073;20;1346;0
3074;20;1346;1
3075;19;1347;0
3076;21;1346;0
3077;20;1347;0
3078;21;1347;0
3079;22;1347;1
3080;22;1346;0
3081;21;1347;2
3082;21;1347;1
3083;22;1347;0
3084;22;1347;0
3085;21;1348;1
3086;21;1348;0
3087;21;1348;1
3088;22;1348;1
3089;22;1349;0
3090;23;1350;0
3091;24;1350;0
3092;23;1350;1
3093;22;1351;1
3094;21;1352;3
3095;20;1353;2
3096;19;1354;3
3097;19;1354;2
3098;19;1354;2
3099;20;1354;1
3100;20;1355;0
3101;20;1356;0
3102;20;1357;1
3103;20;1357;0
3104;20;1357;1
3105;20;1358;2
3106;20;1358;2
3107;20;1359;1
3108;20;1360;1
3109;19;1361;0
3110;19;1362;0
3111;20;1362;0
3112;21;1362;1
3113;20;1363;1
3114;19;1364;0
3115;20;1364;0
3116;20;1365;0
3117;20;1365;0
3118;20;1366;0
3119;20;1366;1
3120;21;1367;0
3121;20;1368;2
3122;19;1369;1
3123;20;1368;1
3124;21;1368;0
3125;21;1369;0
3126;21;1370;0
3127;20;1371;1
3128;21;1371;1
3129;21;1372;0
3130;22;1372;0
3131;22;1372;1
3132;22;1372;0
3133;23;1372;0
3134;23;1373;1
3135;23;1374;0
3136;24;1374;0
3137;25;1376;0
3138;25;1376;0
3139;25;1377;1
3140;24;1378;1
3141;24;1377;1
3142;25;1378;0
3143;25;1378;1
3144;25;1378;0
3145;27;1377;0
3146;26;1378;1
3147;27;1379;0
3148;26;1380;1
3149;25;1381;1
3150;24;1382;0
3151;24;1382;1
3152;24;1382;2
3153;24;1383;1
3154;24;1383;1
3155;23;1384;0
3156;23;1383;2
3157;22;1383;1
3158;21;1384;2
3159;21;1384;2
3160;21;1384;2
3161;22;1384;1
3162;22;1385;1
3163;22;1385;2
3164;22;1386;1
3165;21;1387;1
3166;22;1387;0
3167;23;1387;0
3168;23;1386;0
3169;23;1387;2
3170;22;1388;2
3171;22;1389;1
3172;22;1389;0
3173;22;1390;0
3174;22;1390;0
3175;22;1390;0
3176;21;1391;1
3177;20;1392;1
3178;19;1393;2
3179;19;1394;1
3180;19;1395;0
3181;19;1396;1
3182;18;1396;1
3183;18;1396;1
3184;17;1397;0
3185;17;1396;1
3186;18;1396;0
3187;19;1396;1
3188;20;1396;0
3189;20;1396;0
3190;19;1397;1
3191;19;1398;0
3192;18;1399;1
3193;18;1399;1
3194;17;1400;1
3195;16;1401;2
3196;16;1401;2
3197;17;1401;1
3198;17;1402;0
3199;16;1403;0
3200;15;1404;0
3201;14;1405;1
3202;13;1406;1
3203;12;1407;1
3204;12;1407;0
3205;13;1408;1
3206;13;1408;0
3207;12;1409;1
3208;13;1409;0
3209;12;1410;1
3210;12;1410;0
3211;11;1411;2
3212;10;1412;1
3213;10;1413;1
3214;10;1414;0
3215;10;1415;1
3216;9;1416;1
3217;10;1415;0
3218;9;1415;0
3219;9;1415;1
3220;9;1415;0
3221;9;1416;1
3222;8;1417;1
3223;8;1418;0
3224;9;1418;1
3225;9;1419;0
3226;9;1420;1
3227;9;1420;1
3228;8;1421;0
3229;9;1422;0
3230;8;1423;2
3231;8;1423;2
3232;8;1423;1
3233;8;1424;0
3234;7;1425;0
3235;9;1425;0
3236;9;1426;0
3237;10;1427;1
3238;11;1427;0
3239;11;1428;0
3240;12;1428;0
3241;12;1428;1
3242;11;1429;0
3243;12;1429;1
3244;11;1429;0
3245;11;1430;0
3246;11;1430;0
3247;13;1430;0
3248;13;1430;1
3249;13;1431;1
3250;13;1432;0
3251;13;1432;0
3252;13;1433;1
3253;13;1433;0
3254;13;1433;2
3255;13;1433;2
3256;13;1432;1
3257;13;1433;1
3258;13;1433;1
3259;12;1434;1
3260;12;1435;0
3261;12;1435;0
3262;13;1435;1
3263;12;1436;0
3264;12;1436;2
3265;11;1437;2
3266;11;1436;2
3267;12;1435;1
3268;12;1435;0
3269;14;1434;0
3270;14;1434;1
3271;14;1434;1
3272;15;1433;0
3273;15;1434;0
3274;15;1434;0
3275;16;1434;1
3276;17;1434;0
3277;16;1434;1
3278;16;1434;1
3279;17;1434;0
3280;16;1435;1
3281;17;1435;0
3282;16;1436;1
3283;15;1437;1
3284;16;1437;0
3285;16;1438;0
3286;16;1438;0
3287;15;1439;2
3288;16;1440;1
3289;16;1440;0
3290;16;1441;0
3291;16;1442;0
3292;16;1442;0
3293;16;1444;0
3294;16;1445;1
3295;16;1446;1
3296;18;1445;0
3297;18;1445;1
3298;18;1445;1
3299;18;1445;1
3300;19;1444;0
3301;18;1445;1
3302;18;1445;1
3303;18;1445;0
3304;18;1445;2
3305;17;1445;1
3306;18;1445;1
3307;18;1446;0
3308;17;1447;0
3309;17;1448;0
3310;18;1449;0
3311;19;1448;0
3312;20;1448;0
3313;21;1448;0
3314;20;1449;0
3315;19;1450;1
3316;20;1450;1
3317;20;1451;0
3318;20;1451;1
3319;19;1452;2
3320;18;1453;1
3321;19;1453;0
3322;19;1454;0
3323;19;1455;0
3324;19;1456;0
3325;19;1456;0
3326;18;1457;1
3327;18;1457;1
3328;17;1457;1
3329;18;1457;0
3330;18;1458;0
3331;18;1459;0
3332;18;1460;0
3333;18;1459;1
3334;19;1459;0
3335;18;1460;0
3336;20;1459;0
3337;19;1460;1
3338;19;1462;0
3339;18;1463;2
3340;18;1463;2
3341;18;1463;1
3342;18;1464;2
3343;19;1463;1
3344;19;1464;0
3345;20;1464;1
3346;21;1464;0
3347;20;1465;0
3348;22;1465;0
3349;22;1464;0
3350;21;1465;0
3351;21;1465;0
3352;22;1465;1
3353;23;1466;0
3354;24;1466;0
3355;25;1466;0
3356;25;1467;0
3357;24;1468;0
3358;25;1468;1
3359;24;1469;0
3360;24;1470;0
3361;24;1470;0
3362;24;1470;2
3363;23;1471;1
3364;24;1471;0
3365;24;1471;0
3366;24;1472;0
3367;24;1473;0
3368;24;1474;1
3369;24;1473;0
3370;23;1474;1
3371;23;1474;1
3372;24;1474;0
3373;24;1475;0
3374;26;1475;0
3375;26;1475;0
3376;26;1475;1
3377;26;1476;0
3378;25;1477;0
3379;26;1477;1
3380;25;1478;0
3381;24;1479;2
3382;25;1480;1
3383;24;1480;1
3384;24;1480;0
3385;26;1480;0
3386;25;1481;0
3387;24;1481;1
3388;24;1482;0
3389;23;1483;1
3390;23;1483;1
3391;23;1483;1
3392;23;1483;0
3393;22;1484;1
3394;22;1484;0
3395;21;1485;1
3396;20;1486;0
3397;20;1486;1
3398;20;1486;1
3399;19;1487;1
3400;19;1487;1
3401;19;1488;0
3402;19;1488;0
3403;20;1489;0
3404;20;1489;0
3405;19;1490;0
3406;19;1491;1
3407;18;1492;0
3408;19;1492;0
3409;19;1493;0
3410;18;1494;1
3411;17;1495;1
3412;17;1496;1
3413;17;1496;1
3414;17;1496;0
3415;18;1496;0
3416;17;1497;0
3417;17;1498;1
3418;19;1498;0
3419;18;1499;1
3420;18;1500;0
3421;18;1500;0
3422;19;1501;0
3423;19;1501;0
3424;18;1502;1
3425;18;1502;0
3426;17;1503;1
3427;17;1502;0
3428;17;1502;1
3429;17;1502;1
3430;18;1502;1
3431;17;1503;0
3432;19;1503;0
3433;20;1503;0
3434;19;1504;1
3435;20;1504;0
3436;21;1504;0
3437;21;1504;0
3438;22;1504;1
3439;21;1505;1
3440;20;1506;1
3441;20;1507;0
3442;20;1508;0
3443;21;1507;0
3444;21;1507;0
3445;20;1508;1
3446;21;1509;0
3447;20;1510;1
3448;19;1511;0
3449;19;1512;1
3450;20;1511;0
3451;19;1512;1
3452;20;1512;0
3453;20;1513;0
3454;20;1514;0
3455;20;1514;0
3456;21;1514;1
3457;21;1514;1
3458;20;1514;1
3459;20;1515;2
3460;21;1515;2
3461;21;1515;1
3462;20;1516;1
3463;20;1516;1
3464;20;1516;1
3465;20;1517;0
3466;19;1518;0
3467;20;1518;0
3468;21;1518;0
3469;22;1518;1
3470;22;1518;1
3471;21;1518;0
3472;22;1518;1
3473;22;1518;1
3474;22;1518;0
3475;22;1519;0
3476;23;1520;0
3477;24;1521;0
3478;23;1522;0
3479;22;1523;2
3480;22;1524;1
3481;21;1525;1
3482;20;1525;0
3483;22;1526;0
3484;22;1525;1
3485;22;1525;0
3486;22;1526;1
3487;22;1526;1
3488;22;1526;1
3489;23;1526;0
3490;22;1527;0
3491;22;1528;0
3492;22;1528;0
3493;23;1528;0
3494;24;1529;0
3495;23;1530;0
3496;23;1531;1
3497;22;1532;1
3498;22;1532;1
3499;22;1533;0
3500;21;1534;0
3501;22;1534;1
3502;22;1536;0
3503;21;1537;0
3504;22;1538;1
3505;22;1538;0
3506;22;1538;1
3507;22;1538;1
3508;23;1538;1
3509;22;1539;2
3510;22;1539;2
3511;22;1540;1
3512;22;1541;0
3513;23;1542;1
3514;23;1542;0
3515;24;1543;1
3516;23;1543;0
3517;23;1543;2
3518;23;1543;2
3519;23;1543;1
3520;23;1543;0
3521;22;1544;1
3522;21;1544;1
3523;21;1544;0
3524;22;1543;0
3525;23;1543;0
3526;22;1545;1
3527;22;1545;1
3528;22;1545;1
3529;23;1544;0
3530;23;1545;0
3531;23;1544;1
3532;24;1544;0
3533;24;1545;1
3534;24;1545;1
3535;24;1544;1
3536;23;1545;0
3537;23;1546;1
3538;22;1547;1
3539;22;1547;0
3540;23;1547;0
3541;23;1547;1
3542;23;1547;2
3543;23;1548;1
3544;22;1548;1
3545;21;1549;0
3546;21;1549;0
3547;20;1550;1
3548;21;1549;0
3549;21;1549;1
3550;20;1549;0
3551;21;1549;0
3552;22;1550;0
3553;21;1551;1
3554;20;1552;0
3555;20;1552;1
3556;20;1553;0
3557;20;1554;0
3558;21;1554;0
3559;21;1554;1
3560;20;1555;0
3561;21;1556;0
3562;20;1556;1
3563;21;1556;0
3564;22;1556;0
3565;22;1556;1
3566;22;1556;0
3567;24;1556;0
3568;23;1557;0
3569;23;1558;0
3570;22;1559;0
3571;22;1559;1
3572;22;1559;0
3573;23;1560;0
3574;23;1561;0
3575;23;1561;0
3576;24;1561;1
3577;25;1561;0
3578;24;1562;1
3579;24;1563;0
3580;24;1563;0
3581;23;1563;1
3582;22;1564;0
3583;23;1565;0
3584;23;1564;1
3585;22;1564;1
3586;22;1566;0
3587;21;1567;0
3588;23;1567;0
3589;23;1568;0
3590;23;1568;0
3591;23;1569;0
3592;22;1570;2
3593;22;1570;2
3594;21;1571;1
3595;22;1571;0
3596;22;1571;1
3597;22;1572;0
3598;23;1572;0
3599;23;1573;0
3600;22;1574;1
3601;21;1575;1
3602;20;1576;1
3603;19;1577;1
3604;19;1578;1
3605;20;1579;0
3606;20;1580;0
3607;20;1580;1
3608;20;1581;0
3609;20;1580;1
3610;21;1580;0
3611;22;1580;0
3612;22;1580;1
3613;21;1581;0
3614;20;1582;0
3615;21;1582;1
3616;21;1583;0
3617;21;1583;0
3618;22;1583;1
3619;22;1584;0
3620;21;1585;0
3621;21;1586;0
3622;23;1586;0
3623;23;1586;0
3624;25;1586;0
3625;25;1587;0
3626;24;1588;0
3627;26;1587;0
3628;25;1588;0
3629;26;1589;0
3630;25;1590;0
3631;26;1591;0
3632;26;1591;0
3633;27;1591;0
3634;27;1591;1
3635;27;1591;0
3636;27;1591;2
3637;27;1592;1
3638;26;1593;0
3639;25;1594;1
3640;25;1594;2
3641;25;1594;1
3642;25;1595;1
3643;23;1596;0
3644;23;1596;0
3645;22;1597;0
3646;22;1597;1
3647;22;1599;0
3648;21;1600;1
3649;22;1600;0
3650;21;1601;1
3651;21;1602;1
3652;21;1603;0
3653;20;1602;2
3654;19;1603;2
3655;19;1603;2
3656;19;1604;1
3657;19;1605;0
3658;20;1606;0
3659;20;1606;1
3660;21;1606;0
3661;21;1607;0
3662;22;1608;0
3663;22;1608;0
3664;21;1609;1
3665;20;1610;1
3666;20;1610;0
3667;20;1611;1
3668;20;1611;2
3669;21;1611;2
3670;20;1611;1
3671;22;1612;1
3672;22;1611;0
3673;22;1612;0
3674;24;1612;0
3675;25;1612;0
3676;26;1612;0
3677;25;1613;0
3678;25;1613;0
3679;25;1614;0
3680;26;1614;0
3681;25;1615;1
3682;25;1616;1
3683;25;1616;1
3684;26;1616;0
3685;26;1616;1
3686;26;1617;0
3687;26;1617;0
3688;26;1617;1
3689;25;1618;0
3690;26;1617;1
3691;26;1617;1
3692;25;1618;1
3693;25;1618;0
3694;26;1618;1
3695;26;1618;1
3696;27;1619;0
3697;26;1620;1
3698;26;1619;0
3699;26;1619;1
3700;25;1620;1
3701;24;1621;2
3702;24;1621;1
3703;24;1621;1
3704;24;1622;0
3705;25;1622;0
3706;25;1623;1
3707;24;1624;1
3708;25;1624;1
3709;25;1625;1
3710;24;1625;1
3711;24;1625;1
3712;24;1625;0
3713;26;1625;0
3714;27;1625;0
3715;27;1626;0
3716;27;1626;2
3717;27;1627;1
3718;26;1628;0
3719;25;1629;2
3720;25;1629;1
3721;26;1628;1
3722;26;1628;1
3723;25;1629;0
3724;26;1629;0
3725;26;1629;1
3726;25;1630;1
3727;25;1630;1
3728;25;1630;1
3729;26;1630;1
3730;25;1631;0
3731;26;1631;1
3732;25;1632;1
3733;25;1632;0
3734;24;1633;1
3735;24;1634;0
3736;24;1634;1
3737;24;1634;0
3738;23;1635;0
3739;23;1636;1
3740;21;1637;0
3741;20;1638;2
3742;20;1637;2
3743;20;1636;2
3744;19;1637;2
3745;20;1638;1
3746;21;1638;0
3747;22;1638;0
3748;21;1639;1
3749;22;1639;0
3750;23;1638;0
3751;22;1639;0
3752;22;1639;1
3753;22;1640;0
3754;22;1640;0
3755;23;1641;1
3756;23;1640;0
3757;23;1640;0
3758;22;1640;1
3759;22;1641;1
3760;21;1642;0
3761;21;1643;2
3762;21;1643;1
3763;22;1644;0
3764;22;1645;0
3765;22;1646;0
3766;22;1647;0
3767;24;1647;0
3768;24;1647;1
3769;24;1647;1
3770;25;1647;0
3771;25;1647;1
3772;25;1647;1
3773;26;1646;0
3774;26;1647;1
3775;26;1647;0
3776;27;1647;1
3777;26;1648;1
3778;27;1648;0
3779;27;1649;0
3780;28;1648;0
3781;27;1649;1
3782;27;1650;1
3783;28;1651;0
3784;27;1651;0
3785;28;1651;0
3786;29;1651;1
3787;29;1652;0
3788;29;1653;0
3789;28;1654;1
3790;28;1655;0
3791;28;1655;0
3792;29;1655;0
3793;28;1655;1
3794;28;1657;1
3795;27;1658;0
3796;29;1658;0
3797;28;1659;1
3798;28;1660;0
3799;29;1661;1
3800;28;1662;0
3801;27;1663;2
3802;28;1664;1
3803;28;1665;0
3804;27;1666;0
3805;27;1666;1
3806;27;1667;0
3807;28;1668;0
3808;28;1669;1
3809;27;1670;1
3810;26;1670;0
3811;27;1670;1
3812;26;1671;1
3813;25;1672;0
3814;24;1673;1
3815;24;1673;1
3816;23;1674;0
3817;24;1675;1
3818;24;1676;0
3819;23;1676;2
3820;23;1676;2
3821;24;1676;1
3822;23;1677;0
3823;22;1678;0
3824;23;1678;1
3825;23;1678;1
3826;24;1678;0
3827;24;1678;1
3828;23;1679;0
3829;23;1680;0
3830;22;1681;0
3831;23;1681;1
3832;23;1681;1
3833;22;1682;1
3834;22;1682;1
3835;23;1682;0
3836;23;1682;1
3837;23;1682;0
3838;22;1683;1
3839;22;1683;1
3840;21;1684;1
3841;21;1685;0
3842;22;1683;1
3843;22;1684;0
3844;21;1685;0
3845;20;1686;1
3846;19;1687;1
3847;19;1687;1
3848;19;1688;1
3849;19;1688;1
3850;19;1689;0
3851;19;1688;1
3852;19;1688;0
3853;18;1689;0
3854;19;1690;1
3855;19;1690;1
3856;18;1691;1
3857;18;1690;0
3858;18;1691;1
3859;18;1692;1
3860;18;1692;1
3861;19;1691;0
3862;19;1691;0
3863;19;1692;0
3864;19;1692;1
3865;19;1693;0
3866;18;1694;1
3867;18;1694;0
3868;19;1695;0
3869;20;1695;0
3870;19;1696;1
3871;19;1697;0
3872;18;1698;0
3873;18;1698;0
3874;18;1699;0
3875;18;1699;1
3876;19;1699;0
3877;20;1699;0
3878;21;1700;0
3879;21;1700;1
3880;20;1700;0
3881;19;1700;0
3882;18;1701;1
3883;18;1701;1
3884;17;1701;0
3885;18;1701;1
3886;17;1702;2
3887;16;1702;1
3888;16;1703;0
3889;15;1704;0
3890;15;1704;2
3891;14;1705;2
3892;13;1706;2
3893;13;1706;1
3894;13;1706;1
3895;12;1707;1
3896;12;1708;1
3897;11;1709;0
3898;11;1709;1
3899;13;1709;0
3900;13;1710;0
3901;14;1711;1
3902;13;1711;0
3903;15;1711;0
3904;15;1711;0
3905;15;1712;1
3906;14;1713;1
3907;13;1714;1
3908;13;1714;1
3909;14;1714;0
3910;13;1715;1
3911;14;1715;0
3912;14;1715;0
3913;13;1716;0
3914;14;1717;0
3915;13;1717;1
3916;12;1718;1
3917;11;1719;1
3918;11;1719;1
3919;13;1719;0
3920;14;1720;0
3921;14;1719;0
3922;15;1719;0
3923;15;1719;2
3924;15;1720;2
3925;15;1721;4
3926;15;1721;4
3927;15;1721;4
3928;15;1721;3
3929;17;1721;2
3930;16;1722;1
3931;17;1722;1
3932;17;1723;2
3933;17;1722;1
3934;17;1722;0
3935;18;1722;0
3936;18;1723;1
3937;17;1723;0
3938;19;1723;0
3939;19;1723;0
3940;19;1724;1
3941;18;1725;0
3942;17;1725;1
3943;17;1725;0
3944;18;1725;0
3945;18;1726;0
3946;19;1726;0
3947;20;1726;0
3948;19;1727;0
3949;20;1728;1
3950;19;1729;0
3951;18;1730;1
3952;18;1730;0
3953;17;1731;1
3954;17;1732;1
3955;18;1731;1
3956;18;1731;0
3957;18;1731;0
3958;19;1730;1
3959;18;1730;1
3960;19;1731;1
3961;19;1731;0
3962;18;1732;0
3963;18;1733;0
3964;19;1734;0
3965;20;1733;0
3966;19;1733;1
3967;20;1734;0
3968;20;1734;1
3969;20;1734;1
3970;19;1735;1
3971;19;1735;0
3972;19;1735;2
3973;19;1736;1
3974;18;1737;0
3975;17;1738;1
3976;16;1739;0
3977;18;1738;1
3978;18;1738;0
3979;20;1738;0
3980;20;1738;0
3981;21;1737;0
3982;22;1738;0
3983;22;1740;0
3984;22;1740;1
3985;24;1740;0
3986;24;1741;0
3987;24;1742;0
3988;25;1742;1
3989;25;1742;0
3990;24;1743;1
3991;24;1744;1
3992;24;1745;1
3993;24;1745;0
3994;24;1746;0
3995;25;1747;1
3996;25;1746;1
3997;25;1747;0
3998;25;1747;2
3999;25;1747;1
4000;26;1747;1
4001;26;1747;1
4002;26;1747;0
4003;25;1748;2
4004;25;1749;1
4005;25;1749;1
4006;25;1749;0
4007;24;1750;2
4008;23;1751;1
4009;25;1752;0
4010;24;1753;1
4011;25;1753;0
4012;25;1752;0
4013;25;1754;1
4014;25;1754;0
4015;25;1755;1
4016;26;1756;0
4017;25;1757;0
4018;25;1757;1
4019;25;1757;0
4020;25;1758;0
4021;26;1758;0
4022;25;1759;0
4023;24;1760;1
4024;25;1760;0
4025;26;1760;1
4026;26;1761;0
4027;26;1762;1
4028;26;1762;1
4029;27;1763;0
4030;26;1763;0
4031;28;1764;0
4032;28;1765;0
4033;28;1765;0
4034;28;1765;1
4035;28;1766;0
4036;27;1766;1
4037;26;1767;0
4038;26;1768;2
4039;26;1768;1
4040;26;1769;0
4041;25;1770;0
4042;24;1771;1
4043;24;1771;0
4044;24;1771;0
4045;25;1773;0
4046;24;1774;1
4047;23;1775;1
4048;23;1775;1
4049;23;1774;1
4050;23;1774;0
4051;24;1775;0
4052;23;1776;0
4053;23;1776;1
4054;24;1776;1
4055;24;1776;1
4056;24;1777;0
4057;24;1778;0
4058;24;1779;1
4059;24;1780;0
4060;24;1780;0
4061;24;1780;1
4062;23;1780;1
4063;22;1780;1
4064;21;1782;0
4065;22;1782;0
4066;23;1783;0
4067;23;1784;0
4068;22;1784;0
4069;24;1785;0
4070;25;1785;0
4071;25;1785;1
4072;24;1786;0
4073;24;1786;1
4074;23;1787;1
4075;24;1788;1
4076;22;1789;0
4077;21;1790;1
4078;20;1791;1
4079;20;1792;1
4080;20;1793;0
4081;22;1792;0
4082;22;1793;0
4083;21;1794;1
4084;20;1795;0
4085;22;1796;0
4086;22;1796;0
4087;23;1797;1
4088;22;1798;0
4089;21;1799;1
4090;22;1799;0
4091;22;1799;0
4092;22;1799;1
4093;22;1800;0
4094;22;1800;1
4095;22;1800;0
4096;22;1801;1
4097;22;1801;0
4098;22;1802;0
4099;22;1803;0
4100;24;1803;0
4101;24;1804;0
4102;23;1805;1
4103;24;1806;0
4104;24;1807;0
4105;24;1807;1
4106;24;1808;0
4107;25;1808;0
4108;25;1807;0
4109;24;1807;0
4110;25;1807;0
4111;24;1808;2
4112;24;1808;1
4113;24;1808;0
4114;25;1808;0
4115;26;1809;0
4116;26;1808;1
4117;26;1808;1
4118;25;1810;0
4119;26;1810;0
4120;27;1810;0
4121;27;1810;0
4122;29;1810;0
4123;30;1810;0
4124;29;1811;1
4125;28;1811;1
4126;28;1812;0
4127;29;1812;0
4128;30;1812;0
4129;30;1812;1
4130;29;1813;0
4131;30;1812;0
4132;32;1812;0
4133;32;1813;0
4134;32;1813;0
4135;32;1814;1
4136;32;1813;1
4137;32;1813;0
4138;31;1814;2
4139;32;1814;2
4140;32;1815;1
4141;33;1815;1
4142;34;1816;2
4143;33;1816;1
4144;32;1817;1
4145;33;1818;1
4146;33;1819;1
4147;34;1819;0
4148;34;1819;0
4149;35;1819;0
4150;36;1819;0
4151;35;1820;1
4152;35;1819;1
4153;36;1819;1
4154;36;1820;0
4155;37;1820;0
4156;36;1821;1
4157;36;1822;0
4158;36;1822;1
4159;36;1823;0
4160;37;1823;0
4161;37;1824;0
4162;36;1825;1
4163;35;1826;0
4164;34;1827;2
4165;34;1827;2
4166;33;1828;1
4167;34;1828;1
4168;34;1828;0
4169;35;1828;0
4170;35;1828;1
4171;34;1829;1
4172;35;1829;0
4173;35;1830;1
4174;35;1830;0
4175;35;1830;1
4176;36;1829;0
4177;36;1829;1
4178;36;1829;0
4179;36;1830;1
4180;36;1831;0
4181;36;1832;0
4182;36;1831;0
4183;36;1831;0
4184;37;1832;0
4185;37;1832;0
4186;37;1833;0
4187;39;1832;0
4188;39;1833;1
4189;39;1833;0
4190;38;1834;1
4191;38;1834;2
4192;38;1835;1
4193;39;1835;0
4194;38;1836;1
4195;37;1836;1
4196;38;1836;0
4197;38;1836;1
4198;38;1836;0
4199;38;1837;0
4200;39;1837;0
4201;39;1838;0
4202;39;1838;0
4203;39;1838;1
4204;40;1838;0
4205;41;1838;0
4206;40;1839;1
4207;41;1839;0
4208;41;1839;0
4209;40;1840;0
4210;41;1840;1
4211;40;1841;0
4212;40;1842;0
4213;39;1843;1
4214;40;1843;0
4215;40;1844;1
4216;39;1845;0
4217;40;1846;0
4218;39;1846;1
4219;39;1847;1
4220;38;1848;1
4221;37;1849;1
4222;37;1849;0
4223;38;1849;1
4224;38;1849;0
4225;39;1849;0
4226;39;1849;1
4227;39;1849;0
4228;38;1851;1
4229;39;1851;0
4230;39;1851;0
4231;38;1852;1
4232;38;1853;1
4233;39;1853;1
4234;39;1853;0
4235;38;1854;1
4236;37;1855;1
4237;39;1855;0
4238;38;1856;0
4239;39;1857;0
4240;39;1858;1
4241;39;1858;1
4242;38;1859;1
4243;39;1859;0
4244;40;1858;0
4245;40;1860;0
4246;39;1861;0
4247;39;1862;1
4248;39;1862;0
4249;39;1862;2
4250;39;1862;1
4251;39;1863;0
4252;39;1864;0
4253;39;1864;0
4254;38;1865;0
4255;39;1865;1
4256;39;1865;1
4257;39;1865;1
4258;39;1865;1
4259;40;1865;0
4260;39;1866;1
4261;39;1867;0
4262;38;1868;1
4263;38;1868;0
4264;38;1867;0
4265;38;1868;2
4266;37;1869;2
4267;37;1869;2
4268;37;1869;1
4269;38;1869;0
4270;37;1870;1
4271;37;1871;0
4272;38;1871;1
4273;37;1872;0
4274;37;1872;0
4275;37;1873;0
4276;37;1872;1
4277;37;1872;2
4278;36;1873;1
4279;36;1873;1
4280;35;1874;0
4281;35;1875;0
4282;34;1876;0
4283;35;1876;0
4284;35;1877;1
4285;35;1878;0
4286;36;1878;0
4287;36;1878;0
4288;36;1878;0
4289;37;1878;0
4290;38;1878;0
4291;39;1878;0
4292;38;1879;1
4293;39;1879;0
4294;38;1880;0
4295;37;1881;1
4296;38;1881;0
4297;39;1881;0
4298;38;1882;1
4299;39;1882;1
4300;38;1883;0
4301;39;1883;1
4302;38;1884;0
4303;38;1885;1
4304;38;1884;1
4305;37;1886;0
4306;37;1887;0
4307;36;1888;0
4308;36;1888;2
4309;35;1889;2
4310;34;1890;1
4311;35;1890;0
4312;34;1891;1
4313;35;1890;0
4314;35;1890;0
4315;36;1890;0
4316;36;1890;1
4317;36;1890;1
4318;36;1891;1
4319;36;1892;0
4320;37;1892;0
4321;37;1893;0
4322;36;1894;1
4323;35;1895;1
4324;35;1895;1
4325;35;1896;0
4326;34;1897;1
4327;34;1898;0
4328;34;1898;0
4329;35;1898;1
4330;35;1898;0
4331;35;1898;1
4332;34;1900;0
4333;35;1901;0
4334;34;1902;0
4335;34;1903;0
4336;34;1904;0
4337;34;1905;0
4338;36;1905;0
4339;37;1906;0
4340;37;1905;0
4341;37;1905;0
4342;38;1905;1
4343;39;1905;0
4344;38;1906;0
4345;39;1905;0
4346;39;1905;1
4347;38;1906;0
4348;40;1906;0
4349;41;1906;0
4350;40;1906;1
4351;41;1906;0
4352;41;1906;0
4353;41;1905;1
4354;41;1905;1
4355;40;1906;0
4356;41;1906;0
4357;41;1906;0
4358;41;1906;1
4359;41;1906;0
4360;40;1907;1
4361;40;1906;1
4362;40;1907;0
4363;40;1908;0
4364;39;1909;1
4365;39;1909;0
4366;39;1910;0
4367;40;1910;0
4368;40;1909;1
4369;40;1910;1
4370;39;1911;1
4371;38;1912;0
4372;38;1913;0
4373;39;1914;1
4374;38;1915;0
4375;38;1915;1
4376;37;1916;0
4377;38;1916;1
4378;39;1916;0
4379;39;1915;1
4380;38;1915;1
4381;39;1916;0
4382;40;1916;0
4383;40;1916;0
4384;39;1916;2
4385;38;1917;2
4386;39;1917;1
4387;38;1918;2
4388;37;1919;1
4389;37;1920;1
4390;37;1920;0
4391;37;1921;1
4392;38;1922;0
4393;37;1923;0
4394;38;1923;1
4395;39;1922;1
4396;39;1922;0
4397;38;1923;0
4398;38;1924;0
4399;38;1925;1
4400;38;1924;0
4401;39;1924;1
4402;38;1925;2
4403;39;1925;1
4404;39;1925;1
4405;38;1926;1
4406;38;1925;0
4407;37;1926;2
4408;37;1926;1
4409;38;1926;2
4410;38;1927;1
4411;38;1927;1
4412;37;1927;0
4413;37;1928;1
4414;37;1929;0
4415;38;1930;0
4416;37;1930;1
4417;38;1930;0
4418;38;1929;1
4419;38;1930;1
4420;37;1931;0
4421;38;1932;0
4422;39;1931;0
4423;40;1931;0
4424;40;1931;0
4425;40;1931;0
4426;41;1932;0
4427;41;1932;1
4428;41;1933;1
4429;42;1933;0
4430;43;1934;0
4431;43;1933;1
4432;42;1934;0
4433;43;1935;0
4434;43;1935;1
4435;43;1935;0
4436;43;1935;0
4437;44;1935;0
4438;45;1936;0
4439;46;1935;1
4440;45;1936;0
4441;45;1937;0
4442;46;1937;0
4443;45;1938;2
4444;45;1938;1
4445;45;1937;1
4446;46;1938;0
4447;45;1939;1
4448;45;1940;0
4449;45;1940;1
4450;45;1940;1
4451;45;1941;0
4452;46;1941;0
4453;46;1941;1
4454;46;1942;0
4455;47;1942;0
4456;47;1943;0
4457;46;1944;0
4458;47;1944;1
4459;47;1944;0
4460;48;1944;1
4461;47;1945;1
4462;46;1946;0
4463;47;1946;0
4464;47;1947;0
4465;47;1948;0
4466;46;1949;2
4467;46;1949;2
4468;46;1949;2
4469;46;1949;2
4470;46;1949;2
4471;46;1950;1
4472;46;1949;1
4473;45;1950;1
4474;46;1950;0
4475;47;1951;0
4476;47;1951;0
4477;49;1951;0
4478;48;1952;0
4479;49;1952;1
4480;49;1952;1
4481;49;1951;1
4482;49;1951;1
4483;50;1951;0
4484;49;1952;0
4485;50;1952;1
4486;50;1952;1
4487;49;1953;0
4488;48;1954;2
4489;49;1954;1
4490;48;1955;0
4491;48;1956;1
4492;48;1956;1
4493;49;1956;0
4494;50;1956;0
4495;50;1956;0
4496;51;1956;1
4497;50;1957;0
4498;50;1957;1
4499;50;1957;0
4500;52;1956;0
4501;52;1956;1
4502;52;1956;0
4503;52;1957;1
4504;52;1957;1
4505;51;1958;1
4506;51;1959;0
4507;52;1960;0
4508;52;1961;0
4509;53;1961;1
4510;54;1962;0
4511;54;1962;0
4512;53;1963;0
4513;53;1963;0
4514;53;1963;0
4515;55;1964;0
4516;54;1965;1
4517;53;1966;0
4518;54;1967;0
4519;54;1967;1
4520;53;1968;0
4521;54;1968;0
4522;55;1968;0
4523;56;1969;0
4524;55;1970;0
4525;56;1970;1
4526;56;1970;1
4527;56;1971;0
4528;56;1971;0
4529;55;1972;1
4530;55;1972;0
4531;56;1972;2
4532;56;1973;1
4533;56;1974;1
4534;55;1975;1
4535;55;1975;1
4536;55;1976;0
4537;56;1976;0
4538;55;1977;0
4539;55;1978;1
4540;54;1979;1
4541;53;1980;0
4542;54;1980;1
4543;54;1980;0
4544;54;1981;1
4545;53;1982;2
4546;52;1983;1
4547;52;1984;0
4548;51;1985;1
4549;50;1986;1
4550;51;1986;0
4551;51;1987;0
4552;52;1987;0
4553;52;1988;0
4554;52;1989;1
4555;51;1989;1
4556;50;1990;1
4557;50;1991;0
4558;51;1991;0
4559;51;1990;0
4560;53;1991;0
4561;53;1992;0
4562;53;1993;1
4563;52;1994;1
4564;52;1994;0
4565;52;1994;1
4566;51;1995;1
4567;51;1995;1
4568;51;1995;1
4569;50;1996;1
4570;50;1997;0
4571;49;1997;1
4572;48;1997;2
4573;48;1998;1
4574;48;1999;0
4575;48;2000;0
4576;47;2001;1
4577;46;2002;0
4578;45;2003;2
4579;44;2004;2
4580;43;2005;2
4581;43;2006;1
4582;44;2005;0
4583;43;2006;0
4584;43;2007;1
4585;43;2007;0
4586;43;2008;0
4587;43;2009;0
4588;43;2009;1
4589;42;2010;1
4590;42;2010;0
4591;42;2011;1
4592;42;2011;1
4593;42;2012;0
4594;42;2013;0
4595;42;2012;0
4596;41;2013;2
4597;42;2012;1
4598;43;2011;0
4599;44;2012;0
4600;43;2013;1
4601;43;2013;1
4602;44;2014;1
4603;43;2016;1
4604;43;2017;0
4605;42;2018;0
4606;43;2018;0
4607;43;2018;1
4608;44;2020;1
4609;43;2020;1
4610;43;2021;2
4611;43;2022;1
4612;43;2022;1
4613;43;2022;1
4614;44;2023;0
4615;43;2024;0
4616;45;2025;0
4617;44;2026;0
4618;44;2026;2
4619;45;2026;1
4620;45;2027;1
4621;45;2027;0
4622;46;2027;1
4623;46;2028;0
4624;46;2028;1
4625;46;2028;1
4626;45;2029;0
4627;44;2030;0
4628;45;2029;1
4629;45;2029;0
4630;46;2030;0
4631;45;2031;1
4632;44;2032;1
4633;45;2032;0
4634;45;2033;0
4635;44;2034;1
4636;44;2034;0
4637;44;2035;1
4638;43;2036;1
4639;43;2037;0
4640;43;2037;0
4641;42;2038;1
4642;42;2039;0
4643;43;2040;0
4644;42;2041;1
4645;42;2041;1
4646;42;2042;0
4647;43;2042;0
4648;44;2041;0
4649;43;2042;0
4650;44;2042;0
4651;44;2042;0
4652;45;2043;0
4653;45;2043;1
4654;45;2043;0
4655;46;2043;0
4656;47;2043;1
4657;47;2043;1
4658;47;2044;1
4659;46;2045;0
4660;46;2045;0
4661;46;2046;0
4662;47;2047;0
4663;46;2048;0
4664;47;2048;1
4665;47;2049;1
4666;48;2049;0
4667;47;2050;0
4668;47;2050;0
4669;46;2051;0
4670;47;2051;1
4671;47;2051;0
4672;47;2051;1
4673;48;2052;0
4674;48;2053;0
4675;48;2054;0
4676;48;2054;0
4677;48;2054;2
4678;47;2055;1
4679;48;2055;0
4680;48;2055;0
4681;50;2056;0
4682;50;2056;0
4683;50;2056;2
4684;50;2057;1
4685;50;2057;1
4686;50;2057;1
4687;50;2057;1
4688;49;2058;0
4689;50;2058;0
4690;50;2057;2
4691;50;2057;2
4692;49;2058;1
4693;49;2057;1
4694;48;2057;1
4695;47;2058;2
4696;47;2058;2
4697;48;2059;1
4698;47;2060;1
4699;47;2061;0
4700;47;2062;1
4701;47;2063;0
4702;47;2063;2
4703;47;2064;1
4704;47;2065;0
4705;47;2064;1
4706;47;2065;0
4707;47;2065;1
4708;47;2064;0
4709;46;2065;2
4710;46;2065;1
4711;46;2066;0
4712;47;2065;1
4713;46;2066;0
4714;46;2067;0
4715;47;2067;1
4716;47;2068;1
4717;46;2069;1
4718;46;2070;1
4719;47;2070;0
4720;48;2070;0
4721;48;2070;0
4722;48;2071;1
4723;49;2071;0
4724;48;2072;0
4725;49;2073;0
4726;49;2074;0
4727;50;2075;0
4728;50;2075;1
4729;50;2076;0
4730;50;2076;2
4731;49;2077;2
4732;49;2078;1
4733;48;2078;1
4734;47;2079;0
4735;48;2079;0
4736;48;2080;2
4737;49;2080;1
4738;50;2080;0
4739;51;2081;0
4740;52;2081;0
4741;52;2080;0
4742;52;2081;0
4743;52;2080;0
4744;51;2080;1
4745;52;2080;0
4746;53;2081;0
4747;53;2081;0
4748;52;2082;1
4749;51;2083;0
4750;51;2084;0
4751;51;2085;0
4752;51;2085;0
4753;51;2086;0
4754;50;2086;1
4755;50;2086;1
4756;49;2087;0
4757;49;2088;1
4758;49;2088;0
4759;50;2088;1
4760;50;2089;0
4761;49;2089;1
4762;49;2088;1
4763;49;2088;0
4764;49;2089;0
4765;48;2090;2
4766;48;2090;1
4767;48;2092;0
4768;48;2092;0
4769;50;2092;0
4770;50;2093;1
4771;48;2094;1
4772;48;2094;1
4773;48;2094;1
4774;48;2094;0
4775;48;2094;0
4776;48;2094;2
4777;48;2093;2
4778;48;2093;3
4779;47;2094;3
4780;46;2095;3
4781;46;2096;3
4782;46;2095;3
4783;46;2096;3
4784;46;2096;3
4785;47;2096;2
4786;47;2097;2
4787;47;2096;2
4788;48;2096;1
4789;49;2096;0
4790;49;2096;0
4791;49;2097;0
4792;50;2097;1
4793;51;2097;0
4794;52;2098;0
4795;52;2099;0
4796;51;2100;1
4797;50;2101;1
4798;50;2101;0
4799;49;2102;2
4800;49;2101;2
4801;48;2102;2
4802;48;2103;1
4803;48;2103;0
4804;48;2104;1
4805;47;2105;2
4806;46;2106;2
4807;46;2107;2
4808;45;2107;1
4809;45;2107;0
4810;44;2108;0
4811;45;2109;0
4812;45;2109;0
4813;45;2110;1
4814;44;2111;0
4815;44;2111;1
4816;44;2112;2
4817;44;2112;2
4818;45;2112;1
4819;44;2113;0
4820;45;2113;1
4821;45;2113;0
4822;46;2114;0
4823;45;2114;1
4824;45;2115;0
4825;45;2115;0
4826;45;2114;1
4827;44;2115;1
4828;45;2115;0
4829;45;2115;0
4830;46;2115;0
4831;46;2115;0
4832;48;2115;0
4833;48;2115;0
4834;48;2116;0
4835;48;2115;0
4836;47;2116;1
4837;46;2117;2
4838;46;2117;2
4839;45;2117;1
4840;44;2118;2
4841;45;2119;1
4842;44;2120;0
4843;43;2121;2
4844;42;2122;1
4845;43;2122;1
4846;44;2122;0
4847;43;2123;1
4848;43;2124;0
4849;43;2125;1
4850;42;2125;0
4851;43;2125;1
4852;42;2126;1
4853;42;2126;1
4854;42;2127;0
4855;42;2128;1
4856;40;2129;0
4857;41;2130;0
4858;41;2131;0
4859;42;2131;0
4860;42;2132;0
4861;43;2132;1
4862;44;2132;0
4863;43;2133;1
4864;42;2134;0
4865;42;2134;2
4866;41;2134;1
4867;42;2134;1
4868;42;2136;0
4869;42;2135;1
4870;42;2136;0
4871;43;2137;0
4872;43;2138;0
4873;42;2137;1
4874;42;2139;0
4875;42;2139;0
4876;43;2139;0
4877;42;2140;0
4878;41;2141;1
4879;41;2142;0
4880;41;2142;0
4881;41;2142;1
4882;40;2143;3
4883;41;2142;2
4884;41;2143;2
4885;41;2143;1
4886;41;2143;1
4887;40;2143;1
4888;41;2142;0
4889;40;2143;0
4890;41;2143;1
4891;40;2144;1
4892;40;2143;0
4893;40;2144;0
4894;40;2144;0
4895;40;2145;0
4896;41;2145;1
4897;40;2146;1
4898;41;2147;0
4899;40;2148;1
4900;39;2149;0
4901;39;2149;1
4902;38;2150;1
4903;38;2151;1
4904;38;2151;1
4905;38;2151;0
4906;38;2152;1
4907;37;2153;1
4908;36;2154;0
4909;36;2155;2
4910;36;2155;2
4911;35;2155;2
4912;34;2156;2
4913;33;2157;2
4914;33;2159;1
4915;33;2159;1
4916;32;2160;0
4917;32;2161;0
4918;31;2161;0
4919;31;2162;1
4920;30;2162;2
4921;30;2163;1
4922;31;2163;1
4923;31;2163;0
4924;32;2164;0
4925;32;2164;1
4926;32;2165;0
4927;32;2165;1
4928;31;2166;2
4929;31;2168;1
4930;31;2168;0
4931;31;2169;1
4932;31;2170;0
4933;30;2171;0
4934;30;2172;1
4935;29;2173;1
4936;30;2173;0
4937;30;2173;0
4938;30;2173;2
4939;31;2173;1
4940;31;2174;0
4941;31;2174;1
4942;31;2174;1
4943;32;2174;1
4944;32;2174;1
4945;32;2175;0
4946;31;2175;1
4947;31;2176;1
4948;31;2177;0
4949;31;2177;0
4950;32;2176;1
4951;32;2176;1
4952;31;2177;0
4953;30;2178;1
4954;30;2178;2
4955;31;2178;2
4956;32;2178;1
4957;32;2178;0
4958;31;2179;1
4959;30;2179;0
4960;31;2180;0
4961;31;2179;0
4962;31;2179;1
4963;31;2179;2
4964;31;2180;1
4965;31;2180;0
4966;31;2179;0
4967;31;2180;1
4968;31;2179;0
4969;31;2180;0
4970;30;2181;0
4971;30;2181;0
4972;32;2181;2
4973;31;2182;2
4974;31;2183;1
4975;31;2184;0
4976;31;2184;0
4977;32;2184;1
4978;31;2184;1
4979;31;2185;1
4980;31;2185;1
4981;30;2186;0
4982;32;2186;0
4983;33;2186;0
4984;33;2187;0
4985;34;2188;0
4986;34;2188;0
4987;33;2189;2
4988;32;2189;2
4989;32;2190;1
4990;33;2190;1
4991;33;2191;1
4992;32;2192;0
4993;31;2193;2
4994;31;2192;1
4995;30;2192;0
4996;30;2193;1
4997;31;2192;0
4998;32;2192;0
4999;31;2193;1
