step;d2;d3;d1
0;0;0;0
1;0;0;0
2;0;0;0
3;0;0;0
4;0;0;0
5;0;0;0
6;0;0;0
7;0;0;0
8;0;0;0
9;0;0;0
10;0;0;0
11;0;0;0
12;0;0;0
13;0;0;0
14;0;0;0
15;0;0;0
16;0;0;0
17;0;0;0
18;0;0;0
19;0;0;0
20;0;0;0
21;0;0;0
22;0;0;0
23;0;0;0
24;0;0;0
25;0;0;0
26;0;0;0
27;0;0;0
28;0;0;0
29;0;0;0
30;0;0;0
31;0;0;0
32;0;0;0
33;0;0;0
34;0;0;0
35;0;0;0
36;0;0;0
37;0;0;0
38;0;0;0
39;0;0;0
40;0;0;0
41;0;0;0
42;0;0;0
43;0;0;0
44;0;0;0
45;0;0;0
46;0;0;0
47;0;0;0
48;0;0;0
49;0;0;0
50;0;0;0
51;0;0;0
52;0;0;0
53;0;0;0
54;0;0;0
55;0;0;0
56;0;0;0
57;0;0;0
58;0;0;0
59;0;0;0
60;0;0;0
61;0;0;0
62;0;0;0
63;0;0;0
64;0;0;0
65;0;0;0
66;0;0;0
67;0;0;0
68;0;0;0
69;0;0;0
70;0;0;0
71;0;0;0
72;0;1;0
73;0;0;1
74;0;1;0
75;1;1;1
76;1;1;0
77;0;2;1
78;0;2;0
79;1;2;1
80;1;3;0
81;0;4;1
82;0;4;0
83;1;4;0
84;0;5;1
85;0;5;0
86;1;5;0
87;0;6;0
88;1;6;1
89;1;7;1
90;1;8;0
91;0;8;1
92;1;8;0
93;0;9;0
94;0;9;1
95;1;9;0
96;0;10;0
97;1;10;1
98;1;11;0
99;0;11;2
100;0;11;1
101;1;11;0
102;2;12;1
103;1;13;1
104;1;14;0
105;1;14;1
106;1;15;0
107;1;16;0
108;1;16;1
109;1;17;1
110;1;17;0
111;1;18;1
112;1;18;1
113;2;18;2
114;3;19;1
115;3;20;0
116;2;21;1
117;3;22;0
118;3;22;0
119;3;23;1
120;3;23;1
121;3;24;0
122;3;25;1
123;4;25;0
124;4;26;1
125;3;26;0
126;4;26;0
127;4;27;0
128;4;27;2
129;3;28;1
130;4;28;0
131;3;29;0
132;3;29;1
133;2;30;0
134;3;30;0
135;2;31;1
136;2;31;0
137;2;31;0
138;2;33;1
139;2;33;0
140;2;34;0
141;3;34;1
142;2;35;0
143;2;35;1
144;2;35;0
145;2;35;1
146;2;36;0
147;2;36;0
148;2;37;1
149;2;37;0
150;1;38;1
151;2;38;2
152;2;39;1
153;2;39;1
154;2;40;0
155;2;40;0
156;3;41;1
157;2;42;1
158;3;42;0
159;2;43;0
160;3;44;1
161;3;45;1
162;4;45;0
163;3;46;1
164;4;46;0
165;3;47;1
166;4;47;0
167;3;48;0
168;4;47;1
169;3;48;1
170;4;49;0
171;4;50;0
172;4;50;0
173;3;51;1
174;4;50;0
175;3;51;0
176;4;52;1
177;3;52;1
178;3;52;1
179;3;53;1
180;3;52;0
181;4;53;1
182;5;54;0
183;4;55;1
184;5;55;0
185;4;56;0
186;4;56;1
187;3;56;0
188;5;56;0
189;4;57;1
190;4;57;0
191;3;58;1
192;3;59;1
193;4;59;1
194;3;60;1
195;5;60;0
196;4;61;1
197;5;61;1
198;5;62;0
199;5;62;0
200;4;63;1
201;4;63;1
202;4;64;0
203;5;64;0
204;4;65;0
205;4;64;0
206;3;65;2
207;3;64;1
208;3;65;1
209;4;66;1
210;4;66;0
211;5;66;1
212;4;67;1
213;4;67;0
214;4;68;1
215;5;69;0
216;4;69;1
217;5;69;0
218;4;69;1
219;5;69;0
220;4;70;1
221;5;70;0
222;4;71;0
223;4;71;0
224;4;72;1
225;4;73;1
226;5;73;0
227;4;74;1
228;5;74;0
229;4;75;1
230;5;76;0
231;5;75;1
232;5;76;0
233;5;77;1
234;6;76;0
235;5;77;0
236;6;77;1
237;5;78;1
238;5;79;0
239;5;79;1
240;5;79;0
241;5;80;0
242;5;80;1
243;5;80;1
244;6;79;0
245;5;80;0
246;5;80;1
247;4;81;1
248;5;81;1
249;5;82;0
250;5;82;1
251;4;82;0
252;5;82;1
253;4;83;0
254;5;83;1
255;6;83;0
256;5;85;1
257;5;85;0
258;6;86;0
259;6;86;1
260;6;85;2
261;5;86;1
262;6;86;0
263;5;87;0
264;5;87;1
265;4;88;0
266;4;88;0
267;4;89;1
268;5;89;0
269;6;90;1
270;5;91;0
271;6;91;0
272;5;92;0
273;6;93;0
274;6;92;2
275;5;93;1
276;5;93;2
277;6;94;2
278;6;94;1
279;6;95;1
280;6;95;1
281;6;95;1
282;6;96;2
283;7;96;1
284;7;97;0
285;6;98;0
286;6;99;1
287;7;99;0
288;6;100;1
289;6;99;0
290;6;100;0
291;6;100;1
292;5;101;1
293;6;100;0
294;6;101;0
295;6;101;1
296;6;102;0
297;6;102;1
298;5;103;0
299;6;103;1
300;5;104;0
301;6;104;1
302;6;105;0
303;6;105;0
304;6;106;1
305;6;107;1
306;7;108;0
307;7;108;1
308;7;109;0
309;7;109;1
310;6;110;1
311;7;111;1
312;8;111;0
313;8;112;0
314;8;113;0
315;8;114;1
316;8;115;1
317;7;115;0
318;8;116;1
319;8;115;0
320;8;116;1
321;8;116;1
322;8;117;0
323;8;116;1
324;7;118;0
325;8;119;0
326;9;119;1
327;8;120;0
328;8;120;0
329;7;121;1
330;8;120;1
331;7;121;0
332;8;121;1
333;9;122;0
334;8;123;0
335;9;123;1
336;9;124;2
337;8;125;1
338;9;125;0
339;8;126;0
340;9;126;1
341;8;127;1
342;9;127;0
343;8;127;1
344;9;127;0
345;8;128;1
346;9;128;0
347;8;129;1
348;9;129;0
349;8;130;1
350;9;129;1
351;8;130;1
352;9;130;0
353;8;131;0
354;9;131;1
355;8;132;1
356;9;132;1
357;8;133;0
358;9;133;1
359;8;134;0
360;9;134;1
361;8;134;1
362;9;134;0
363;8;135;1
364;8;134;0
365;9;135;1
366;9;136;0
367;8;137;1
368;9;137;0
369;8;138;1
370;9;138;0
371;8;139;1
372;9;139;0
373;9;140;1
374;9;141;0
375;9;141;0
376;9;141;1
377;9;142;2
378;10;142;1
379;9;143;1
380;10;143;0
381;9;144;0
382;10;144;1
383;9;145;1
384;10;146;0
385;10;146;1
386;10;147;0
387;10;147;1
388;10;148;0
389;10;148;1
390;11;149;0
391;11;149;0
392;11;150;1
393;11;150;1
394;11;151;0
395;11;151;1
396;11;152;0
397;11;151;0
398;10;151;1
399;10;150;0
400;11;152;1
401;11;153;0
402;11;153;0
403;11;154;1
404;11;155;0
405;10;156;1
406;11;156;0
407;11;157;0
408;11;157;1
409;10;158;1
410;11;158;1
411;11;159;0
412;11;159;1
413;11;160;0
414;11;161;1
415;12;160;0
416;11;161;1
417;11;161;1
418;11;162;1
419;11;163;1
420;11;162;0
421;11;164;0
422;11;164;0
423;11;165;1
424;11;165;1
425;11;166;1
426;11;166;1
427;11;167;1
428;11;167;0
429;10;168;1
430;11;168;0
431;10;169;1
432;10;169;0
433;10;170;0
434;11;170;1
435;10;171;1
436;11;171;0
437;10;172;1
438;10;172;0
439;10;173;1
440;11;172;0
441;10;173;0
442;11;173;1
443;11;174;0
444;11;175;1
445;11;175;1
446;11;176;0
447;11;177;1
448;12;177;0
449;12;178;1
450;12;178;0
451;12;179;1
452;11;180;0
453;12;180;0
454;11;181;1
455;11;180;0
456;11;182;1
457;11;182;0
458;11;182;1
459;11;182;0
460;11;184;1
461;12;184;1
462;12;185;1
463;12;186;0
464;12;187;1
465;12;187;0
466;12;187;0
467;11;188;0
468;11;188;1
469;12;189;0
470;11;190;0
471;12;190;1
472;11;191;1
473;11;191;0
474;11;192;1
475;11;192;0
476;11;192;1
477;11;192;0
478;11;192;0
479;11;192;1
480;11;193;0
481;11;193;1
482;11;194;0
483;11;194;0
484;11;195;1
485;11;195;1
486;11;196;0
487;11;196;1
488;11;197;0
489;11;197;0
490;11;198;1
491;11;198;1
492;11;199;1
493;11;199;1
494;10;200;0
495;11;200;1
496;10;201;0
497;11;201;1
498;11;202;0
499;11;202;1
500;10;203;0
501;11;202;1
502;11;203;0
503;11;203;1
504;10;204;0
505;11;203;0
506;11;204;1
507;11;205;0
508;11;206;0
509;10;206;1
510;10;206;0
511;9;206;0
512;10;206;1
513;10;207;0
514;10;207;1
515;10;208;0
516;10;208;1
517;9;209;0
518;10;209;1
519;9;210;0
520;10;210;0
521;9;211;1
522;9;211;0
523;8;212;0
524;9;212;1
525;9;212;0
526;9;213;0
527;8;214;1
528;8;214;0
529;8;214;0
530;8;213;1
531;7;214;0
532;8;214;0
533;7;214;0
534;7;215;1
535;8;216;1
536;9;215;0
537;9;216;1
538;9;217;0
539;9;217;0
540;8;218;1
541;8;218;0
542;8;219;0
543;8;220;0
544;8;220;1
545;8;220;1
546;8;220;1
547;7;221;1
548;8;221;0
549;7;222;0
550;8;222;1
551;7;223;0
552;7;223;1
553;6;224;1
554;7;224;1
555;7;225;0
556;8;225;1
557;7;226;0
558;7;226;0
559;7;227;1
560;7;227;1
561;7;228;1
562;7;228;1
563;7;229;0
564;7;229;0
565;6;230;1
566;6;229;0
567;6;229;1
568;7;230;0
569;7;230;1
570;7;230;0
571;7;230;0
572;6;230;1
573;6;230;0
574;6;231;0
575;6;231;1
576;7;232;0
577;6;233;0
578;7;233;1
579;6;233;1
580;7;233;0
581;6;234;1
582;7;235;1
583;7;236;2
584;7;235;1
585;7;234;1
586;7;235;0
587;7;235;0
588;6;236;1
589;7;236;1
590;6;236;1
591;7;236;0
592;6;237;1
593;6;237;0
594;6;238;0
595;6;238;0
596;6;239;1
597;6;239;2
598;6;240;1
599;6;240;1
600;6;241;0
601;6;241;1
602;6;242;0
603;6;242;0
604;6;243;1
605;6;244;1
606;7;244;0
607;6;245;1
608;7;246;0
609;7;246;1
610;7;247;0
611;7;248;1
612;8;248;0
613;7;249;1
614;8;249;0
615;7;250;0
616;7;250;1
617;7;251;0
618;7;250;1
619;7;251;0
620;7;252;1
621;8;252;0
622;7;252;1
623;7;252;0
624;7;253;0
625;7;253;0
626;8;254;1
627;7;255;0
628;8;255;1
629;7;256;0
630;8;256;1
631;8;257;0
632;8;258;1
633;8;258;0
634;8;259;1
635;8;258;1
636;7;259;1
637;7;260;0
638;7;261;1
639;7;261;0
640;7;262;0
641;8;261;0
642;7;262;1
643;8;262;0
644;7;263;0
645;7;263;1
646;6;264;1
647;7;264;0
648;6;264;0
649;7;264;1
650;6;265;2
651;6;265;1
652;7;266;1
653;6;267;0
654;7;267;1
655;7;268;0
656;7;268;1
657;6;269;0
658;7;268;0
659;6;269;1
660;6;270;0
661;6;270;1
662;7;269;0
663;6;270;1
664;7;270;0
665;7;271;1
666;7;272;0
667;7;272;0
668;7;273;1
669;7;273;2
670;7;274;1
671;8;275;0
672;7;276;1
673;8;276;0
674;7;277;0
675;8;277;1
676;7;278;1
677;8;277;1
678;8;277;1
679;7;279;0
680;8;278;0
681;7;278;1
682;7;278;0
683;8;279;0
684;8;280;0
685;8;281;1
686;8;281;0
687;8;282;1
688;8;282;0
689;7;284;1
690;8;283;0
691;7;285;0
692;8;285;1
693;8;286;1
694;8;288;0
695;8;288;1
696;8;289;0
697;8;290;0
698;8;290;1
699;8;291;1
700;8;291;1
701;8;292;0
702;8;292;0
703;7;293;0
704;7;293;1
705;7;294;0
706;7;294;1
707;7;295;0
708;7;295;1
709;7;296;1
710;7;296;1
711;6;297;0
712;7;297;1
713;6;298;0
714;7;298;0
715;6;299;1
716;7;299;0
717;6;300;0
718;7;299;1
719;7;300;1
720;6;300;0
721;7;301;1
722;7;301;1
723;6;302;0
724;6;303;1
725;7;304;0
726;7;304;0
727;6;304;1
728;7;304;1
729;6;305;1
730;6;305;1
731;7;306;1
732;7;307;0
733;7;307;1
734;8;308;0
735;8;308;1
736;8;309;1
737;8;309;1
738;8;310;0
739;8;310;0
740;7;311;1
741;8;311;1
742;8;312;0
743;8;312;1
744;8;313;0
745;8;313;1
746;8;314;0
747;8;314;1
748;8;315;0
749;8;315;1
750;8;316;0
751;8;316;1
752;9;316;0
753;8;317;0
754;9;317;1
755;8;318;0
756;8;318;1
757;7;319;0
758;8;319;0
759;8;320;1
760;8;320;0
761;8;321;1
762;8;321;0
763;8;321;1
764;7;322;0
765;8;323;1
766;8;323;0
767;8;324;1
768;9;324;0
769;8;325;1
770;9;326;0
771;9;326;1
772;9;327;0
773;9;327;0
774;8;328;1
775;9;329;0
776;9;329;1
777;10;330;0
778;9;330;0
779;8;331;0
780;8;331;1
781;8;332;1
782;8;332;0
783;8;333;0
784;8;333;0
785;7;334;1
786;8;334;0
787;7;334;1
788;8;334;0
789;7;335;1
790;8;335;0
791;7;336;1
792;7;335;0
793;7;336;1
794;8;336;0
795;7;337;1
796;8;337;0
797;8;338;0
798;7;339;1
799;8;339;0
800;7;340;0
801;7;340;1
802;7;341;1
803;7;341;0
804;7;342;1
805;7;342;0
806;6;343;0
807;7;343;0
808;7;344;1
809;7;344;1
810;6;345;0
811;7;344;1
812;6;345;0
813;7;345;0
814;7;346;1
815;7;346;0
816;7;347;1
817;7;347;1
818;6;348;0
819;7;348;0
820;7;347;0
821;8;348;1
822;7;349;1
823;8;350;0
824;8;351;0
825;9;351;1
826;8;352;0
827;8;352;1
828;8;353;0
829;8;353;1
830;7;354;0
831;8;355;1
832;9;355;0
833;8;356;0
834;9;355;1
835;8;356;0
836;8;356;1
837;7;357;0
838;7;356;1
839;8;357;1
840;9;357;0
841;8;358;1
842;9;358;0
843;8;358;1
844;9;358;0
845;8;359;1
846;9;359;0
847;8;360;1
848;8;360;0
849;8;361;0
850;8;360;1
851;8;361;0
852;8;361;0
853;7;362;1
854;8;362;0
855;7;363;1
856;8;363;0
857;7;364;1
858;7;364;0
859;7;365;1
860;8;365;0
861;7;366;1
862;7;366;0
863;7;367;1
864;7;367;0
865;7;368;1
866;8;368;1
867;7;369;1
868;8;369;1
869;7;369;0
870;7;369;0
871;6;370;0
872;7;370;1
873;6;371;1
874;7;371;0
875;6;372;0
876;6;372;1
877;6;373;1
878;6;373;0
879;6;374;0
880;6;374;1
881;6;374;0
882;6;375;1
883;7;375;0
884;6;377;0
885;6;378;1
886;6;378;0
887;6;379;0
888;6;379;1
889;6;380;0
890;6;380;0
891;5;381;1
892;6;382;0
893;5;382;1
894;5;382;0
895;4;383;0
896;5;383;0
897;4;384;1
898;5;383;0
899;4;384;1
900;4;385;0
901;5;385;0
902;4;386;1
903;5;386;1
904;5;387;0
905;5;386;1
906;5;387;0
907;5;388;1
908;5;389;0
909;5;389;0
910;4;390;1
911;5;390;1
912;5;391;0
913;6;392;0
914;5;393;0
915;5;393;0
916;5;394;1
917;5;394;0
918;4;395;1
919;4;396;0
920;4;396;0
921;4;396;1
922;4;397;0
923;4;397;0
924;3;398;1
925;3;398;0
926;3;398;1
927;3;398;0
928;3;399;1
929;4;399;0
930;3;400;1
931;3;401;0
932;4;401;0
933;4;402;1
934;4;402;1
935;4;403;0
936;4;403;0
937;3;404;0
938;4;403;1
939;3;404;1
940;3;405;0
941;3;406;0
942;4;405;0
943;3;406;2
944;3;406;1
945;4;406;0
946;3;407;1
947;3;407;0
948;3;407;1
949;4;407;0
950;3;407;1
951;4;407;0
952;3;407;1
953;3;407;0
954;2;409;0
955;2;409;0
956;3;410;1
957;2;411;0
958;3;411;0
959;3;412;1
960;3;411;1
961;3;412;0
962;3;412;1
963;4;413;0
964;4;414;0
965;4;415;1
966;3;415;2
967;4;415;1
968;4;416;1
969;4;417;0
970;4;417;1
971;4;418;0
972;4;419;0
973;4;418;1
974;4;419;0
975;4;419;0
976;3;419;1
977;4;420;1
978;4;421;1
979;3;423;0
980;4;423;1
981;5;424;0
982;4;425;1
983;5;425;0
984;4;426;1
985;5;425;0
986;5;426;1
987;5;427;0
988;5;427;1
989;4;428;0
990;5;429;1
991;6;430;0
992;6;431;1
993;5;430;0
994;5;430;0
995;5;430;0
996;5;431;1
997;5;432;0
998;5;433;1
999;6;433;0
1000;5;434;0
1001;5;434;0
1002;4;435;1
1003;5;435;0
1004;5;436;1
1005;5;436;0
1006;4;437;1
1007;5;437;2
1008;4;438;2
1009;5;438;1
1010;4;439;1
1011;4;439;0
1012;4;440;0
1013;4;440;1
1014;4;441;0
1015;4;441;0
1016;3;441;1
1017;4;440;1
1018;3;441;0
1019;4;441;0
1020;4;442;1
1021;5;441;1
1022;5;442;0
1023;5;442;0
1024;5;443;1
1025;5;443;1
1026;4;444;0
1027;5;444;1
1028;5;445;1
1029;5;445;1
1030;4;446;0
1031;5;446;1
1032;4;447;0
1033;5;447;0
1034;4;448;1
1035;5;448;0
1036;4;449;0
1037;4;449;1
1038;4;450;1
1039;5;450;0
1040;4;451;1
1041;5;450;1
1042;4;452;1
1043;5;452;1
1044;4;453;1
1045;5;453;0
1046;4;454;1
1047;4;454;0
1048;5;455;1
1049;5;456;0
1050;5;456;1
1051;5;457;0
1052;5;456;0
1053;5;457;1
1054;5;459;1
1055;6;459;0
1056;6;459;0
1057;7;460;1
1058;7;461;1
1059;7;462;0
1060;7;462;0
1061;6;463;1
1062;6;463;0
1063;7;463;0
1064;6;463;1
1065;7;463;0
1066;6;464;1
1067;7;464;0
1068;6;465;0
1069;7;465;1
1070;6;466;1
1071;7;465;0
1072;6;466;1
1073;7;466;0
1074;6;467;0
1075;6;467;1
1076;6;467;1
1077;7;467;0
1078;6;467;0
1079;6;468;1
1080;6;468;0
1081;6;469;1
1082;7;470;0
1083;7;470;0
1084;7;471;1
1085;7;471;1
1086;6;472;0
1087;7;471;0
1088;6;472;1
1089;6;472;0
1090;6;473;1
1091;7;473;0
1092;6;474;1
1093;6;475;0
1094;7;475;1
1095;7;476;0
1096;7;476;0
1097;7;477;1
1098;7;477;1
1099;7;478;0
1100;7;478;1
1101;7;478;0
1102;7;478;0
1103;6;479;0
1104;6;479;1
1105;6;480;1
1106;6;480;1
1107;6;481;0
1108;6;481;1
1109;6;481;0
1110;6;482;0
1111;6;482;1
1112;7;483;0
1113;6;484;1
1114;6;484;0
1115;6;485;1
1116;7;484;0
1117;6;485;0
1118;6;485;1
1119;6;486;1
1120;6;486;0
1121;6;487;0
1122;7;487;1
1123;6;487;1
1124;6;487;0
1125;6;488;1
1126;7;488;0
1127;6;489;1
1128;6;489;0
1129;6;490;1
1130;7;490;1
1131;6;491;1
1132;6;491;0
1133;7;491;1
1134;7;492;0
1135;7;491;0
1136;6;492;1
1137;7;492;0
1138;7;492;1
1139;7;493;0
1140;7;493;1
1141;7;494;0
1142;7;494;1
1143;6;495;0
1144;6;495;0
1145;6;496;1
1146;7;496;0
1147;6;497;1
1148;6;497;0
1149;6;498;0
1150;7;498;0
1151;6;499;1
1152;7;499;1
1153;6;500;1
1154;7;500;0
1155;6;501;1
1156;7;501;0
1157;6;502;1
1158;7;502;0
1159;6;503;0
1160;6;503;1
1161;7;503;1
1162;7;503;0
1163;7;503;1
1164;7;503;0
1165;7;503;0
1166;6;504;1
1167;7;504;0
1168;7;505;0
1169;7;506;1
1170;7;507;1
1171;7;507;1
1172;8;508;1
1173;9;509;0
1174;8;510;1
1175;7;510;0
1176;8;511;0
1177;8;510;0
1178;7;510;0
1179;7;511;0
1180;8;512;1
1181;7;513;0
1182;7;513;0
1183;6;513;1
1184;7;513;0
1185;7;513;0
1186;6;514;1
1187;7;515;0
1188;7;516;1
1189;7;516;0
1190;7;517;1
1191;7;517;1
1192;7;518;1
1193;8;519;0
1194;8;519;0
1195;8;520;1
1196;8;520;1
1197;8;521;0
1198;8;521;0
1199;8;521;1
1200;8;522;0
1201;8;522;0
1202;8;523;1
1203;8;523;1
1204;8;524;0
1205;8;524;1
1206;7;525;0
1207;8;525;0
1208;7;526;1
1209;8;526;0
1210;7;526;1
1211;8;526;0
1212;7;527;0
1213;8;527;1
1214;8;528;0
1215;7;529;0
1216;8;528;1
1217;7;529;1
1218;8;529;0
1219;7;530;1
1220;8;531;1
1221;8;530;1
1222;7;532;0
1223;8;532;0
1224;8;533;0
1225;8;534;1
1226;8;533;1
1227;8;533;0
1228;7;534;1
1229;8;534;0
1230;7;534;0
1231;8;534;1
1232;7;535;1
1233;7;535;0
1234;7;536;0
1235;7;536;0
1236;7;537;1
1237;7;537;1
1238;8;538;0
1239;7;539;1
1240;7;539;0
1241;7;540;1
1242;8;540;0
1243;7;541;0
1244;8;541;1
1245;7;542;1
1246;7;542;0
1247;6;543;0
1248;7;542;1
1249;6;543;0
1250;7;543;1
1251;7;543;0
1252;7;543;0
1253;6;544;1
1254;6;543;0
1255;5;544;0
1256;6;545;1
1257;5;545;0
1258;6;545;1
1259;6;546;0
1260;6;546;1
1261;7;546;0
1262;6;547;0
1263;6;547;0
1264;7;547;1
1265;6;548;1
1266;7;547;0
1267;6;548;0
1268;6;548;1
1269;6;549;0
1270;6;549;0
1271;5;550;1
1272;6;549;1
1273;6;550;0
1274;6;550;1
1275;6;551;0
1276;6;552;1
1277;7;553;0
1278;7;553;0
1279;6;553;0
1280;7;553;1
1281;6;554;1
1282;6;554;0
1283;6;554;0
1284;6;555;0
1285;6;555;0
1286;6;556;1
1287;6;556;1
1288;6;557;0
1289;6;558;1
1290;6;558;0
1291;6;559;0
1292;6;559;1
1293;6;560;1
1294;6;560;0
1295;6;561;0
1296;6;561;0
1297;5;562;1
1298;6;563;1
1299;7;563;0
1300;6;564;1
1301;7;563;0
1302;6;564;1
1303;6;564;0
1304;6;565;0
1305;6;564;0
1306;5;565;1
1307;6;564;1
1308;6;565;1
1309;6;564;2
1310;6;565;1
1311;6;567;0
1312;6;567;1
1313;6;568;0
1314;6;568;1
1315;6;569;0
1316;6;569;1
1317;5;569;0
1318;6;569;0
1319;5;571;1
1320;6;572;0
1321;6;571;1
1322;6;571;0
1323;5;572;0
1324;6;572;1
1325;5;573;0
1326;6;573;1
1327;5;574;1
1328;6;574;0
1329;5;574;1
1330;6;574;0
1331;6;575;0
1332;5;575;0
1333;4;576;0
1334;4;576;0
1335;3;577;0
1336;4;577;1
1337;3;578;2
1338;3;578;1
1339;3;579;1
1340;4;579;0
1341;3;580;1
1342;3;580;0
1343;3;581;1
1344;4;581;0
1345;3;582;1
1346;3;583;0
1347;4;584;1
1348;4;584;0
1349;5;585;0
1350;4;585;1
1351;3;586;0
1352;4;586;0
1353;4;587;1
1354;4;587;1
1355;4;588;1
1356;4;588;1
1357;4;588;0
1358;4;588;1
1359;4;589;0
1360;4;589;1
1361;4;590;0
1362;4;590;1
1363;4;591;1
1364;4;592;0
1365;5;592;1
1366;4;593;0
1367;5;593;1
1368;4;594;1
1369;5;594;0
1370;4;595;0
1371;4;595;1
1372;4;596;1
1373;5;596;1
1374;4;597;1
1375;5;597;0
1376;4;598;1
1377;5;598;0
1378;4;599;0
1379;5;598;1
1380;4;598;0
1381;5;597;1
1382;4;598;1
1383;5;597;0
1384;4;598;0
1385;4;598;1
1386;4;599;0
1387;4;599;1
1388;4;600;0
1389;4;600;1
1390;4;601;0
1391;4;602;1
1392;5;602;1
1393;4;603;1
1394;4;603;0
1395;3;604;0
1396;3;603;0
1397;3;604;0
1398;3;604;1
1399;3;605;0
1400;3;605;1
1401;3;605;1
1402;3;605;1
1403;4;606;0
1404;3;607;1
1405;4;607;0
1406;4;608;0
1407;3;609;0
1408;3;609;1
1409;3;610;1
1410;3;611;0
1411;4;611;1
1412;4;612;1
1413;4;612;2
1414;4;613;1
1415;4;613;1
1416;5;613;1
1417;4;613;1
1418;5;613;0
1419;4;614;1
1420;4;613;0
1421;3;614;0
1422;4;615;0
1423;5;615;1
1424;4;615;1
1425;5;615;0
1426;4;615;0
1427;5;615;1
1428;4;616;0
1429;5;615;1
1430;4;617;1
1431;4;617;1
1432;4;618;0
1433;4;618;0
1434;3;619;1
1435;4;619;0
1436;4;620;1
1437;4;621;0
1438;4;621;0
1439;4;622;1
1440;4;621;2
1441;3;622;1
1442;4;622;1
1443;3;622;1
1444;3;622;0
1445;3;623;1
1446;4;623;0
1447;3;624;1
1448;3;624;0
1449;3;625;0
1450;3;624;1
1451;3;625;1
1452;3;625;0
1453;3;626;0
1454;4;625;1
1455;4;626;0
1456;4;627;1
1457;4;627;0
1458;3;628;1
1459;4;628;0
1460;3;628;0
1461;3;628;1
1462;2;629;0
1463;3;629;1
1464;2;630;0
1465;3;630;0
1466;2;631;1
1467;3;631;0
1468;2;632;1
1469;2;632;0
1470;2;633;1
1471;3;633;0
1472;3;634;1
1473;4;635;0
1474;3;636;1
1475;3;636;0
1476;3;637;1
1477;3;637;0
1478;2;638;0
1479;3;638;0
1480;3;639;1
1481;3;639;0
1482;3;640;1
1483;3;640;1
1484;3;641;0
1485;3;642;1
1486;4;642;0
1487;3;643;1
1488;4;643;0
1489;3;643;1
1490;4;643;0
1491;3;644;0
1492;4;644;1
1493;3;645;0
1494;3;644;1
1495;3;645;0
1496;3;645;0
1497;3;646;1
1498;3;646;1
1499;2;647;0
1500;3;647;1
1501;3;648;1
1502;3;649;2
1503;4;649;1
1504;3;650;1
1505;4;649;0
1506;3;650;0
1507;4;650;1
1508;3;651;0
1509;4;651;1
1510;4;652;1
1511;4;653;0
1512;4;653;1
1513;4;654;0
1514;4;654;0
1515;4;655;1
1516;4;656;1
1517;4;656;0
1518;4;657;0
1519;4;658;1
1520;4;658;1
1521;4;658;1
1522;3;659;0
1523;4;660;0
1524;5;659;0
1525;4;660;1
1526;4;660;1
1527;4;661;1
1528;5;661;0
1529;4;661;1
1530;5;661;0
1531;4;662;0
1532;4;661;0
1533;3;662;1
1534;3;662;0
1535;3;663;1
1536;4;663;0
1537;3;663;0
1538;4;663;1
1539;4;664;0
1540;3;664;1
1541;3;665;1
1542;3;665;0
1543;3;665;1
1544;3;665;0
1545;3;666;0
1546;3;666;1
1547;2;667;0
1548;3;667;1
1549;2;668;0
1550;2;667;0
1551;2;668;1
1552;2;669;0
1553;2;669;0
1554;2;670;0
1555;3;670;1
1556;2;671;1
1557;2;671;0
1558;2;672;0
1559;3;673;1
1560;3;673;1
1561;3;673;0
1562;3;674;1
1563;2;675;0
1564;3;675;1
1565;3;676;0
1566;3;676;0
1567;3;677;1
1568;3;677;0
1569;2;678;1
1570;3;678;1
1571;2;679;0
1572;3;679;1
1573;2;679;1
1574;3;679;1
1575;2;680;0
1576;2;680;1
1577;2;681;0
1578;2;680;1
1579;1;681;0
1580;2;682;1
1581;3;682;1
1582;2;682;1
1583;1;683;0
1584;2;683;1
1585;2;684;0
1586;2;685;1
1587;3;686;0
1588;3;686;0
1589;3;686;1
1590;3;687;1
1591;3;687;0
1592;3;688;1
1593;3;688;0
1594;2;689;0
1595;3;689;1
1596;2;690;0
1597;3;691;1
1598;3;691;0
1599;3;692;0
1600;4;692;1
1601;3;693;1
1602;4;693;0
1603;3;694;0
1604;3;694;1
1605;3;695;1
1606;3;695;0
1607;3;696;0
1608;3;696;1
1609;3;696;2
1610;3;696;1
1611;4;696;1
1612;4;697;0
1613;4;697;1
1614;3;698;0
1615;4;698;0
1616;3;699;0
1617;3;699;1
1618;2;700;0
1619;3;700;0
1620;3;701;0
1621;3;701;0
1622;2;702;2
1623;3;702;3
1624;2;703;2
1625;3;703;2
1626;3;704;1
1627;3;704;0
1628;3;705;1
1629;3;704;0
1630;2;704;1
1631;3;704;0
1632;2;703;0
1633;2;703;1
1634;2;704;1
1635;3;704;0
1636;2;705;0
1637;3;705;1
1638;3;706;1
1639;3;707;0
1640;3;707;1
1641;3;707;0
1642;3;707;0
1643;3;708;1
1644;3;708;0
1645;2;709;1
1646;3;709;0
1647;2;710;1
1648;2;710;0
1649;2;711;0
1650;3;711;1
1651;2;712;2
1652;3;712;1
1653;2;712;1
1654;2;711;0
1655;2;712;1
1656;3;713;0
1657;3;713;0
1658;3;714;1
1659;3;714;0
1660;2;715;1
1661;2;716;0
1662;3;717;0
1663;3;717;1
1664;3;718;0
1665;3;718;1
1666;3;719;0
1667;3;719;1
1668;3;720;0
1669;3;720;1
1670;3;720;0
1671;3;720;1
1672;4;721;0
1673;4;721;1
1674;4;722;1
1675;4;722;1
1676;5;723;0
1677;5;724;0
1678;5;725;1
1679;5;724;1
1680;4;725;0
1681;5;725;0
1682;4;726;0
1683;5;726;1
1684;5;727;1
1685;4;728;1
1686;5;728;1
1687;5;729;0
1688;5;730;1
1689;5;730;0
1690;5;731;1
1691;6;731;1
1692;5;732;1
1693;5;732;0
1694;4;733;0
1695;5;733;1
1696;4;734;0
1697;5;734;1
1698;6;735;0
1699;5;736;1
1700;6;736;0
1701;5;736;0
1702;5;736;1
1703;5;738;1
1704;6;738;0
1705;5;739;0
1706;5;739;1
1707;5;739;0
1708;5;740;1
1709;5;740;1
1710;5;740;1
1711;4;741;0
1712;5;740;1
1713;4;741;0
1714;5;741;1
1715;5;742;0
1716;5;743;1
1717;6;743;0
1718;5;744;1
1719;5;744;0
1720;5;745;0
1721;5;745;1
1722;6;746;0
1723;5;747;0
1724;6;748;1
1725;5;748;1
1726;6;748;0
1727;5;749;1
1728;5;750;1
1729;5;751;0
1730;5;751;1
1731;6;751;0
1732;5;752;1
1733;5;752;0
1734;5;753;1
1735;6;753;0
1736;5;754;1
1737;6;754;1
1738;5;755;1
1739;6;755;1
1740;5;756;1
1741;6;756;1
1742;5;757;1
1743;6;757;0
1744;5;758;0
1745;5;757;1
1746;5;758;0
1747;6;758;1
1748;5;759;1
1749;6;760;0
1750;5;760;0
1751;5;760;1
1752;5;761;0
1753;6;761;1
1754;5;762;1
1755;6;762;0
1756;5;763;1
1757;5;763;0
1758;5;764;1
1759;6;764;1
1760;5;765;0
1761;5;765;1
1762;5;766;0
1763;5;766;1
1764;5;767;0
1765;6;767;1
1766;5;768;1
1767;5;767;0
1768;5;767;1
1769;5;768;0
1770;4;768;0
1771;5;768;1
1772;5;769;0
1773;5;769;1
1774;5;771;0
1775;5;771;1
1776;5;772;0
1777;5;772;1
1778;5;773;0
1779;5;773;1
1780;5;773;0
1781;5;774;0
1782;4;774;1
1783;5;775;0
1784;5;777;1
1785;5;777;0
1786;4;778;1
1787;4;779;1
1788;6;779;1
1789;5;779;0
1790;5;779;1
1791;5;779;0
1792;5;780;1
1793;5;779;0
1794;6;779;0
1795;5;780;1
1796;6;780;0
1797;6;781;1
1798;6;781;0
1799;5;782;1
1800;5;782;0
1801;5;783;0
1802;5;784;0
1803;4;785;2
1804;4;786;2
1805;4;786;2
1806;4;785;1
1807;5;786;0
1808;5;787;0
1809;7;788;1
1810;6;788;0
1811;7;790;1
1812;7;791;0
1813;7;791;1
1814;7;791;1
1815;7;791;0
1816;7;791;1
1817;7;792;0
1818;7;791;1
1819;6;792;0
1820;7;792;0
1821;6;793;1
1822;7;793;0
1823;6;794;1
1824;7;794;0
1825;6;795;0
1826;6;795;1
1827;6;796;1
1828;7;796;0
1829;7;796;0
1830;7;797;1
1831;7;798;0
1832;7;798;0
1833;7;798;1
1834;7;798;0
1835;7;798;1
1836;7;798;1
1837;6;798;0
1838;7;797;0
1839;8;798;0
1840;7;798;1
1841;6;799;1
1842;7;800;0
1843;7;800;1
1844;6;801;0
1845;7;801;0
1846;7;802;1
1847;7;802;2
1848;6;803;1
1849;7;803;0
1850;7;804;0
1851;6;804;1
1852;6;805;0
1853;6;805;1
1854;6;806;0
1855;6;807;1
1856;7;807;0
1857;6;808;1
1858;6;808;0
1859;7;809;0
1860;6;810;1
1861;7;810;1
1862;7;811;0
1863;7;812;0
1864;8;812;1
1865;7;813;0
1866;7;813;1
1867;7;814;0
1868;7;814;1
1869;7;815;0
1870;7;815;1
1871;7;816;0
1872;7;816;1
1873;7;817;0
1874;7;817;1
1875;7;817;0
1876;7;817;1
1877;7;817;0
1878;7;817;1
1879;7;818;1
1880;7;818;0
1881;7;818;1
1882;7;818;1
1883;7;819;0
1884;7;819;1
1885;7;820;0
1886;7;820;1
1887;6;820;0
1888;7;820;1
1889;6;821;0
1890;7;821;0
1891;7;822;1
1892;7;822;1
1893;6;823;0
1894;7;823;1
1895;6;824;0
1896;7;824;1
1897;7;825;0
1898;7;825;1
1899;7;826;0
1900;7;827;0
1901;8;827;1
1902;7;828;1
1903;7;827;0
1904;7;828;0
1905;7;828;1
1906;6;829;0
1907;6;829;0
1908;6;830;0
1909;6;830;1
1910;5;831;0
1911;6;831;0
1912;6;832;0
1913;6;832;1
1914;6;834;0
1915;6;834;1
1916;5;835;0
1917;6;836;0
1918;6;836;0
1919;5;837;0
1920;6;838;1
1921;6;838;1
1922;6;839;0
1923;6;839;0
1924;6;840;1
1925;6;840;1
1926;7;840;0
1927;6;841;1
1928;7;840;0
1929;7;841;0
1930;6;841;1
1931;6;842;0
1932;6;842;1
1933;6;843;1
1934;6;843;0
1935;5;844;1
1936;6;844;0
1937;5;844;1
1938;5;844;0
1939;5;844;0
1940;5;844;1
1941;5;845;1
1942;6;845;0
1943;6;846;1
1944;6;847;0
1945;6;848;1
1946;6;848;0
1947;6;849;1
1948;7;849;0
1949;6;850;1
1950;6;850;0
1951;6;850;0
1952;6;850;1
1953;5;851;0
1954;5;851;0
1955;5;851;0
1956;6;851;1
1957;5;853;1
1958;6;853;0
1959;5;854;1
1960;5;854;0
1961;5;855;1
1962;6;856;0
1963;6;856;0
1964;5;857;1
1965;6;857;0
1966;6;858;1
1967;6;858;0
1968;5;859;1
1969;6;860;0
1970;6;860;1
1971;5;861;0
1972;6;862;1
1973;7;862;0
1974;6;862;1
1975;7;862;0
1976;6;863;0
1977;7;863;1
1978;6;864;0
1979;6;864;1
1980;7;865;1
1981;7;866;0
1982;7;865;0
1983;7;866;1
1984;7;866;0
1985;6;867;0
1986;6;867;1
1987;7;868;0
1988;6;869;0
1989;6;869;1
1990;5;870;1
1991;6;869;0
1992;5;871;1
1993;6;871;0
1994;6;872;1
1995;6;872;1
1996;6;873;1
1997;6;872;1
1998;5;873;0
1999;6;874;0
2000;7;874;0
2001;6;875;0
2002;6;875;2
2003;6;876;1
2004;6;875;1
2005;6;876;0
2006;6;876;1
2007;5;877;0
2008;6;878;0
2009;6;878;1
2010;6;878;1
2011;7;877;0
2012;6;878;1
2013;7;878;1
2014;6;879;1
2015;7;879;0
2016;6;880;1
2017;7;880;1
2018;6;881;1
2019;6;881;0
2020;6;882;1
2021;6;882;0
2022;6;883;0
2023;6;883;0
2024;6;884;1
2025;6;885;1
2026;7;885;0
2027;6;886;0
2028;6;886;1
2029;6;886;1
2030;6;886;0
2031;6;887;1
2032;6;887;2
2033;5;888;1
2034;6;888;0
2035;5;889;1
2036;6;889;1
2037;6;890;0
2038;6;891;1
2039;6;891;0
2040;6;892;0
2041;6;892;1
2042;6;893;0
2043;6;893;0
2044;6;894;1
2045;6;894;1
2046;6;894;0
2047;6;894;0
2048;6;895;1
2049;6;895;0
2050;5;896;0
2051;6;896;0
2052;6;897;1
2053;5;898;1
2054;6;898;1
2055;6;899;0
2056;6;899;0
2057;5;900;1
2058;6;900;1
2059;5;901;0
2060;5;901;0
2061;5;902;1
2062;6;902;0
2063;5;903;0
2064;5;903;1
2065;5;904;1
2066;6;904;0
2067;6;905;1
2068;7;906;0
2069;6;907;1
2070;7;907;1
2071;6;908;1
2072;7;908;0
2073;6;909;1
2074;7;909;0
2075;6;910;1
2076;7;910;0
2077;6;911;0
2078;7;912;1
2079;7;913;1
2080;7;913;0
2081;7;914;1
2082;7;914;0
2083;7;915;0
2084;8;914;1
2085;7;915;1
2086;7;916;0
2087;7;917;1
2088;8;916;0
2089;7;917;1
2090;7;917;0
2091;7;917;1
2092;7;917;1
2093;8;918;1
2094;8;919;0
2095;8;919;0
2096;8;920;1
2097;8;919;1
2098;7;920;0
2099;8;920;1
2100;8;921;0
2101;8;920;0
2102;8;921;1
2103;8;922;0
2104;8;921;1
2105;8;922;0
2106;8;922;1
2107;8;923;0
2108;8;923;0
2109;8;924;1
2110;8;924;0
2111;8;925;1
2112;8;925;1
2113;7;926;0
2114;8;926;1
2115;7;927;0
2116;8;927;1
2117;7;928;1
2118;8;928;1
2119;7;929;0
2120;8;929;1
2121;7;930;0
2122;8;930;1
2123;8;931;0
2124;8;930;1
2125;7;931;0
2126;8;931;0
2127;7;932;1
2128;8;932;0
2129;7;932;0
2130;7;932;1
2131;6;933;0
2132;7;933;1
2133;6;934;0
2134;7;934;1
2135;7;934;0
2136;7;934;1
2137;7;934;0
2138;7;934;0
2139;6;935;1
2140;7;935;0
2141;6;936;0
2142;7;935;1
2143;6;936;0
2144;6;936;1
2145;6;937;1
2146;6;938;0
2147;6;938;0
2148;6;938;1
2149;6;938;0
2150;7;939;1
2151;5;939;0
2152;6;939;0
2153;5;940;1
2154;6;940;0
2155;5;941;1
2156;5;942;0
2157;6;942;0
2158;5;943;1
2159;6;943;0
2160;6;943;0
2161;5;944;1
2162;6;944;1
2163;5;945;0
2164;6;945;1
2165;6;946;0
2166;6;946;1
2167;6;946;0
2168;6;946;1
2169;6;947;0
2170;6;947;1
2171;6;948;0
2172;5;949;0
2173;6;949;1
2174;5;950;0
2175;5;950;0
2176;6;951;0
2177;6;951;1
2178;5;952;1
2179;5;953;0
2180;6;953;0
2181;5;954;1
2182;5;954;0
2183;5;954;0
2184;5;954;0
2185;4;955;1
2186;5;955;0
2187;4;955;1
2188;5;956;0
2189;4;957;1
2190;5;956;0
2191;4;957;1
2192;5;957;0
2193;5;958;0
2194;4;957;1
2195;5;957;2
2196;5;957;1
2197;4;957;0
2198;4;957;1
2199;4;958;0
2200;4;958;0
2201;4;959;1
2202;4;959;1
2203;4;960;0
2204;4;960;1
2205;4;961;0
2206;4;961;1
2207;3;962;0
2208;4;962;0
2209;3;963;0
2210;3;963;1
2211;4;963;1
2212;3;964;0
2213;4;964;1
2214;4;965;0
2215;4;966;0
2216;4;966;1
2217;3;967;0
2218;4;967;0
2219;3;968;0
2220;3;967;1
2221;2;968;0
2222;3;968;0
2223;3;969;1
2224;3;969;1
2225;3;970;0
2226;3;969;1
2227;3;969;0
2228;3;969;1
2229;2;970;0
2230;3;969;1
2231;3;970;0
2232;3;971;0
2233;3;971;0
2234;4;972;1
2235;3;972;1
2236;3;973;0
2237;3;973;0
2238;2;974;0
2239;3;974;1
2240;2;975;1
2241;2;975;0
2242;2;976;1
2243;3;976;0
2244;2;977;1
2245;2;977;0
2246;2;978;0
2247;2;978;1
2248;1;979;1
2249;2;979;0
2250;2;979;1
2251;2;980;0
2252;2;980;1
2253;1;981;0
2254;2;982;1
2255;2;982;0
2256;2;982;1
2257;2;983;0
2258;2;984;1
2259;3;984;0
2260;2;985;1
2261;3;985;0
2262;2;986;0
2263;3;987;1
2264;3;987;1
2265;2;988;0
2266;2;987;0
2267;1;988;0
2268;2;988;0
2269;1;989;1
2270;2;988;0
2271;1;989;0
2272;2;989;1
2273;2;990;0
2274;2;991;1
2275;2;991;2
2276;2;992;1
2277;2;992;1
2278;2;993;0
2279;2;993;1
2280;1;994;0
2281;2;994;0
2282;2;995;1
2283;2;995;0
2284;1;996;1
2285;2;996;0
2286;2;997;0
2287;1;997;1
2288;1;997;0
2289;3;998;0
2290;2;999;0
2291;2;999;1
2292;2;1000;0
2293;1;1001;1
2294;1;1001;1
2295;1;1002;1
2296;2;1002;0
2297;2;1003;0
2298;2;1003;1
2299;2;1004;0
2300;2;1004;0
2301;1;1005;1
2302;2;1005;0
2303;1;1006;0
2304;1;1006;1
2305;1;1007;1
2306;2;1008;0
2307;2;1009;0
2308;3;1010;1
2309;2;1010;0
2310;3;1010;1
2311;3;1011;1
2312;3;1012;0
2313;3;1012;1
2314;3;1013;0
2315;3;1013;1
2316;3;1014;0
2317;3;1014;1
2318;3;1015;0
2319;3;1015;1
2320;2;1016;0
2321;3;1016;0
2322;3;1016;1
2323;3;1016;0
2324;2;1017;1
2325;2;1017;0
2326;2;1017;0
2327;2;1016;1
2328;2;1017;0
2329;2;1018;1
2330;3;1018;0
2331;2;1019;1
2332;2;1019;0
2333;3;1020;0
2334;2;1021;0
2335;3;1021;1
2336;2;1022;1
2337;2;1022;0
2338;2;1023;1
2339;2;1023;0
2340;2;1024;1
2341;2;1024;0
2342;2;1025;0
2343;2;1025;1
2344;2;1026;0
2345;2;1026;1
2346;2;1027;0
2347;2;1026;0
2348;2;1027;1
2349;2;1027;0
2350;2;1028;1
2351;2;1028;0
2352;2;1027;1
2353;2;1028;0
2354;2;1028;0
2355;2;1029;1
2356;2;1030;1
2357;3;1029;0
2358;2;1030;1
2359;3;1029;0
2360;3;1030;1
2361;3;1030;0
2362;2;1031;0
2363;2;1031;0
2364;1;1032;0
2365;1;1032;1
2366;2;1033;0
2367;1;1034;0
2368;2;1035;1
2369;2;1035;1
2370;1;1036;1
2371;2;1037;0
2372;2;1037;1
2373;2;1038;1
2374;2;1038;1
2375;3;1039;1
2376;2;1040;0
2377;3;1040;1
2378;2;1041;1
2379;3;1041;0
2380;2;1042;0
2381;2;1042;1
2382;1;1043;0
2383;2;1043;1
2384;1;1044;0
2385;2;1044;1
2386;3;1045;1
2387;2;1046;1
2388;2;1045;0
2389;2;1045;0
2390;1;1046;1
2391;1;1046;0
2392;1;1047;0
2393;1;1048;1
2394;2;1048;1
2395;2;1049;0
2396;2;1049;1
2397;3;1050;0
2398;3;1051;1
2399;3;1052;0
2400;3;1052;1
2401;3;1053;0
2402;3;1053;1
2403;3;1053;1
2404;3;1053;1
2405;3;1054;0
2406;3;1055;0
2407;3;1055;1
2408;2;1056;0
2409;2;1057;0
2410;3;1057;0
2411;2;1058;0
2412;3;1058;1
2413;2;1059;0
2414;3;1059;1
2415;2;1060;1
2416;3;1060;1
2417;2;1061;1
2418;2;1061;0
2419;2;1062;0
2420;2;1062;1
2421;2;1063;1
2422;3;1063;0
2423;2;1063;1
2424;2;1063;1
2425;3;1063;0
2426;2;1064;1
2427;3;1064;0
2428;2;1064;0
2429;3;1064;1
2430;2;1064;1
2431;3;1064;0
2432;2;1065;1
2433;3;1065;0
2434;2;1066;0
2435;2;1066;1
2436;1;1066;0
2437;2;1067;1
2438;2;1068;0
2439;2;1067;1
2440;2;1068;0
2441;2;1068;0
2442;1;1069;0
2443;2;1069;1
2444;1;1070;1
2445;1;1070;0
2446;2;1071;1
2447;3;1072;0
2448;2;1073;1
2449;2;1073;0
2450;2;1074;0
2451;2;1074;0
2452;1;1075;1
2453;1;1075;0
2454;1;1076;0
2455;1;1076;1
2456;1;1077;0
2457;1;1078;0
2458;1;1078;1
2459;1;1079;1
2460;2;1079;1
2461;1;1080;0
2462;1;1080;0
2463;1;1081;1
2464;1;1081;2
2465;0;1082;1
2466;1;1082;0
2467;0;1083;1
2468;1;1083;0
2469;0;1084;0
2470;0;1083;0
2471;0;1083;0
2472;0;1083;1
2473;1;1083;0
2474;0;1084;1
2475;1;1083;1
2476;1;1084;0
2477;0;1086;0
2478;1;1087;1
2479;1;1087;1
2480;1;1088;1
2481;1;1088;1
2482;0;1089;0
2483;1;1088;1
2484;1;1089;0
2485;1;1089;1
2486;1;1090;0
2487;2;1091;0
2488;3;1091;1
2489;2;1093;1
2490;2;1093;0
2491;2;1095;1
2492;2;1094;0
2493;2;1096;1
2494;3;1096;0
2495;2;1097;1
2496;3;1097;0
2497;2;1098;1
2498;3;1098;0
2499;2;1099;0
2500;3;1100;1
2501;3;1100;1
2502;4;1101;1
2503;3;1101;0
2504;4;1101;1
2505;3;1103;1
2506;4;1103;0
2507;3;1103;1
2508;4;1103;1
2509;3;1104;0
2510;4;1103;1
2511;3;1104;0
2512;4;1104;1
2513;3;1105;1
2514;4;1105;0
2515;3;1106;0
2516;4;1106;1
2517;3;1107;0
2518;4;1106;1
2519;3;1107;0
2520;4;1107;1
2521;3;1108;0
2522;4;1108;1
2523;3;1110;1
2524;3;1110;0
2525;3;1111;1
2526;4;1111;0
2527;3;1112;1
2528;3;1112;0
2529;3;1113;1
2530;3;1113;0
2531;3;1114;1
2532;4;1114;0
2533;4;1114;0
2534;3;1115;0
2535;4;1115;1
2536;3;1116;1
2537;3;1115;1
2538;3;1116;0
2539;3;1116;1
2540;3;1117;0
2541;4;1117;1
2542;3;1118;1
2543;3;1118;1
2544;3;1119;0
2545;3;1118;1
2546;3;1119;0
2547;3;1119;0
2548;3;1120;1
2549;3;1120;0
2550;2;1121;1
2551;3;1121;0
2552;2;1122;1
2553;2;1122;0
2554;2;1123;0
2555;2;1123;1
2556;2;1124;0
2557;2;1124;1
2558;2;1125;0
2559;2;1125;0
2560;2;1126;1
2561;2;1126;0
2562;1;1127;1
2563;1;1127;1
2564;2;1128;0
2565;1;1129;0
2566;1;1129;1
2567;1;1130;0
2568;1;1130;1
2569;0;1131;0
2570;1;1130;0
2571;0;1131;1
2572;1;1130;0
2573;0;1131;1
2574;1;1131;0
2575;0;1132;1
2576;1;1132;0
2577;0;1133;0
2578;0;1133;1
2579;1;1133;0
2580;0;1133;0
2581;1;1132;1
2582;0;1134;1
2583;0;1134;0
2584;1;1135;1
2585;1;1136;0
2586;0;1137;1
2587;1;1136;0
2588;0;1137;0
2589;0;1136;1
2590;1;1135;1
2591;0;1136;0
2592;0;1136;1
2593;1;1136;0
2594;0;1137;1
2595;1;1137;0
2596;0;1138;0
2597;1;1138;1
2598;0;1139;0
2599;1;1138;1
2600;1;1139;1
2601;1;1140;0
2602;0;1142;1
2603;1;1142;0
2604;0;1143;1
2605;1;1142;0
2606;0;1143;0
2607;1;1143;1
2608;0;1144;1
2609;1;1145;1
2610;1;1145;1
2611;2;1146;1
2612;2;1147;1
2613;1;1148;0
2614;2;1148;1
2615;2;1149;0
2616;2;1149;1
2617;2;1150;0
2618;2;1150;1
2619;1;1151;0
2620;2;1152;1
2621;2;1152;0
2622;2;1152;0
2623;1;1153;0
2624;1;1153;1
2625;0;1154;1
2626;1;1154;0
2627;1;1155;1
2628;2;1155;0
2629;1;1156;1
2630;2;1156;0
2631;1;1157;1
2632;2;1157;0
2633;1;1158;0
2634;2;1159;1
2635;2;1159;1
2636;3;1158;0
2637;2;1160;0
2638;2;1159;1
2639;2;1160;1
2640;3;1160;0
2641;2;1161;0
2642;3;1162;1
2643;2;1163;0
2644;2;1163;1
2645;2;1164;0
2646;2;1164;1
2647;1;1165;0
2648;2;1167;1
2649;2;1167;0
2650;3;1168;1
2651;2;1169;0
2652;3;1169;0
2653;3;1169;1
2654;3;1169;1
2655;3;1170;0
2656;3;1170;1
2657;3;1171;0
2658;3;1171;0
2659;2;1172;0
2660;2;1172;1
2661;2;1173;0
2662;2;1173;1
2663;1;1174;0
2664;2;1174;0
2665;1;1174;1
2666;2;1173;0
2667;2;1173;1
2668;2;1174;1
2669;1;1174;0
2670;2;1175;0
2671;1;1176;0
2672;1;1176;1
2673;0;1177;1
2674;1;1177;0
2675;0;1178;0
2676;1;1178;1
2677;0;1179;0
2678;2;1179;1
2679;1;1180;0
2680;2;1179;1
2681;2;1180;0
2682;2;1179;1
2683;2;1180;1
2684;2;1180;1
2685;2;1181;0
2686;2;1181;1
2687;2;1182;1
2688;2;1182;1
2689;2;1183;0
2690;2;1183;0
2691;2;1184;1
2692;2;1185;0
2693;3;1185;1
2694;2;1186;0
2695;2;1186;1
2696;1;1187;1
2697;2;1187;2
2698;2;1188;1
2699;2;1188;0
2700;2;1188;1
2701;3;1188;0
2702;2;1188;1
2703;3;1189;0
2704;2;1190;0
2705;2;1190;0
2706;2;1191;1
2707;2;1191;0
2708;1;1192;1
2709;2;1192;0
2710;1;1193;1
2711;2;1193;0
2712;1;1194;1
2713;2;1194;0
2714;1;1195;1
2715;2;1194;1
2716;1;1195;1
2717;2;1196;0
2718;2;1196;0
2719;1;1196;1
2720;2;1196;0
2721;1;1197;1
2722;2;1197;0
2723;1;1198;1
2724;1;1198;0
2725;1;1199;1
2726;1;1199;0
2727;1;1200;0
2728;1;1200;1
2729;1;1201;0
2730;1;1201;1
2731;1;1202;0
2732;1;1202;0
2733;1;1203;1
2734;1;1203;0
2735;1;1204;1
2736;1;1204;0
2737;1;1205;1
2738;1;1205;1
2739;2;1206;1
2740;1;1207;1
2741;1;1207;0
2742;0;1208;0
2743;0;1209;0
2744;1;1209;0
2745;0;1210;1
2746;1;1210;1
2747;0;1211;0
2748;1;1212;0
2749;1;1212;1
2750;1;1212;0
2751;1;1212;0
2752;0;1213;0
2753;0;1213;1
2754;0;1212;0
2755;1;1212;0
2756;1;1213;0
2757;1;1214;1
2758;0;1215;1
2759;0;1215;0
2760;1;1214;1
2761;1;1215;0
2762;0;1216;1
2763;1;1216;0
2764;0;1217;0
2765;1;1217;1
2766;1;1218;0
2767;1;1219;1
2768;1;1219;1
2769;1;1220;0
2770;1;1220;0
2771;0;1221;1
2772;0;1221;0
2773;1;1221;1
2774;1;1221;1
2775;0;1222;0
2776;0;1222;1
2777;1;1222;1
2778;1;1223;0
2779;0;1224;0
2780;1;1224;1
2781;0;1224;1
2782;1;1225;0
2783;0;1225;0
2784;1;1225;1
2785;0;1226;1
2786;1;1226;0
2787;1;1227;1
2788;0;1228;1
2789;0;1228;0
2790;1;1228;1
2791;2;1229;0
2792;0;1230;0
2793;1;1230;1
2794;0;1231;0
2795;1;1231;1
2796;0;1232;2
2797;1;1232;1
2798;1;1233;1
2799;1;1234;0
2800;1;1234;1
2801;1;1235;0
2802;1;1235;0
2803;0;1236;1
2804;1;1236;1
2805;0;1236;1
2806;1;1237;0
2807;1;1238;1
2808;1;1238;1
2809;2;1239;0
2810;1;1240;1
2811;1;1240;0
2812;1;1241;1
2813;2;1242;0
2814;1;1242;0
2815;1;1242;0
2816;1;1242;1
2817;0;1243;0
2818;1;1244;0
2819;1;1244;0
2820;1;1244;0
2821;1;1245;1
2822;2;1246;0
2823;1;1247;2
2824;1;1247;1
2825;1;1248;1
2826;2;1248;0
2827;1;1249;0
2828;2;1249;1
2829;1;1250;0
2830;1;1250;1
2831;0;1251;0
2832;1;1251;0
2833;0;1252;1
2834;1;1253;0
2835;1;1253;0
2836;1;1253;1
2837;0;1254;0
2838;0;1254;1
2839;1;1254;1
2840;0;1255;0
2841;1;1255;0
2842;0;1256;1
2843;0;1256;1
2844;1;1256;0
2845;1;1257;0
2846;1;1258;0
2847;1;1258;1
2848;0;1258;2
2849;1;1258;1
2850;1;1259;1
2851;2;1260;0
2852;1;1261;0
2853;1;1261;1
2854;1;1262;0
2855;1;1262;0
2856;0;1263;1
2857;1;1263;2
2858;1;1264;1
2859;1;1264;1
2860;2;1265;0
2861;2;1265;1
2862;2;1265;0
2863;1;1266;0
2864;2;1266;1
2865;1;1266;0
2866;2;1266;1
2867;2;1267;1
2868;1;1268;0
2869;2;1268;0
2870;1;1269;1
2871;1;1269;0
2872;0;1270;0
2873;1;1270;1
2874;1;1271;1
2875;1;1272;1
2876;1;1272;1
2877;1;1273;0
2878;2;1273;1
2879;1;1274;1
2880;2;1274;0
2881;1;1274;0
2882;2;1274;1
2883;1;1275;0
2884;1;1275;1
2885;1;1275;1
2886;0;1276;0
2887;2;1276;0
2888;1;1277;1
2889;2;1277;0
2890;2;1277;1
2891;2;1278;1
2892;1;1278;0
2893;1;1277;1
2894;1;1278;0
2895;1;1279;0
2896;1;1279;1
2897;0;1279;0
2898;1;1279;1
2899;1;1280;0
2900;1;1280;1
2901;1;1281;0
2902;1;1281;0
2903;0;1282;0
2904;0;1282;1
2905;1;1281;0
2906;0;1282;0
2907;0;1282;1
2908;1;1282;0
2909;0;1283;1
2910;1;1283;0
2911;0;1284;1
2912;1;1284;0
2913;0;1285;1
2914;1;1285;0
2915;0;1286;1
2916;1;1286;1
2917;0;1287;2
2918;1;1287;1
2919;0;1288;1
2920;1;1288;0
2921;0;1289;1
2922;1;1289;0
2923;0;1290;1
2924;1;1290;0
2925;1;1291;1
2926;1;1291;0
2927;1;1292;0
2928;0;1291;1
2929;0;1292;0
2930;1;1292;0
2931;1;1293;1
2932;2;1293;0
2933;1;1295;1
2934;2;1295;0
2935;2;1295;1
2936;2;1296;0
2937;1;1296;2
2938;2;1296;1
2939;1;1297;1
2940;1;1297;0
2941;1;1298;1
2942;2;1298;0
2943;1;1299;0
2944;1;1299;0
2945;1;1300;1
2946;1;1300;1
2947;2;1301;0
2948;1;1302;0
2949;2;1302;1
2950;1;1303;0
2951;2;1304;1
2952;2;1304;1
2953;2;1305;0
2954;2;1305;1
2955;2;1306;0
2956;2;1307;0
2957;3;1308;1
2958;3;1308;1
2959;2;1309;0
2960;3;1309;0
2961;2;1310;1
2962;3;1309;0
2963;2;1310;0
2964;2;1311;1
2965;1;1312;1
2966;2;1312;0
2967;2;1313;0
2968;3;1314;1
2969;2;1314;1
2970;3;1313;0
2971;2;1313;0
2972;2;1314;1
2973;3;1313;0
2974;3;1315;1
2975;3;1315;1
2976;2;1316;0
2977;3;1315;0
2978;2;1316;1
2979;2;1316;0
2980;2;1317;0
2981;3;1317;1
2982;2;1318;1
2983;3;1318;0
2984;2;1319;0
2985;2;1318;1
2986;1;1319;1
2987;2;1319;0
2988;2;1320;0
2989;2;1320;1
2990;2;1321;1
2991;2;1322;1
2992;3;1321;1
2993;3;1322;0
2994;3;1322;0
2995;2;1323;1
2996;2;1323;0
2997;2;1323;0
2998;2;1323;1
2999;2;1324;0
3000;3;1324;1
3001;2;1325;1
3002;3;1325;0
3003;2;1326;1
3004;3;1326;0
3005;2;1327;1
3006;3;1327;0
3007;2;1327;1
3008;3;1326;0
3009;3;1327;0
3010;3;1328;1
3011;3;1328;1
3012;3;1329;0
3013;3;1328;1
3014;3;1329;0
3015;3;1329;1
3016;3;1329;0
3017;3;1329;0
3018;2;1330;0
3019;2;1331;1
3020;2;1331;1
3021;3;1331;0
3022;2;1332;1
3023;3;1332;1
3024;2;1333;1
3025;3;1333;0
3026;2;1334;1
3027;2;1334;0
3028;2;1335;1
3029;2;1335;0
3030;3;1336;1
3031;2;1336;0
3032;2;1337;0
3033;2;1337;1
3034;2;1338;0
3035;2;1338;1
3036;2;1339;0
3037;2;1339;1
3038;2;1340;1
3039;2;1340;1
3040;2;1341;0
3041;2;1340;1
3042;1;1341;0
3043;2;1341;0
3044;1;1342;1
3045;2;1342;0
3046;1;1343;0
3047;2;1343;1
3048;2;1343;1
3049;1;1343;0
3050;2;1344;1
3051;2;1345;0
3052;2;1346;0
3053;2;1346;1
3054;2;1347;1
3055;2;1347;1
3056;1;1348;0
3057;2;1348;1
3058;3;1349;0
3059;3;1350;0
3060;4;1351;1
3061;3;1352;1
3062;3;1352;1
3063;2;1353;0
3064;2;1353;1
3065;1;1353;0
3066;2;1353;0
3067;1;1354;0
3068;2;1354;2
3069;1;1355;1
3070;2;1355;1
3071;2;1356;0
3072;2;1356;0
3073;2;1357;1
3074;2;1357;1
3075;2;1357;0
3076;2;1357;1
3077;1;1358;0
3078;2;1358;0
3079;3;1358;1
3080;2;1358;0
3081;3;1358;1
3082;2;1359;0
3083;2;1359;1
3084;1;1360;0
3085;2;1360;0
3086;1;1361;0
3087;1;1361;1
3088;1;1362;1
3089;1;1363;0
3090;2;1364;0
3091;2;1364;1
3092;2;1364;0
3093;2;1364;0
3094;2;1365;1
3095;2;1365;0
3096;1;1366;1
3097;1;1366;0
3098;1;1367;0
3099;1;1367;1
3100;1;1368;0
3101;1;1368;1
3102;2;1369;0
3103;1;1370;0
3104;1;1370;1
3105;1;1371;2
3106;1;1372;1
3107;2;1372;0
3108;2;1373;1
3109;2;1373;0
3110;1;1374;1
3111;2;1374;0
3112;2;1375;1
3113;2;1375;1
3114;1;1376;0
3115;1;1376;1
3116;1;1377;0
3117;1;1377;0
3118;0;1378;1
3119;0;1378;1
3120;1;1379;0
3121;1;1380;1
3122;1;1380;0
3123;1;1380;1
3124;2;1380;0
3125;1;1381;1
3126;2;1381;0
3127;1;1382;1
3128;2;1382;1
3129;1;1383;1
3130;2;1383;0
3131;1;1384;1
3132;1;1384;0
3133;1;1385;0
3134;2;1385;1
3135;1;1386;1
3136;2;1386;0
3137;2;1388;1
3138;2;1388;0
3139;2;1389;1
3140;3;1389;0
3141;2;1389;1
3142;3;1390;0
3143;3;1390;1
3144;2;1391;0
3145;3;1390;1
3146;3;1391;0
3147;3;1392;1
3148;4;1392;0
3149;3;1393;1
3150;3;1393;0
3151;3;1394;0
3152;4;1394;1
3153;3;1395;1
3154;4;1395;0
3155;3;1396;0
3156;4;1395;1
3157;3;1395;0
3158;4;1395;1
3159;3;1396;1
3160;4;1396;0
3161;3;1397;1
3162;4;1397;1
3163;3;1398;2
3164;4;1398;1
3165;3;1399;1
3166;4;1399;0
3167;3;1400;1
3168;3;1399;0
3169;3;1401;1
3170;4;1401;0
3171;3;1402;1
3172;4;1401;0
3173;3;1403;0
3174;3;1402;1
3175;2;1403;0
3176;3;1403;0
3177;2;1404;1
3178;3;1404;1
3179;2;1405;1
3180;3;1405;0
3181;3;1406;1
3182;3;1406;0
3183;2;1407;1
3184;2;1407;0
3185;2;1407;0
3186;2;1407;1
3187;2;1408;1
3188;3;1408;0
3189;2;1409;0
3190;2;1409;1
3191;2;1410;0
3192;2;1410;1
3193;2;1410;1
3194;2;1410;1
3195;2;1411;1
3196;2;1411;1
3197;2;1412;0
3198;2;1413;0
3199;1;1413;1
3200;1;1413;1
3201;1;1414;0
3202;1;1414;1
3203;1;1415;0
3204;1;1415;0
3205;2;1416;1
3206;1;1417;0
3207;1;1417;1
3208;1;1417;1
3209;2;1417;0
3210;1;1418;0
3211;2;1418;1
3212;1;1419;0
3213;1;1420;1
3214;1;1420;1
3215;2;1421;0
3216;2;1421;1
3217;2;1421;0
3218;2;1420;0
3219;1;1421;1
3220;1;1421;0
3221;2;1422;0
3222;1;1423;1
3223;2;1423;0
3224;2;1424;1
3225;2;1425;0
3226;3;1425;1
3227;3;1425;1
3228;2;1426;0
3229;3;1427;0
3230;4;1427;1
3231;3;1428;1
3232;3;1428;0
3233;3;1429;0
3234;3;1429;0
3235;3;1430;1
3236;3;1431;0
3237;4;1432;1
3238;4;1432;1
3239;4;1433;1
3240;4;1433;1
3241;4;1434;0
3242;4;1434;0
3243;4;1435;1
3244;4;1434;0
3245;3;1435;1
3246;4;1434;0
3247;4;1435;1
3248;4;1435;1
3249;4;1436;1
3250;4;1436;1
3251;3;1437;0
3252;4;1437;1
3253;4;1437;0
3254;4;1438;1
3255;5;1438;0
3256;4;1438;0
3257;4;1439;1
3258;5;1439;0
3259;4;1440;1
3260;5;1440;0
3261;4;1441;0
3262;5;1441;1
3263;4;1442;0
3264;5;1442;1
3265;4;1443;1
3266;5;1442;0
3267;4;1442;1
3268;4;1442;0
3269;4;1442;1
3270;5;1442;0
3271;4;1443;1
3272;5;1442;0
3273;4;1443;1
3274;4;1443;0
3275;4;1444;1
3276;5;1444;0
3277;4;1444;1
3278;5;1444;0
3279;4;1445;1
3280;5;1445;0
3281;4;1446;1
3282;5;1446;0
3283;4;1447;1
3284;5;1447;0
3285;4;1448;1
3286;4;1448;0
3287;4;1449;1
3288;5;1450;0
3289;5;1450;0
3290;4;1451;1
3291;4;1452;0
3292;5;1451;0
3293;4;1453;1
3294;4;1454;1
3295;5;1455;0
3296;6;1454;1
3297;6;1455;0
3298;6;1455;1
3299;6;1456;0
3300;6;1455;1
3301;6;1456;0
3302;6;1456;1
3303;5;1457;0
3304;6;1457;1
3305;5;1457;0
3306;6;1457;1
3307;6;1458;0
3308;6;1458;0
3309;5;1459;1
3310;6;1460;0
3311;6;1459;1
3312;6;1460;0
3313;6;1460;1
3314;5;1461;0
3315;6;1461;0
3316;6;1462;1
3317;6;1462;1
3318;6;1463;0
3319;6;1463;1
3320;5;1464;0
3321;6;1464;0
3322;6;1465;0
3323;5;1466;1
3324;6;1466;0
3325;5;1467;0
3326;5;1467;1
3327;5;1468;0
3328;5;1467;1
3329;5;1468;0
3330;5;1468;1
3331;5;1469;1
3332;5;1469;1
3333;5;1469;0
3334;5;1469;1
3335;4;1470;0
3336;5;1469;1
3337;5;1470;0
3338;5;1472;0
3339;6;1472;1
3340;5;1473;1
3341;5;1473;0
3342;6;1474;1
3343;6;1474;0
3344;6;1475;0
3345;7;1475;1
3346;6;1476;1
3347;6;1476;1
3348;6;1477;1
3349;6;1476;0
3350;5;1477;0
3351;5;1477;0
3352;5;1478;1
3353;6;1479;0
3354;6;1479;1
3355;6;1480;0
3356;6;1480;1
3357;5;1481;0
3358;6;1481;1
3359;5;1482;0
3360;6;1482;0
3361;5;1483;0
3362;6;1483;1
3363;5;1484;0
3364;6;1483;1
3365;5;1484;0
3366;5;1484;1
3367;5;1485;1
3368;5;1486;1
3369;5;1485;0
3370;5;1485;1
3371;5;1486;0
3372;5;1486;1
3373;5;1487;0
3374;5;1488;1
3375;5;1488;0
3376;5;1489;0
3377;5;1489;1
3378;4;1490;0
3379;5;1490;1
3380;4;1491;0
3381;5;1491;1
3382;6;1492;0
3383;5;1492;1
3384;5;1492;0
3385;5;1493;1
3386;5;1493;0
3387;5;1493;0
3388;5;1494;0
3389;5;1494;1
3390;5;1495;0
3391;5;1495;1
3392;5;1495;0
3393;5;1495;1
3394;4;1496;0
3395;5;1496;0
3396;4;1497;0
3397;4;1497;1
3398;4;1498;0
3399;4;1498;1
3400;4;1499;0
3401;4;1500;0
3402;4;1499;1
3403;4;1500;1
3404;5;1499;0
3405;4;1500;0
3406;5;1500;1
3407;4;1501;0
3408;4;1501;1
3409;4;1502;1
3410;4;1502;1
3411;4;1503;0
3412;5;1503;1
3413;4;1504;1
3414;4;1504;0
3415;4;1505;0
3416;4;1505;0
3417;4;1506;1
3418;5;1506;1
3419;4;1507;1
3420;5;1507;0
3421;4;1508;0
3422;5;1508;1
3423;4;1509;0
3424;4;1509;1
3425;3;1510;0
3426;4;1510;0
3427;3;1510;0
3428;4;1509;1
3429;3;1510;1
3430;4;1510;1
3431;3;1511;0
3432;4;1511;1
3433;3;1512;1
3434;4;1512;0
3435;3;1513;1
3436;4;1513;1
3437;3;1514;0
3438;4;1514;1
3439;3;1515;1
3440;4;1515;0
3441;3;1516;1
3442;4;1516;0
3443;3;1516;1
3444;3;1516;1
3445;4;1516;0
3446;4;1517;1
3447;4;1518;0
3448;4;1518;0
3449;4;1519;1
3450;4;1519;0
3451;4;1519;1
3452;4;1520;0
3453;4;1520;1
3454;4;1521;0
3455;4;1521;0
3456;4;1522;1
3457;4;1522;1
3458;3;1522;1
3459;4;1522;2
3460;4;1523;2
3461;4;1523;1
3462;3;1524;1
3463;4;1524;0
3464;3;1525;1
3465;4;1525;0
3466;3;1526;0
3467;3;1526;1
3468;3;1527;0
3469;4;1527;1
3470;4;1527;1
3471;3;1527;0
3472;4;1527;1
3473;4;1528;0
3474;4;1528;0
3475;3;1529;1
3476;4;1529;1
3477;5;1530;0
3478;4;1531;0
3479;5;1531;1
3480;4;1532;1
3481;5;1532;0
3482;4;1532;0
3483;5;1533;1
3484;5;1532;1
3485;4;1533;0
3486;5;1533;1
3487;5;1534;0
3488;5;1534;1
3489;5;1535;0
3490;5;1535;0
3491;4;1536;1
3492;4;1536;0
3493;4;1537;0
3494;4;1538;1
3495;4;1538;0
3496;4;1539;1
3497;5;1539;0
3498;4;1540;1
3499;5;1540;0
3500;4;1541;0
3501;5;1541;1
3502;5;1542;1
3503;4;1543;0
3504;5;1544;1
3505;5;1544;0
3506;5;1545;0
3507;5;1545;1
3508;5;1546;1
3509;6;1546;1
3510;5;1547;1
3511;5;1548;0
3512;6;1548;0
3513;7;1549;1
3514;6;1550;0
3515;7;1551;1
3516;6;1551;0
3517;7;1551;1
3518;6;1552;1
3519;6;1552;0
3520;5;1553;0
3521;6;1553;0
3522;5;1553;1
3523;5;1553;0
3524;5;1553;0
3525;5;1553;1
3526;5;1555;0
3527;5;1555;1
3528;5;1556;0
3529;5;1555;1
3530;5;1556;0
3531;5;1556;0
3532;4;1557;1
3533;5;1558;0
3534;5;1558;1
3535;5;1558;0
3536;5;1558;0
3537;5;1559;1
3538;5;1559;1
3539;4;1560;0
3540;5;1560;0
3541;4;1561;1
3542;5;1561;1
3543;4;1562;1
3544;5;1561;0
3545;4;1562;0
3546;4;1561;1
3547;4;1562;0
3548;4;1561;1
3549;4;1562;0
3550;4;1561;0
3551;3;1562;1
3552;4;1563;0
3553;4;1563;1
3554;3;1564;0
3555;4;1564;0
3556;3;1565;1
3557;4;1565;0
3558;3;1566;1
3559;4;1566;0
3560;3;1567;0
3561;3;1568;1
3562;3;1567;1
3563;4;1567;0
3564;3;1568;1
3565;4;1568;0
3566;3;1569;0
3567;4;1569;1
3568;3;1570;0
3569;3;1570;1
3570;2;1571;0
3571;3;1571;0
3572;2;1572;0
3573;3;1572;1
3574;2;1573;1
3575;2;1573;0
3576;2;1574;1
3577;3;1574;0
3578;2;1575;1
3579;2;1576;0
3580;3;1575;0
3581;2;1575;1
3582;2;1575;0
3583;2;1576;1
3584;3;1575;0
3585;2;1575;1
3586;3;1576;0
3587;2;1577;0
3588;3;1577;1
3589;2;1578;1
3590;2;1578;0
3591;2;1579;0
3592;3;1579;1
3593;2;1580;1
3594;2;1580;0
3595;2;1581;0
3596;2;1581;1
3597;3;1581;0
3598;2;1582;1
3599;3;1582;1
3600;2;1583;1
3601;3;1583;0
3602;2;1584;1
3603;3;1584;0
3604;2;1585;1
3605;3;1586;0
3606;3;1586;1
3607;3;1587;0
3608;3;1587;1
3609;3;1587;0
3610;3;1587;1
3611;3;1588;0
3612;3;1588;1
3613;2;1589;0
3614;2;1589;0
3615;2;1590;1
3616;3;1590;0
3617;2;1591;0
3618;3;1591;1
3619;3;1592;0
3620;2;1593;0
3621;2;1594;0
3622;3;1594;1
3623;2;1595;1
3624;3;1595;1
3625;3;1596;0
3626;2;1597;0
3627;3;1596;1
3628;2;1597;0
3629;3;1597;1
3630;2;1598;0
3631;3;1598;1
3632;2;1599;0
3633;2;1599;1
3634;2;1600;0
3635;2;1600;0
3636;2;1601;1
3637;2;1601;1
3638;1;1602;0
3639;2;1602;0
3640;1;1603;1
3641;1;1603;0
3642;2;1604;0
3643;1;1604;0
3644;0;1604;1
3645;0;1604;1
3646;1;1604;0
3647;1;1606;0
3648;1;1606;1
3649;1;1607;0
3650;0;1608;1
3651;1;1608;1
3652;1;1609;0
3653;1;1608;1
3654;0;1609;1
3655;0;1609;1
3656;1;1609;0
3657;0;1610;1
3658;1;1611;0
3659;0;1612;1
3660;1;1612;0
3661;0;1613;1
3662;1;1614;0
3663;1;1614;0
3664;0;1615;1
3665;1;1615;0
3666;0;1616;0
3667;1;1617;0
3668;1;1617;1
3669;1;1618;1
3670;1;1617;0
3671;2;1618;1
3672;1;1618;0
3673;1;1618;1
3674;1;1619;1
3675;2;1619;0
3676;1;1620;1
3677;1;1620;0
3678;1;1620;0
3679;2;1620;0
3680;1;1621;1
3681;1;1621;1
3682;1;1622;1
3683;1;1622;1
3684;1;1623;0
3685;1;1623;1
3686;1;1624;0
3687;1;1624;0
3688;0;1625;1
3689;0;1625;0
3690;1;1624;1
3691;0;1625;1
3692;1;1625;0
3693;0;1626;0
3694;1;1626;1
3695;1;1626;1
3696;2;1627;0
3697;1;1628;1
3698;0;1628;0
3699;1;1628;0
3700;0;1629;1
3701;1;1629;1
3702;0;1630;0
3703;1;1629;1
3704;1;1630;0
3705;1;1631;0
3706;2;1631;1
3707;1;1632;1
3708;2;1632;1
3709;2;1633;1
3710;2;1633;0
3711;2;1633;1
3712;1;1634;0
3713;2;1634;1
3714;2;1635;0
3715;2;1636;0
3716;3;1636;1
3717;2;1637;1
3718;2;1637;0
3719;2;1638;1
3720;2;1638;0
3721;2;1638;0
3722;2;1638;1
3723;1;1639;0
3724;2;1639;0
3725;1;1640;1
3726;2;1640;0
3727;1;1641;1
3728;2;1641;0
3729;1;1642;1
3730;1;1642;0
3731;1;1643;1
3732;2;1643;0
3733;1;1644;0
3734;1;1644;1
3735;1;1645;0
3736;1;1645;1
3737;0;1646;0
3738;0;1646;0
3739;1;1647;0
3740;0;1647;0
3741;1;1647;1
3742;0;1647;1
3743;0;1646;1
3744;1;1646;0
3745;0;1648;1
3746;1;1648;0
3747;0;1649;1
3748;1;1649;1
3749;0;1650;1
3750;1;1649;0
3751;0;1650;0
3752;0;1650;1
3753;1;1650;0
3754;0;1651;0
3755;1;1652;1
3756;0;1652;0
3757;0;1652;0
3758;0;1651;1
3759;0;1651;2
3760;0;1651;1
3761;2;1652;0
3762;1;1653;0
3763;1;1654;1
3764;1;1654;1
3765;1;1655;0
3766;1;1656;0
3767;2;1656;1
3768;1;1657;1
3769;2;1657;0
3770;1;1658;1
3771;2;1658;0
3772;2;1658;1
3773;2;1658;0
3774;2;1659;1
3775;2;1659;0
3776;3;1659;1
3777;4;1659;0
3778;3;1660;1
3779;3;1661;0
3780;3;1661;0
3781;3;1661;1
3782;4;1662;0
3783;4;1663;1
3784;3;1663;0
3785;3;1664;0
3786;4;1664;1
3787;3;1665;1
3788;4;1665;0
3789;3;1666;1
3790;4;1666;0
3791;3;1667;0
3792;3;1667;1
3793;3;1667;0
3794;3;1669;1
3795;3;1669;0
3796;3;1670;1
3797;4;1670;0
3798;4;1671;0
3799;5;1672;1
3800;4;1673;0
3801;5;1673;1
3802;5;1674;1
3803;5;1675;0
3804;5;1675;0
3805;4;1676;1
3806;4;1677;0
3807;5;1677;1
3808;6;1678;0
3809;5;1679;1
3810;4;1679;0
3811;5;1679;1
3812;5;1680;0
3813;5;1680;0
3814;4;1681;1
3815;5;1681;0
3816;4;1682;0
3817;5;1683;1
3818;5;1684;0
3819;6;1683;1
3820;5;1684;1
3821;6;1684;0
3822;5;1685;0
3823;5;1685;0
3824;5;1686;1
3825;5;1686;1
3826;5;1687;0
3827;5;1687;1
3828;4;1688;0
3829;5;1688;0
3830;4;1689;0
3831;5;1689;1
3832;4;1690;1
3833;5;1690;0
3834;4;1691;1
3835;5;1691;0
3836;4;1692;1
3837;4;1692;0
3838;4;1693;0
3839;4;1693;1
3840;4;1694;0
3841;4;1695;0
3842;4;1694;1
3843;4;1694;1
3844;3;1695;0
3845;4;1695;0
3846;3;1696;1
3847;4;1696;0
3848;4;1697;1
3849;4;1698;0
3850;4;1699;0
3851;4;1698;1
3852;3;1699;0
3853;3;1699;0
3854;4;1700;1
3855;4;1701;0
3856;4;1701;1
3857;3;1701;0
3858;4;1702;0
3859;4;1703;1
3860;5;1703;0
3861;4;1703;1
3862;4;1703;0
3863;4;1704;0
3864;4;1704;1
3865;4;1705;0
3866;4;1705;1
3867;3;1706;0
3868;4;1706;1
3869;4;1707;0
3870;4;1707;1
3871;4;1708;0
3872;4;1708;0
3873;3;1708;1
3874;4;1708;1
3875;3;1709;1
3876;4;1709;0
3877;3;1710;1
3878;4;1711;0
3879;4;1711;1
3880;3;1711;0
3881;2;1711;0
3882;3;1711;0
3883;3;1711;1
3884;2;1711;0
3885;2;1712;1
3886;3;1712;1
3887;2;1712;0
3888;3;1712;0
3889;2;1713;0
3890;3;1713;1
3891;2;1714;1
3892;3;1714;0
3893;2;1715;0
3894;3;1714;1
3895;2;1715;1
3896;3;1716;0
3897;3;1716;0
3898;2;1717;1
3899;3;1717;1
3900;3;1718;0
3901;4;1719;1
3902;3;1719;0
3903;3;1720;1
3904;3;1720;0
3905;3;1721;1
3906;4;1721;0
3907;3;1722;1
3908;4;1722;0
3909;3;1723;1
3910;4;1723;0
3911;3;1724;1
3912;3;1724;0
3913;2;1725;0
3914;3;1726;0
3915;3;1726;0
3916;3;1726;1
3917;3;1727;0
3918;3;1727;1
3919;3;1728;1
3920;3;1729;1
3921;3;1728;0
3922;3;1729;0
3923;4;1729;1
3924;4;1730;1
3925;5;1731;2
3926;4;1732;2
3927;5;1732;1
3928;4;1733;0
3929;5;1733;1
3930;4;1734;0
3931;5;1734;1
3932;5;1735;2
3933;4;1735;1
3934;4;1735;0
3935;4;1735;1
3936;5;1736;0
3937;4;1736;0
3938;5;1736;1
3939;4;1737;0
3940;5;1737;1
3941;4;1738;0
3942;4;1737;1
3943;4;1737;0
3944;4;1737;1
3945;4;1738;0
3946;4;1738;1
3947;4;1739;0
3948;4;1739;0
3949;5;1740;1
3950;4;1741;0
3951;4;1741;1
3952;3;1742;0
3953;4;1742;0
3954;3;1743;1
3955;4;1742;1
3956;3;1743;0
3957;3;1743;0
3958;3;1743;1
3959;3;1742;1
3960;4;1743;1
3961;4;1743;0
3962;4;1743;0
3963;3;1744;1
3964;4;1745;0
3965;4;1744;1
3966;4;1744;0
3967;4;1745;1
3968;5;1745;0
3969;4;1746;1
3970;5;1746;0
3971;4;1747;0
3972;5;1747;1
3973;4;1748;1
3974;4;1748;0
3975;4;1749;0
3976;4;1749;0
3977;4;1749;2
3978;4;1749;1
3979;4;1750;1
3980;5;1749;0
3981;4;1749;1
3982;5;1750;0
3983;5;1752;0
3984;5;1752;1
3985;5;1753;1
3986;6;1753;0
3987;6;1754;0
3988;6;1755;1
3989;6;1755;0
3990;5;1756;1
3991;6;1756;1
3992;7;1757;0
3993;6;1758;0
3994;6;1758;1
3995;7;1759;1
3996;7;1759;0
3997;7;1760;0
3998;8;1760;1
3999;7;1761;0
4000;8;1761;1
4001;7;1762;1
4002;7;1762;0
4003;7;1763;1
4004;8;1763;0
4005;7;1764;1
4006;7;1764;0
4007;7;1765;1
4008;7;1765;0
4009;8;1766;1
4010;8;1767;0
4011;8;1767;1
4012;7;1767;0
4013;8;1768;1
4014;8;1768;0
4015;8;1770;0
4016;8;1771;1
4017;8;1771;0
4018;8;1771;1
4019;8;1771;0
4020;7;1773;0
4021;8;1772;1
4022;7;1773;0
4023;8;1773;0
4024;7;1774;1
4025;8;1774;1
4026;8;1775;0
4027;8;1776;1
4028;9;1776;0
4029;9;1777;1
4030;8;1777;0
4031;9;1778;1
4032;9;1779;0
4033;9;1779;0
4034;8;1780;1
4035;8;1781;0
4036;8;1781;0
4037;8;1781;0
4038;9;1782;1
4039;8;1782;1
4040;9;1782;0
4041;8;1783;0
4042;8;1783;1
4043;8;1783;0
4044;8;1783;0
4045;8;1785;1
4046;8;1785;1
4047;7;1786;1
4048;8;1785;1
4049;8;1785;0
4050;8;1785;0
4051;8;1786;1
4052;8;1786;0
4053;7;1787;1
4054;8;1787;1
4055;8;1788;0
4056;8;1788;1
4057;8;1789;0
4058;8;1790;1
4059;9;1790;0
4060;8;1791;0
4061;8;1791;1
4062;8;1791;0
4063;8;1790;1
4064;7;1792;0
4065;8;1792;0
4066;8;1793;1
4067;8;1794;0
4068;7;1794;0
4069;8;1795;1
4070;8;1796;0
4071;8;1796;1
4072;7;1797;0
4073;8;1797;0
4074;9;1797;0
4075;9;1798;2
4076;8;1798;1
4077;8;1799;0
4078;9;1799;0
4079;8;1800;2
4080;8;1801;1
4081;9;1800;1
4082;9;1801;0
4083;9;1801;1
4084;8;1802;0
4085;9;1803;1
4086;9;1803;0
4087;10;1804;1
4088;10;1804;0
4089;10;1805;0
4090;11;1804;1
4091;10;1805;0
4092;10;1805;1
4093;10;1806;0
4094;10;1806;1
4095;9;1807;0
4096;10;1807;1
4097;9;1808;0
4098;10;1808;0
4099;9;1809;1
4100;10;1809;1
4101;10;1810;0
4102;10;1810;1
4103;11;1811;0
4104;11;1812;0
4105;11;1812;1
4106;11;1813;0
4107;10;1814;1
4108;10;1813;0
4109;9;1813;0
4110;10;1813;0
4111;10;1814;1
4112;10;1813;1
4113;9;1814;0
4114;10;1814;0
4115;10;1815;1
4116;10;1815;1
4117;10;1815;1
4118;10;1816;0
4119;10;1817;0
4120;10;1817;1
4121;9;1818;0
4122;10;1818;1
4123;10;1819;0
4124;10;1819;1
4125;10;1819;0
4126;10;1819;1
4127;10;1820;0
4128;10;1820;1
4129;10;1821;1
4130;10;1821;0
4131;9;1821;1
4132;10;1821;1
4133;10;1822;0
4134;10;1821;1
4135;10;1823;0
4136;10;1822;1
4137;9;1823;0
4138;10;1823;1
4139;10;1824;1
4140;10;1825;0
4141;10;1825;1
4142;11;1826;2
4143;10;1826;1
4144;10;1827;0
4145;11;1828;1
4146;11;1829;1
4147;12;1829;0
4148;11;1830;0
4149;11;1830;1
4150;10;1831;2
4151;11;1831;1
4152;11;1831;0
4153;12;1831;1
4154;11;1832;1
4155;12;1832;0
4156;11;1833;1
4157;12;1833;0
4158;11;1834;1
4159;12;1834;0
4160;11;1835;1
4161;12;1835;0
4162;11;1836;1
4163;11;1836;0
4164;11;1837;1
4165;12;1837;0
4166;11;1838;0
4167;12;1838;1
4168;11;1839;0
4169;11;1839;1
4170;11;1840;0
4171;11;1840;0
4172;11;1841;0
4173;11;1841;2
4174;10;1842;1
4175;11;1842;0
4176;10;1842;1
4177;11;1842;0
4178;10;1843;0
4179;11;1843;1
4180;10;1844;1
4181;11;1844;1
4182;10;1844;0
4183;10;1844;0
4184;10;1845;1
4185;10;1845;0
4186;9;1846;1
4187;10;1845;1
4188;11;1846;0
4189;10;1847;0
4190;10;1847;1
4191;10;1848;1
4192;10;1849;0
4193;11;1849;0
4194;10;1850;1
4195;11;1849;0
4196;10;1850;1
4197;11;1850;0
4198;10;1850;1
4199;11;1850;0
4200;10;1851;1
4201;11;1851;0
4202;10;1851;1
4203;11;1851;0
4204;10;1852;1
4205;11;1852;0
4206;10;1853;1
4207;11;1853;0
4208;10;1853;1
4209;10;1853;0
4210;11;1853;1
4211;10;1854;0
4212;11;1854;0
4213;10;1855;1
4214;11;1855;0
4215;11;1856;1
4216;10;1857;0
4217;11;1858;0
4218;10;1858;1
4219;11;1858;1
4220;10;1859;1
4221;11;1859;0
4222;10;1860;0
4223;11;1860;1
4224;10;1861;0
4225;10;1861;1
4226;10;1862;0
4227;10;1861;1
4228;10;1863;0
4229;10;1863;1
4230;9;1864;0
4231;10;1864;0
4232;10;1865;1
4233;10;1865;2
4234;9;1866;1
4235;10;1866;0
4236;9;1867;1
4237;10;1867;1
4238;9;1868;0
4239;10;1869;0
4240;11;1869;1
4241;10;1870;1
4242;11;1870;0
4243;10;1871;1
4244;11;1870;0
4245;10;1872;1
4246;10;1872;0
4247;10;1873;1
4248;10;1873;0
4249;11;1873;1
4250;10;1874;0
4251;11;1874;0
4252;10;1875;1
4253;10;1875;0
4254;9;1876;0
4255;10;1876;1
4256;9;1877;1
4257;10;1877;0
4258;9;1878;1
4259;10;1878;0
4260;9;1879;1
4261;10;1879;0
4262;9;1880;1
4263;9;1880;0
4264;8;1880;0
4265;9;1881;1
4266;10;1881;0
4267;9;1882;1
4268;9;1882;0
4269;9;1883;0
4270;9;1883;1
4271;9;1884;0
4272;10;1884;1
4273;9;1885;0
4274;9;1884;1
4275;9;1885;0
4276;9;1884;1
4277;9;1885;1
4278;9;1885;0
4279;8;1886;1
4280;8;1886;0
4281;8;1887;0
4282;8;1887;0
4283;7;1888;1
4284;8;1888;2
4285;8;1889;1
4286;8;1889;2
4287;7;1890;1
4288;7;1890;0
4289;7;1891;0
4290;7;1891;1
4291;7;1892;0
4292;7;1892;1
4293;7;1893;0
4294;7;1893;0
4295;6;1894;1
4296;7;1894;0
4297;6;1895;1
4298;7;1895;0
4299;7;1896;1
4300;7;1896;0
4301;7;1897;1
4302;7;1897;0
4303;7;1898;1
4304;7;1898;0
4305;7;1899;0
4306;6;1900;1
4307;6;1900;0
4308;6;1901;1
4309;7;1901;0
4310;6;1902;0
4311;6;1902;1
4312;5;1903;1
4313;6;1902;0
4314;6;1902;0
4315;6;1902;1
4316;6;1903;0
4317;6;1903;0
4318;6;1904;1
4319;6;1905;0
4320;7;1904;1
4321;7;1905;0
4322;6;1906;1
4323;7;1906;0
4324;6;1907;1
4325;6;1908;0
4326;7;1908;0
4327;6;1909;1
4328;6;1909;0
4329;6;1910;1
4330;6;1910;0
4331;6;1910;1
4332;6;1911;0
4333;6;1912;1
4334;6;1912;0
4335;6;1913;0
4336;7;1913;0
4337;7;1914;0
4338;6;1915;2
4339;7;1916;1
4340;6;1915;1
4341;6;1915;0
4342;6;1916;1
4343;7;1916;0
4344;6;1917;0
4345;6;1916;1
4346;6;1917;0
4347;6;1917;0
4348;6;1918;1
4349;6;1918;1
4350;6;1918;0
4351;6;1918;1
4352;6;1918;0
4353;6;1917;1
4354;6;1918;0
4355;6;1918;0
4356;5;1919;1
4357;6;1918;0
4358;5;1919;1
4359;5;1919;0
4360;5;1920;0
4361;5;1919;1
4362;5;1920;0
4363;5;1920;1
4364;5;1921;0
4365;5;1921;0
4366;4;1922;1
4367;5;1921;1
4368;5;1921;0
4369;5;1921;1
4370;5;1922;0
4371;5;1922;0
4372;4;1923;1
4373;5;1924;1
4374;5;1924;0
4375;5;1925;0
4376;5;1925;0
4377;5;1926;1
4378;5;1926;1
4379;5;1926;0
4380;5;1925;1
4381;5;1927;0
4382;5;1927;1
4383;4;1928;0
4384;5;1927;1
4385;4;1928;1
4386;5;1928;0
4387;5;1929;1
4388;5;1929;0
4389;5;1930;1
4390;5;1930;0
4391;5;1931;1
4392;5;1932;1
4393;5;1932;1
4394;5;1933;1
4395;6;1932;1
4396;5;1933;0
4397;5;1933;0
4398;4;1934;1
4399;5;1934;1
4400;4;1934;0
4401;5;1934;1
4402;5;1935;1
4403;5;1935;1
4404;5;1936;0
4405;5;1936;1
4406;4;1936;0
4407;5;1936;1
4408;5;1936;0
4409;5;1937;1
4410;6;1937;0
4411;5;1938;1
4412;5;1937;0
4413;5;1938;1
4414;5;1939;0
4415;6;1940;0
4416;5;1940;1
4417;6;1940;0
4418;5;1940;1
4419;6;1941;0
4420;5;1942;0
4421;5;1943;1
4422;5;1943;0
4423;5;1943;1
4424;5;1943;0
4425;5;1943;0
4426;5;1944;1
4427;5;1944;1
4428;5;1945;1
4429;5;1945;1
4430;6;1946;0
4431;5;1946;1
4432;4;1947;0
4433;5;1947;1
4434;5;1948;0
4435;5;1948;0
4436;4;1949;0
4437;5;1949;0
4438;5;1950;1
4439;5;1950;1
4440;5;1950;0
4441;4;1951;1
4442;4;1951;1
4443;5;1952;0
4444;5;1952;0
4445;5;1951;1
4446;5;1952;1
4447;6;1952;0
4448;5;1953;1
4449;6;1953;0
4450;5;1954;1
4451;6;1954;0
4452;5;1955;1
4453;6;1955;0
4454;5;1956;1
4455;6;1956;0
4456;6;1957;0
4457;5;1958;0
4458;6;1958;1
4459;5;1959;0
4460;6;1959;1
4461;5;1960;1
4462;5;1960;0
4463;5;1961;0
4464;5;1961;1
4465;5;1962;0
4466;5;1963;1
4467;6;1963;0
4468;5;1964;1
4469;6;1964;0
4470;6;1964;1
4471;6;1965;0
4472;6;1965;0
4473;5;1966;1
4474;6;1966;0
4475;6;1967;1
4476;5;1968;0
4477;6;1968;1
4478;5;1969;0
4479;6;1969;1
4480;6;1970;0
4481;6;1969;1
4482;6;1970;0
4483;6;1970;1
4484;5;1971;0
4485;6;1971;1
4486;6;1972;0
4487;6;1972;0
4488;6;1973;1
4489;6;1973;1
4490;5;1974;0
4491;6;1975;0
4492;5;1975;1
4493;6;1975;0
4494;5;1976;1
4495;5;1976;0
4496;5;1977;1
4497;5;1977;0
4498;5;1978;0
4499;5;1978;0
4500;5;1978;1
4501;5;1978;1
4502;4;1979;0
4503;5;1979;1
4504;6;1979;0
4505;5;1980;1
4506;5;1981;0
4507;6;1982;0
4508;6;1983;0
4509;6;1984;1
4510;6;1985;1
4511;6;1985;1
4512;5;1986;0
4513;5;1986;0
4514;4;1987;0
4515;5;1988;1
4516;6;1988;0
4517;5;1989;0
4518;6;1989;1
4519;5;1990;1
4520;5;1990;0
4521;5;1991;0
4522;5;1991;1
4523;5;1992;1
4524;5;1992;1
4525;5;1993;2
4526;6;1993;1
4527;6;1994;0
4528;5;1995;0
4529;5;1995;1
4530;4;1996;0
4531;6;1996;1
4532;6;1997;0
4533;6;1998;1
4534;6;1998;1
4535;6;1999;0
4536;6;1999;1
4537;6;2000;0
4538;6;2000;0
4539;6;2001;1
4540;6;2001;1
4541;5;2002;0
4542;6;2002;1
4543;6;2002;0
4544;7;2003;0
4545;7;2004;1
4546;7;2004;0
4547;6;2005;1
4548;7;2005;0
4549;6;2006;1
4550;7;2006;0
4551;7;2007;0
4552;7;2007;1
4553;7;2008;0
4554;7;2009;1
4555;7;2008;1
4556;7;2009;0
4557;7;2009;1
4558;7;2010;0
4559;7;2009;0
4560;8;2010;1
4561;7;2011;1
4562;8;2012;0
4563;8;2012;1
4564;7;2013;0
4565;8;2013;0
4566;8;2014;0
4567;8;2014;1
4568;8;2014;1
4569;8;2015;0
4570;8;2016;0
4571;8;2015;1
4572;8;2015;1
4573;7;2016;1
4574;8;2016;0
4575;7;2017;1
4576;8;2017;0
4577;7;2018;0
4578;8;2018;1
4579;7;2019;1
4580;8;2019;0
4581;7;2020;1
4582;8;2019;0
4583;7;2020;0
4584;8;2020;1
4585;7;2021;0
4586;7;2021;1
4587;7;2022;0
4588;7;2022;1
4589;7;2023;0
4590;7;2023;0
4591;7;2024;1
4592;7;2024;1
4593;7;2025;0
4594;7;2025;1
4595;6;2025;0
4596;7;2025;1
4597;7;2025;0
4598;7;2024;1
4599;8;2025;1
4600;7;2026;1
4601;8;2026;0
4602;8;2027;1
4603;8;2029;0
4604;8;2029;1
4605;7;2030;0
4606;8;2030;0
4607;8;2030;1
4608;8;2032;2
4609;9;2031;1
4610;8;2033;2
4611;9;2033;1
4612;8;2033;2
4613;8;2033;2
4614;8;2034;2
4615;8;2034;1
4616;9;2035;1
4617;8;2036;0
4618;9;2036;1
4619;9;2037;0
4620;9;2038;1
4621;9;2038;0
4622;9;2039;1
4623;10;2039;0
4624;9;2040;1
4625;10;2039;1
4626;9;2040;0
4627;9;2040;0
4628;9;2040;1
4629;9;2040;0
4630;9;2041;1
4631;9;2042;0
4632;9;2042;1
4633;9;2043;0
4634;9;2043;1
4635;9;2044;0
4636;9;2044;0
4637;9;2045;1
4638;9;2045;1
4639;9;2046;0
4640;8;2047;0
4641;9;2047;0
4642;9;2048;0
4643;9;2049;1
4644;9;2049;1
4645;9;2050;0
4646;9;2050;1
4647;9;2051;0
4648;9;2050;1
4649;8;2051;0
4650;9;2051;0
4651;8;2052;0
4652;9;2052;1
4653;8;2053;1
4654;8;2053;0
4655;8;2054;0
4656;9;2054;1
4657;8;2055;1
4658;9;2055;1
4659;8;2056;0
4660;8;2056;0
4661;7;2057;1
4662;8;2057;1
4663;7;2058;0
4664;8;2058;1
4665;9;2059;0
4666;8;2060;1
4667;8;2060;0
4668;8;2059;1
4669;7;2060;0
4670;8;2060;1
4671;7;2061;0
4672;8;2061;0
4673;8;2062;1
4674;8;2062;1
4675;8;2063;0
4676;8;2063;0
4677;8;2064;1
4678;8;2064;0
4679;8;2065;0
4680;8;2064;1
4681;9;2065;1
4682;9;2065;0
4683;9;2066;1
4684;10;2066;0
4685;9;2067;1
4686;10;2067;0
4687;10;2067;1
4688;9;2068;0
4689;10;2068;0
4690;11;2067;1
4691;10;2068;1
4692;10;2068;0
4693;10;2068;0
4694;10;2067;0
4695;10;2068;1
4696;10;2068;1
4697;10;2069;1
4698;10;2069;1
4699;10;2070;0
4700;10;2071;1
4701;10;2072;0
4702;11;2072;1
4703;11;2073;0
4704;11;2073;1
4705;11;2073;0
4706;11;2073;1
4707;11;2074;0
4708;11;2073;0
4709;11;2074;1
4710;11;2074;0
4711;10;2075;1
4712;11;2074;1
4713;10;2075;0
4714;11;2075;0
4715;11;2076;1
4716;11;2077;1
4717;12;2077;0
4718;12;2078;1
4719;12;2079;0
4720;12;2079;1
4721;11;2080;1
4722;12;2080;1
4723;12;2081;0
4724;12;2081;0
4725;12;2082;1
4726;12;2083;0
4727;12;2084;1
4728;13;2084;0
4729;12;2085;1
4730;13;2085;1
4731;13;2086;0
4732;13;2086;1
4733;13;2086;0
4734;13;2086;0
4735;12;2087;1
4736;13;2088;1
4737;14;2088;0
4738;13;2089;1
4739;14;2090;0
4740;14;2090;1
4741;13;2090;1
4742;14;2090;0
4743;13;2090;0
4744;13;2089;1
4745;13;2090;0
4746;13;2091;1
4747;13;2091;0
4748;13;2091;1
4749;12;2092;0
4750;13;2092;0
4751;12;2093;1
4752;13;2092;1
4753;13;2093;1
4754;13;2092;1
4755;12;2092;2
4756;12;2092;1
4757;12;2093;1
4758;12;2093;0
4759;12;2094;1
4760;13;2094;0
4761;12;2094;1
4762;13;2093;0
4763;12;2093;1
4764;12;2094;0
4765;13;2094;1
4766;13;2094;0
4767;13;2095;1
4768;12;2096;0
4769;13;2096;1
4770;14;2097;1
4771;13;2097;1
4772;13;2098;0
4773;13;2098;1
4774;13;2098;0
4775;13;2098;0
4776;13;2099;1
4777;13;2098;1
4778;13;2099;1
4779;13;2099;1
4780;13;2100;0
4781;13;2100;1
4782;13;2100;0
4783;13;2100;1
4784;13;2101;0
4785;13;2101;1
4786;14;2102;0
4787;13;2102;1
4788;13;2103;0
4789;13;2103;1
4790;12;2104;0
4791;13;2104;0
4792;13;2105;1
4793;13;2105;1
4794;14;2106;0
4795;14;2107;0
4796;14;2107;1
4797;13;2108;1
4798;13;2108;0
4799;13;2109;1
4800;14;2108;0
4801;13;2109;1
4802;14;2109;0
4803;13;2110;0
4804;13;2111;1
4805;14;2111;1
4806;13;2112;1
4807;14;2112;1
4808;13;2112;0
4809;13;2112;0
4810;12;2113;0
4811;13;2113;1
4812;12;2114;0
4813;13;2114;1
4814;12;2115;0
4815;13;2115;0
4816;13;2116;1
4817;13;2117;0
4818;13;2117;1
4819;12;2118;0
4820;13;2118;1
4821;13;2118;0
4822;13;2119;1
4823;13;2119;0
4824;13;2119;1
4825;12;2120;0
4826;13;2119;0
4827;12;2120;1
4828;13;2120;0
4829;12;2121;0
4830;12;2121;1
4831;11;2122;0
4832;12;2122;1
4833;11;2123;0
4834;12;2123;0
4835;11;2123;0
4836;11;2123;1
4837;11;2124;1
4838;12;2124;0
4839;11;2124;0
4840;12;2124;1
4841;12;2125;1
4842;11;2126;0
4843;12;2126;1
4844;11;2127;0
4845;12;2127;1
4846;12;2128;0
4847;12;2128;1
4848;12;2129;0
4849;12;2130;1
4850;12;2129;0
4851;12;2130;1
4852;12;2130;1
4853;12;2130;1
4854;12;2130;1
4855;13;2131;0
4856;12;2131;0
4857;12;2132;1
4858;11;2133;1
4859;12;2133;0
4860;12;2134;0
4861;13;2134;1
4862;12;2135;1
4863;13;2135;0
4864;12;2136;0
4865;13;2136;1
4866;12;2136;0
4867;13;2136;1
4868;12;2138;1
4869;13;2137;0
4870;13;2138;0
4871;13;2139;1
4872;13;2140;0
4873;12;2139;1
4874;12;2141;0
4875;12;2141;0
4876;12;2141;1
4877;12;2141;0
4878;11;2142;1
4879;12;2142;0
4880;11;2143;0
4881;11;2143;1
4882;11;2144;2
4883;12;2143;1
4884;11;2144;2
4885;12;2143;1
4886;11;2144;1
4887;12;2143;0
4888;11;2143;1
4889;11;2143;0
4890;11;2144;1
4891;12;2144;0
4892;11;2144;0
4893;11;2145;0
4894;10;2146;0
4895;10;2146;1
4896;10;2147;1
4897;11;2147;0
4898;11;2148;1
4899;11;2149;0
4900;11;2149;0
4901;11;2149;1
4902;11;2149;1
4903;11;2150;1
4904;11;2150;1
4905;10;2151;0
4906;11;2152;0
4907;12;2152;0
4908;11;2153;0
4909;12;2153;2
4910;12;2153;2
4911;12;2153;1
4912;11;2154;1
4913;12;2154;0
4914;11;2156;1
4915;12;2155;1
4916;11;2156;0
4917;11;2156;1
4918;10;2156;0
4919;11;2157;0
4920;11;2157;1
4921;11;2157;1
4922;11;2158;1
4923;11;2158;0
4924;11;2159;1
4925;11;2159;1
4926;11;2160;0
4927;12;2159;1
4928;12;2160;1
4929;12;2161;1
4930;11;2162;0
4931;12;2162;1
4932;12;2163;0
4933;12;2163;0
4934;12;2164;1
4935;12;2164;1
4936;12;2165;0
4937;12;2165;0
4938;12;2166;1
4939;12;2166;1
4940;12;2167;0
4941;12;2167;1
4942;11;2168;1
4943;12;2168;1
4944;12;2169;0
4945;12;2170;0
4946;12;2169;1
4947;12;2170;1
4948;13;2170;0
4949;12;2171;0
4950;13;2170;1
4951;12;2171;1
4952;12;2171;0
4953;12;2172;0
4954;13;2172;1
4955;12;2173;2
4956;13;2173;1
4957;12;2173;1
4958;13;2173;1
4959;12;2173;0
4960;12;2174;1
4961;11;2174;0
4962;12;2174;0
4963;12;2175;1
4964;12;2176;0
4965;12;2176;0
4966;11;2176;0
4967;11;2177;1
4968;11;2176;0
4969;10;2177;1
4970;10;2177;0
4971;9;2178;0
4972;11;2178;2
4973;11;2179;1
4974;11;2179;1
4975;11;2180;0
4976;10;2181;0
4977;11;2181;1
4978;11;2181;0
4979;11;2182;1
4980;12;2182;0
4981;11;2183;0
4982;12;2183;1
4983;11;2184;1
4984;11;2185;0
4985;12;2185;1
4986;11;2186;0
4987;12;2186;1
4988;12;2186;0
4989;12;2187;0
4990;13;2187;1
4991;12;2188;2
4992;12;2188;1
4993;12;2189;1
4994;12;2188;0
4995;11;2188;0
4996;12;2189;0
4997;11;2189;1
4998;12;2189;0
4999;11;2190;1
