T1;1800;3600;0.25;0.5;44;0.0088;0.01;0.1;0.01;154.75
T2;1800;3600;0.25;0.5;8;0.0016;0.001;0.1;0.01;150.875
T1;1800;3600;0.25;0.5;159;0.0318;0.0322222;0.1;0.0322222;154.818
T2;1800;3600;0.25;0.5;15;0.003;0.00322222;0.1;0.0322222;150.533
T1;1800;3600;0.25;0.5;254;0.0508;0.0544444;0.1;0.0544444;154.811
T2;1800;3600;0.25;0.5;24;0.0048;0.00544444;0.1;0.0544444;150.208
T1;1800;3600;0.25;0.5;371;0.0742;0.0766667;0.1;0.0766667;155.189
T2;1800;3600;0.25;0.5;37;0.0074;0.00766667;0.1;0.0766667;150.973
T1;1800;3600;0.25;0.5;469;0.0938;0.0988889;0.1;0.0988889;156.324
T2;1800;3600;0.25;0.5;50;0.01;0.00988889;0.1;0.0988889;150.78
T1;1800;3600;0.25;0.5;598;0.1196;0.121111;0.1;0.121111;157.821
T2;1800;3600;0.25;0.5;54;0.0108;0.0121111;0.1;0.121111;150.778
T1;1800;3600;0.25;0.5;717;0.1434;0.143333;0.1;0.143333;159.4
T2;1800;3600;0.25;0.5;73;0.0146;0.0143333;0.1;0.143333;150.918
T1;1800;3600;0.25;0.5;789;0.1578;0.165556;0.1;0.165556;160.877
T2;1800;3600;0.25;0.5;83;0.0166;0.0165556;0.1;0.165556;150.675
T1;1800;3600;0.25;0.5;888;0.1776;0.187778;0.1;0.187778;165.464
T2;1800;3600;0.25;0.5;105;0.021;0.0187778;0.1;0.187778;151.286
T1;1800;3600;0.25;0.5;1002;0.2004;0.21;0.1;0.21;182.549
T2;1800;3600;0.25;0.5;83;0.0166;0.021;0.1;0.21;151.072
T1;1800;3600;0.25;0.5;51;0.0102;0.01;0.25;0.01;153.706
T2;1800;3600;0.25;0.5;10;0.002;0.0025;0.25;0.01;150.3
T1;1800;3600;0.25;0.5;157;0.0314;0.0322222;0.25;0.0322222;154.535
T2;1800;3600;0.25;0.5;30;0.006;0.00805556;0.25;0.0322222;150.8
T1;1800;3600;0.25;0.5;271;0.0542;0.0544444;0.25;0.0544444;155.605
T2;1800;3600;0.25;0.5;60;0.012;0.0136111;0.25;0.0544444;150.983
T1;1800;3600;0.25;0.5;408;0.0816;0.0766667;0.25;0.0766667;156.686
T2;1800;3600;0.25;0.5;105;0.021;0.0191667;0.25;0.0766667;150.933
T1;1800;3600;0.25;0.5;483;0.0966;0.0988889;0.25;0.0988889;156.549
T2;1800;3600;0.25;0.5;109;0.0218;0.0247222;0.25;0.0988889;151.064
T1;1800;3600;0.25;0.5;590;0.118;0.121111;0.25;0.121111;157.849
T2;1800;3600;0.25;0.5;141;0.0282;0.0302778;0.25;0.121111;150.922
T1;1800;3600;0.25;0.5;677;0.1354;0.143333;0.25;0.143333;160.473
T2;1800;3600;0.25;0.5;174;0.0348;0.0358333;0.25;0.143333;151.213
T1;1800;3600;0.25;0.5;816;0.1632;0.165556;0.25;0.165556;162.783
T2;1800;3600;0.25;0.5;205;0.041;0.0413889;0.25;0.165556;151.19
T1;1800;3600;0.25;0.5;934;0.1868;0.187778;0.25;0.187778;169.784
T2;1800;3600;0.25;0.5;217;0.0434;0.0469444;0.25;0.187778;151.106
T1;1800;3600;0.25;0.5;944;0.1888;0.21;0.25;0.21;166.693
T2;1800;3600;0.25;0.5;247;0.0494;0.0525;0.25;0.21;151.526
T1;1800;3600;0.25;0.5;54;0.0108;0.01;0.5;0.01;153.333
T2;1800;3600;0.25;0.5;24;0.0048;0.005;0.5;0.01;150.5
T1;1800;3600;0.25;0.5;161;0.0322;0.0322222;0.5;0.0322222;154.938
T2;1800;3600;0.25;0.5;94;0.0188;0.0161111;0.5;0.0322222;150.543
T1;1800;3600;0.25;0.5;262;0.0524;0.0544444;0.5;0.0544444;155.046
T2;1800;3600;0.25;0.5;132;0.0264;0.0272222;0.5;0.0544444;150.629
T1;1800;3600;0.25;0.5;379;0.0758;0.0766667;0.5;0.0766667;155.639
T2;1800;3600;0.25;0.5;212;0.0424;0.0383333;0.5;0.0766667;151.024
T1;1800;3600;0.25;0.5;517;0.1034;0.0988889;0.5;0.0988889;157.507
T2;1800;3600;0.25;0.5;261;0.0522;0.0494444;0.5;0.0988889;151.042
T1;1800;3600;0.25;0.5;579;0.1158;0.121111;0.5;0.121111;158.453
T2;1800;3600;0.25;0.5;259;0.0518;0.0605556;0.5;0.121111;151.359
T1;1800;3600;0.25;0.5;753;0.1506;0.143333;0.5;0.143333;160.819
T2;1800;3600;0.25;0.5;331;0.0662;0.0716667;0.5;0.143333;151.577
T1;1800;3600;0.25;0.5;796;0.1592;0.165556;0.5;0.165556;164.221
T2;1800;3600;0.25;0.5;385;0.077;0.0827778;0.5;0.165556;151.496
T1;1800;3600;0.25;0.5;896;0.1792;0.187778;0.5;0.187778;167.932
T2;1800;3600;0.25;0.5;452;0.0904;0.0938889;0.5;0.187778;152.058
T1;1800;3600;0.25;0.5;991;0.1982;0.21;0.5;0.21;172.49
T2;1800;3600;0.25;0.5;538;0.1076;0.105;0.5;0.21;152.786
