T1;3600;3600;0.1;1;46;0.0092;0.01;0.1;0.01;162.239
T2;3600;3600;0.1;1;1;0.0002;0.001;0.1;0.01;149
T1;3600;3600;0.1;1;97;0.0194;0.0177778;0.1;0.0177778;162.701
T2;3600;3600;0.1;1;6;0.0012;0.00177778;0.1;0.0177778;149.667
T1;3600;3600;0.1;1;110;0.022;0.0255556;0.1;0.0255556;160.436
T2;3600;3600;0.1;1;9;0.0018;0.00255556;0.1;0.0255556;149.778
T1;3600;3600;0.1;1;155;0.031;0.0333333;0.1;0.0333333;163.91
T2;3600;3600;0.1;1;11;0.0022;0.00333333;0.1;0.0333333;149.727
T1;3600;3600;0.1;1;191;0.0382;0.0411111;0.1;0.0411111;165.01
T2;3600;3600;0.1;1;22;0.0044;0.00411111;0.1;0.0411111;150
T1;3600;3600;0.1;1;238;0.0476;0.0488889;0.1;0.0488889;175.252
T2;3600;3600;0.1;1;25;0.005;0.00488889;0.1;0.0488889;149.88
T1;3600;3600;0.1;1;256;0.0512;0.0566667;0.1;0.0566667;171.461
T2;3600;3600;0.1;1;39;0.0078;0.00566667;0.1;0.0566667;149.846
T1;3600;3600;0.1;1;294;0.0588;0.0644444;0.1;0.0644444;180.136
T2;3600;3600;0.1;1;27;0.0054;0.00644444;0.1;0.0644444;150.037
T1;3600;3600;0.1;1;326;0.0652;0.0722222;0.1;0.0722222;186.138
T2;3600;3600;0.1;1;40;0.008;0.00722222;0.1;0.0722222;149.825
T1;3600;3600;0.1;1;354;0.0708;0.08;0.1;0.08;185.492
T2;3600;3600;0.1;1;41;0.0082;0.008;0.1;0.08;149.951
T1;3600;3600;0.1;1;46;0.0092;0.01;0.25;0.01;161.413
T2;3600;3600;0.1;1;9;0.0018;0.0025;0.25;0.01;150.222
T1;3600;3600;0.1;1;84;0.0168;0.0177778;0.25;0.0177778;161.024
T2;3600;3600;0.1;1;27;0.0054;0.00444444;0.25;0.0177778;149.593
T1;3600;3600;0.1;1;121;0.0242;0.0255556;0.25;0.0255556;162.24
T2;3600;3600;0.1;1;28;0.0056;0.00638889;0.25;0.0255556;149.893
T1;3600;3600;0.1;1;173;0.0346;0.0333333;0.25;0.0333333;164.723
T2;3600;3600;0.1;1;38;0.0076;0.00833333;0.25;0.0333333;149.711
T1;3600;3600;0.1;1;199;0.0398;0.0411111;0.25;0.0411111;165.709
T2;3600;3600;0.1;1;39;0.0078;0.0102778;0.25;0.0411111;150.077
T1;3600;3600;0.1;1;238;0.0476;0.0488889;0.25;0.0488889;169
T2;3600;3600;0.1;1;55;0.011;0.0122222;0.25;0.0488889;150.109
T1;3600;3600;0.1;1;269;0.0538;0.0566667;0.25;0.0566667;173.431
T2;3600;3600;0.1;1;69;0.0138;0.0141667;0.25;0.0566667;150.043
T1;3600;3600;0.1;1;306;0.0612;0.0644444;0.25;0.0644444;181.575
T2;3600;3600;0.1;1;100;0.02;0.0161111;0.25;0.0644444;149.93
T1;3600;3600;0.1;1;340;0.068;0.0722222;0.25;0.0722222;186.615
T2;3600;3600;0.1;1;93;0.0186;0.0180556;0.25;0.0722222;150.118
T1;3600;3600;0.1;1;359;0.0718;0.08;0.25;0.08;185.217
T2;3600;3600;0.1;1;99;0.0198;0.02;0.25;0.08;149.929
T1;3600;3600;0.1;1;62;0.0124;0.01;0.5;0.01;161.065
T2;3600;3600;0.1;1;21;0.0042;0.005;0.5;0.01;149.857
T1;3600;3600;0.1;1;88;0.0176;0.0177778;0.5;0.0177778;159.273
T2;3600;3600;0.1;1;38;0.0076;0.00888889;0.5;0.0177778;150.105
T1;3600;3600;0.1;1;128;0.0256;0.0255556;0.5;0.0255556;162.305
T2;3600;3600;0.1;1;53;0.0106;0.0127778;0.5;0.0255556;149.887
T1;3600;3600;0.1;1;144;0.0288;0.0333333;0.5;0.0333333;160.625
T2;3600;3600;0.1;1;62;0.0124;0.0166667;0.5;0.0333333;149.79
T1;3600;3600;0.1;1;196;0.0392;0.0411111;0.5;0.0411111;168.776
T2;3600;3600;0.1;1;112;0.0224;0.0205556;0.5;0.0411111;149.929
T1;3600;3600;0.1;1;211;0.0422;0.0488889;0.5;0.0488889;167.408
T2;3600;3600;0.1;1;131;0.0262;0.0244444;0.5;0.0488889;149.916
T1;3600;3600;0.1;1;272;0.0544;0.0566667;0.5;0.0566667;175.331
T2;3600;3600;0.1;1;129;0.0258;0.0283333;0.5;0.0566667;149.845
T1;3600;3600;0.1;1;338;0.0676;0.0644444;0.5;0.0644444;182.58
T2;3600;3600;0.1;1;160;0.032;0.0322222;0.5;0.0644444;149.825
T1;3600;3600;0.1;1;367;0.0734;0.0722222;0.5;0.0722222;212.215
T2;3600;3600;0.1;1;178;0.0356;0.0361111;0.5;0.0722222;149.961
T1;3600;3600;0.1;1;385;0.077;0.08;0.5;0.08;198.021
T2;3600;3600;0.1;1;199;0.0398;0.04;0.5;0.08;150.03
