T1;1800;3600;0.1;0.5;61;0.0122;0.01;0.1;0.01;169.443
T2;1800;3600;0.1;0.5;6;0.0012;0.001;0.1;0.01;151.833
T1;1800;3600;0.1;0.5;71;0.0142;0.0155556;0.1;0.0155556;171.394
T2;1800;3600;0.1;0.5;4;0.0008;0.00155556;0.1;0.0155556;150.75
T1;1800;3600;0.1;0.5;80;0.016;0.0211111;0.1;0.0211111;171.863
T2;1800;3600;0.1;0.5;4;0.0008;0.00211111;0.1;0.0211111;152.25
T1;1800;3600;0.1;0.5;109;0.0218;0.0266667;0.1;0.0266667;186.936
T2;1800;3600;0.1;0.5;14;0.0028;0.00266667;0.1;0.0266667;150.857
T1;1800;3600;0.1;0.5;157;0.0314;0.0322222;0.1;0.0322222;205.682
T2;1800;3600;0.1;0.5;21;0.0042;0.00322222;0.1;0.0322222;152.286
T1;1800;3600;0.1;0.5;194;0.0388;0.0377778;0.1;0.0377778;201.036
T2;1800;3600;0.1;0.5;23;0.0046;0.00377778;0.1;0.0377778;152
T1;1800;3600;0.1;0.5;191;0.0382;0.0433333;0.1;0.0433333;220.639
T2;1800;3600;0.1;0.5;26;0.0052;0.00433333;0.1;0.0433333;151.692
T1;1800;3600;0.1;0.5;247;0.0494;0.0488889;0.1;0.0488889;271.494
T2;1800;3600;0.1;0.5;32;0.0064;0.00488889;0.1;0.0488889;150.562
T1;1800;3600;0.1;0.5;265;0.053;0.0544444;0.1;0.0544444;285.702
T2;1800;3600;0.1;0.5;32;0.0064;0.00544444;0.1;0.0544444;151.625
T1;1800;3600;0.1;0.5;277;0.0554;0.06;0.1;0.06;404.531
T2;1800;3600;0.1;0.5;28;0.0056;0.006;0.1;0.06;151.214
T1;1800;3600;0.1;0.5;47;0.0094;0.01;0.25;0.01;166.404
T2;1800;3600;0.1;0.5;10;0.002;0.0025;0.25;0.01;153.1
T1;1800;3600;0.1;0.5;69;0.0138;0.0155556;0.25;0.0155556;168.406
T2;1800;3600;0.1;0.5;17;0.0034;0.00388889;0.25;0.0155556;151.706
T1;1800;3600;0.1;0.5;91;0.0182;0.0211111;0.25;0.0211111;171.264
T2;1800;3600;0.1;0.5;19;0.0038;0.00527778;0.25;0.0211111;153.053
T1;1800;3600;0.1;0.5;116;0.0232;0.0266667;0.25;0.0266667;177.224
T2;1800;3600;0.1;0.5;28;0.0056;0.00666667;0.25;0.0266667;152.107
T1;1800;3600;0.1;0.5;158;0.0316;0.0322222;0.25;0.0322222;191.184
T2;1800;3600;0.1;0.5;31;0.0062;0.00805556;0.25;0.0322222;152.097
T1;1800;3600;0.1;0.5;191;0.0382;0.0377778;0.25;0.0377778;212.565
T2;1800;3600;0.1;0.5;35;0.007;0.00944444;0.25;0.0377778;151.429
T1;1800;3600;0.1;0.5;218;0.0436;0.0433333;0.25;0.0433333;236.45
T2;1800;3600;0.1;0.5;39;0.0078;0.0108333;0.25;0.0433333;151.41
T1;1800;3600;0.1;0.5;217;0.0434;0.0488889;0.25;0.0488889;235.456
T2;1800;3600;0.1;0.5;52;0.0104;0.0122222;0.25;0.0488889;151.442
T1;1800;3600;0.1;0.5;239;0.0478;0.0544444;0.25;0.0544444;254.715
T2;1800;3600;0.1;0.5;70;0.014;0.0136111;0.25;0.0544444;151.486
T1;1800;3600;0.1;0.5;260;0.052;0.06;0.25;0.06;307.912
T2;1800;3600;0.1;0.5;79;0.0158;0.015;0.25;0.06;150.861
T1;1800;3600;0.1;0.5;48;0.0096;0.01;0.5;0.01;162.792
T2;1800;3600;0.1;0.5;21;0.0042;0.005;0.5;0.01;152.857
T1;1800;3600;0.1;0.5;69;0.0138;0.0155556;0.5;0.0155556;171.145
T2;1800;3600;0.1;0.5;46;0.0092;0.00777778;0.5;0.0155556;151.891
T1;1800;3600;0.1;0.5;90;0.018;0.0211111;0.5;0.0211111;172.3
T2;1800;3600;0.1;0.5;50;0.01;0.0105556;0.5;0.0211111;152.04
T1;1800;3600;0.1;0.5;145;0.029;0.0266667;0.5;0.0266667;184.828
T2;1800;3600;0.1;0.5;79;0.0158;0.0133333;0.5;0.0266667;151.671
T1;1800;3600;0.1;0.5;150;0.03;0.0322222;0.5;0.0322222;196.353
T2;1800;3600;0.1;0.5;84;0.0168;0.0161111;0.5;0.0322222;151.298
T1;1800;3600;0.1;0.5;176;0.0352;0.0377778;0.5;0.0377778;214.278
T2;1800;3600;0.1;0.5;91;0.0182;0.0188889;0.5;0.0377778;153.044
T1;1800;3600;0.1;0.5;201;0.0402;0.0433333;0.5;0.0433333;205.07
T2;1800;3600;0.1;0.5;128;0.0256;0.0216667;0.5;0.0433333;151.883
T1;1800;3600;0.1;0.5;241;0.0482;0.0488889;0.5;0.0488889;244.851
T2;1800;3600;0.1;0.5;127;0.0254;0.0244444;0.5;0.0488889;151.787
T1;1800;3600;0.1;0.5;258;0.0516;0.0544444;0.5;0.0544444;259.942
T2;1800;3600;0.1;0.5;133;0.0266;0.0272222;0.5;0.0544444;151.331
T1;1800;3600;0.1;0.5;285;0.057;0.06;0.5;0.06;375.474
T2;1800;3600;0.1;0.5;176;0.0352;0.03;0.5;0.06;151.369
