T1;3600;3600;0.1;1;49;0.0098;0.01;0.1;0.01;165.163
T2;3600;3600;0.1;1;6;0.0012;0.001;0.1;0.01;150.667
T1;3600;3600;0.1;1;91;0.0182;0.0177778;0.1;0.0177778;164.571
T2;3600;3600;0.1;1;7;0.0014;0.00177778;0.1;0.0177778;150.571
T1;3600;3600;0.1;1;125;0.025;0.0255556;0.1;0.0255556;166.6
T2;3600;3600;0.1;1;13;0.0026;0.00255556;0.1;0.0255556;151.231
T1;3600;3600;0.1;1;156;0.0312;0.0333333;0.1;0.0333333;170.308
T2;3600;3600;0.1;1;17;0.0034;0.00333333;0.1;0.0333333;150.294
T1;3600;3600;0.1;1;197;0.0394;0.0411111;0.1;0.0411111;198.335
T2;3600;3600;0.1;1;15;0.003;0.00411111;0.1;0.0411111;150.6
T1;3600;3600;0.1;1;242;0.0484;0.0488889;0.1;0.0488889;226.459
T2;3600;3600;0.1;1;26;0.0052;0.00488889;0.1;0.0488889;150.115
T1;3600;3600;0.1;1;268;0.0536;0.0566667;0.1;0.0566667;231.437
T2;3600;3600;0.1;1;25;0.005;0.00566667;0.1;0.0566667;149.88
T1;3600;3600;0.1;1;282;0.0564;0.0644444;0.1;0.0644444;269.635
T2;3600;3600;0.1;1;42;0.0084;0.00644444;0.1;0.0644444;150.214
T1;3600;3600;0.1;1;307;0.0614;0.0722222;0.1;0.0722222;363.883
T2;3600;3600;0.1;1;30;0.006;0.00722222;0.1;0.0722222;150.4
T1;3600;3600;0.1;1;342;0.0684;0.08;0.1;0.08;471.982
T2;3600;3600;0.1;1;31;0.0062;0.008;0.1;0.08;149.871
T1;3600;3600;0.1;1;39;0.0078;0.01;0.25;0.01;164.308
T2;3600;3600;0.1;1;10;0.002;0.0025;0.25;0.01;150.7
T1;3600;3600;0.1;1;87;0.0174;0.0177778;0.25;0.0177778;163.126
T2;3600;3600;0.1;1;24;0.0048;0.00444444;0.25;0.0177778;150.417
T1;3600;3600;0.1;1;123;0.0246;0.0255556;0.25;0.0255556;167.683
T2;3600;3600;0.1;1;26;0.0052;0.00638889;0.25;0.0255556;150.923
T1;3600;3600;0.1;1;149;0.0298;0.0333333;0.25;0.0333333;172.738
T2;3600;3600;0.1;1;44;0.0088;0.00833333;0.25;0.0333333;150.955
T1;3600;3600;0.1;1;214;0.0428;0.0411111;0.25;0.0411111;192.234
T2;3600;3600;0.1;1;49;0.0098;0.0102778;0.25;0.0411111;150.714
T1;3600;3600;0.1;1;232;0.0464;0.0488889;0.25;0.0488889;225.422
T2;3600;3600;0.1;1;66;0.0132;0.0122222;0.25;0.0488889;150.303
T1;3600;3600;0.1;1;274;0.0548;0.0566667;0.25;0.0566667;249.591
T2;3600;3600;0.1;1;69;0.0138;0.0141667;0.25;0.0566667;150.203
T1;3600;3600;0.1;1;293;0.0586;0.0644444;0.25;0.0644444;282.345
T2;3600;3600;0.1;1;78;0.0156;0.0161111;0.25;0.0644444;150.359
T1;3600;3600;0.1;1;306;0.0612;0.0722222;0.25;0.0722222;296.232
T2;3600;3600;0.1;1;79;0.0158;0.0180556;0.25;0.0722222;150.278
T1;3600;3600;0.1;1;318;0.0636;0.08;0.25;0.08;385.632
T2;3600;3600;0.1;1;106;0.0212;0.02;0.25;0.08;150.368
T1;3600;3600;0.1;1;61;0.0122;0.01;0.5;0.01;164.311
T2;3600;3600;0.1;1;14;0.0028;0.005;0.5;0.01;151.429
T1;3600;3600;0.1;1;95;0.019;0.0177778;0.5;0.0177778;165.032
T2;3600;3600;0.1;1;45;0.009;0.00888889;0.5;0.0177778;150.733
T1;3600;3600;0.1;1;132;0.0264;0.0255556;0.5;0.0255556;171.015
T2;3600;3600;0.1;1;59;0.0118;0.0127778;0.5;0.0255556;150.373
T1;3600;3600;0.1;1;169;0.0338;0.0333333;0.5;0.0333333;176.976
T2;3600;3600;0.1;1;68;0.0136;0.0166667;0.5;0.0333333;150.794
T1;3600;3600;0.1;1;186;0.0372;0.0411111;0.5;0.0411111;182.231
T2;3600;3600;0.1;1;113;0.0226;0.0205556;0.5;0.0411111;150.726
T1;3600;3600;0.1;1;279;0.0558;0.0488889;0.5;0.0488889;259.57
T2;3600;3600;0.1;1;109;0.0218;0.0244444;0.5;0.0488889;150.486
T1;3600;3600;0.1;1;275;0.055;0.0566667;0.5;0.0566667;254.436
T2;3600;3600;0.1;1;134;0.0268;0.0283333;0.5;0.0566667;150.306
T1;3600;3600;0.1;1;294;0.0588;0.0644444;0.5;0.0644444;272.143
T2;3600;3600;0.1;1;136;0.0272;0.0322222;0.5;0.0644444;150.441
T1;3600;3600;0.1;1;303;0.0606;0.0722222;0.5;0.0722222;299.498
T2;3600;3600;0.1;1;173;0.0346;0.0361111;0.5;0.0722222;150.387
T1;3600;3600;0.1;1;334;0.0668;0.08;0.5;0.08;371.305
T2;3600;3600;0.1;1;229;0.0458;0.04;0.5;0.08;150.345
