T1;360;3600;0.1;0.1;219;0.0438
T2;360;3600;0.1;0.1;197;0.0394
T1;900;3600;0.1;0.25;459;0.0918
T2;900;3600;0.1;0.25;562;0.1124
T1;1800;3600;0.1;0.5;400;0.08
T2;1800;3600;0.1;0.5;1192;0.2384
T1;2700;3600;0.1;0.75;411;0.0822
T2;2700;3600;0.1;0.75;1798;0.3596
T1;3600;3600;0.1;1;433;0.0866
T2;3600;3600;0.1;1;2186;0.4372
T1;4500;3600;0.1;1.25;430;0.086
T2;4500;3600;0.1;1.25;2798;0.5596
T1;5400;3600;0.1;1.5;480;0.096
T2;5400;3600;0.1;1.5;3446;0.6892
T1;6300;3600;0.1;1.75;453;0.0906
T2;6300;3600;0.1;1.75;3735;0.747
T1;7200;3600;0.1;2;435;0.087
T2;7200;3600;0.1;2;3898;0.7796
T1;9000;3600;0.1;2.5;436;0.0872
T2;9000;3600;0.1;2.5;3932;0.7864
T1;10800;3600;0.1;3;466;0.0932
T2;10800;3600;0.1;3;3881;0.7762
T1;12600;3600;0.1;3.5;408;0.0816
T2;12600;3600;0.1;3.5;3965;0.793
T1;14400;3600;0.1;4;450;0.09
T2;14400;3600;0.1;4;3944;0.7888
T1;16200;3600;0.1;4.5;422;0.0844
T2;16200;3600;0.1;4.5;3917;0.7834
T1;18000;3600;0.1;5;431;0.0862
T2;18000;3600;0.1;5;3955;0.791
T1;360;3600;0.25;0.1;254;0.0508
T2;360;3600;0.25;0.1;181;0.0362
T1;900;3600;0.25;0.25;487;0.0974
T2;900;3600;0.25;0.25;594;0.1188
T1;1800;3600;0.25;0.5;1076;0.2152
T2;1800;3600;0.25;0.5;1081;0.2162
T1;2700;3600;0.25;0.75;1139;0.2278
T2;2700;3600;0.25;0.75;1689;0.3378
T1;3600;3600;0.25;1;1108;0.2216
T2;3600;3600;0.25;1;2154;0.4308
T1;4500;3600;0.25;1.25;1090;0.218
T2;4500;3600;0.25;1.25;2469;0.4938
T1;5400;3600;0.25;1.5;1057;0.2114
T2;5400;3600;0.25;1.5;3329;0.6658
T1;6300;3600;0.25;1.75;1080;0.216
T2;6300;3600;0.25;1.75;3263;0.6526
T1;7200;3600;0.25;2;1068;0.2136
T2;7200;3600;0.25;2;3296;0.6592
T1;9000;3600;0.25;2.5;1098;0.2196
T2;9000;3600;0.25;2.5;3269;0.6538
T1;10800;3600;0.25;3;1075;0.215
T2;10800;3600;0.25;3;3273;0.6546
T1;12600;3600;0.25;3.5;1122;0.2244
T2;12600;3600;0.25;3.5;3252;0.6504
T1;14400;3600;0.25;4;1133;0.2266
T2;14400;3600;0.25;4;3263;0.6526
T1;16200;3600;0.25;4.5;1103;0.2206
T2;16200;3600;0.25;4.5;3236;0.6472
T1;18000;3600;0.25;5;1102;0.2204
T2;18000;3600;0.25;5;3288;0.6576
T1;360;3600;0.5;0.1;247;0.0494
T2;360;3600;0.5;0.1;188;0.0376
T1;900;3600;0.5;0.25;494;0.0988
T2;900;3600;0.5;0.25;587;0.1174
T1;1800;3600;0.5;0.5;1076;0.2152
T2;1800;3600;0.5;0.5;1099;0.2198
T1;2700;3600;0.5;0.75;1676;0.3352
T2;2700;3600;0.5;0.75;1612;0.3224
T1;3600;3600;0.5;1;2154;0.4308
T2;3600;3600;0.5;1;1990;0.398
T1;4500;3600;0.5;1.25;2155;0.431
T2;4500;3600;0.5;1.25;2228;0.4456
T1;5400;3600;0.5;1.5;2121;0.4242
T2;5400;3600;0.5;1.5;2267;0.4534
T1;6300;3600;0.5;1.75;2224;0.4448
T2;6300;3600;0.5;1.75;2163;0.4326
T1;7200;3600;0.5;2;2194;0.4388
T2;7200;3600;0.5;2;2170;0.434
T1;9000;3600;0.5;2.5;2135;0.427
T2;9000;3600;0.5;2.5;2232;0.4464
T1;10800;3600;0.5;3;2145;0.429
T2;10800;3600;0.5;3;2202;0.4404
T1;12600;3600;0.5;3.5;2220;0.444
T2;12600;3600;0.5;3.5;2152;0.4304
T1;14400;3600;0.5;4;2185;0.437
T2;14400;3600;0.5;4;2210;0.442
T1;16200;3600;0.5;4.5;2214;0.4428
T2;16200;3600;0.5;4.5;2126;0.4252
T1;18000;3600;0.5;5;2201;0.4402
T2;18000;3600;0.5;5;2190;0.438
