T1;360;3600;0.1;0.1;145;0.029
T2;360;3600;0.1;0.1;289;0.0578
T1;900;3600;0.1;0.25;282;0.0564
T2;900;3600;0.1;0.25;799;0.1598
T1;1800;3600;0.1;0.5;310;0.062
T2;1800;3600;0.1;0.5;1861;0.3722
T1;2700;3600;0.1;0.75;339;0.0678
T2;2700;3600;0.1;0.75;2948;0.5896
T1;3600;3600;0.1;1;423;0.0846
T2;3600;3600;0.1;1;3886;0.7772
T1;4500;3600;0.1;1.25;430;0.086
T2;4500;3600;0.1;1.25;3930;0.786
T1;5400;3600;0.1;1.5;480;0.096
T2;5400;3600;0.1;1.5;3898;0.7796
T1;6300;3600;0.1;1.75;453;0.0906
T2;6300;3600;0.1;1.75;3927;0.7854
T1;7200;3600;0.1;2;435;0.087
T2;7200;3600;0.1;2;3927;0.7854
T1;9000;3600;0.1;2.5;436;0.0872
T2;9000;3600;0.1;2.5;3931;0.7862
T1;10800;3600;0.1;3;466;0.0932
T2;10800;3600;0.1;3;3880;0.776
T1;12600;3600;0.1;3.5;408;0.0816
T2;12600;3600;0.1;3.5;3963;0.7926
T1;14400;3600;0.1;4;450;0.09
T2;14400;3600;0.1;4;3945;0.789
T1;16200;3600;0.1;4.5;422;0.0844
T2;16200;3600;0.1;4.5;3917;0.7834
T1;18000;3600;0.1;5;431;0.0862
T2;18000;3600;0.1;5;3959;0.7918
T1;360;3600;0.25;0.1;197;0.0394
T2;360;3600;0.25;0.1;239;0.0478
T1;900;3600;0.25;0.25;397;0.0794
T2;900;3600;0.25;0.25;684;0.1368
T1;1800;3600;0.25;0.5;631;0.1262
T2;1800;3600;0.25;0.5;1546;0.3092
T1;2700;3600;0.25;0.75;870;0.174
T2;2700;3600;0.25;0.75;2426;0.4852
T1;3600;3600;0.25;1;1064;0.2128
T2;3600;3600;0.25;1;3236;0.6472
T1;4500;3600;0.25;1.25;1089;0.2178
T2;4500;3600;0.25;1.25;3284;0.6568
T1;5400;3600;0.25;1.5;1057;0.2114
T2;5400;3600;0.25;1.5;3326;0.6652
T1;6300;3600;0.25;1.75;1080;0.216
T2;6300;3600;0.25;1.75;3305;0.661
T1;7200;3600;0.25;2;1068;0.2136
T2;7200;3600;0.25;2;3295;0.659
T1;9000;3600;0.25;2.5;1098;0.2196
T2;9000;3600;0.25;2.5;3267;0.6534
T1;10800;3600;0.25;3;1075;0.215
T2;10800;3600;0.25;3;3273;0.6546
T1;12600;3600;0.25;3.5;1122;0.2244
T2;12600;3600;0.25;3.5;3252;0.6504
T1;14400;3600;0.25;4;1133;0.2266
T2;14400;3600;0.25;4;3263;0.6526
T1;16200;3600;0.25;4.5;1103;0.2206
T2;16200;3600;0.25;4.5;3236;0.6472
T1;18000;3600;0.25;5;1102;0.2204
T2;18000;3600;0.25;5;3288;0.6576
T1;360;3600;0.5;0.1;217;0.0434
T2;360;3600;0.5;0.1;218;0.0436
T1;900;3600;0.5;0.25;544;0.1088
T2;900;3600;0.5;0.25;536;0.1072
T1;1800;3600;0.5;0.5;1096;0.2192
T2;1800;3600;0.5;0.5;1079;0.2158
T1;2700;3600;0.5;0.75;1646;0.3292
T2;2700;3600;0.5;0.75;1645;0.329
T1;3600;3600;0.5;1;2162;0.4324
T2;3600;3600;0.5;1;2136;0.4272
T1;4500;3600;0.5;1.25;2149;0.4298
T2;4500;3600;0.5;1.25;2211;0.4422
T1;5400;3600;0.5;1.5;2122;0.4244
T2;5400;3600;0.5;1.5;2267;0.4534
T1;6300;3600;0.5;1.75;2222;0.4444
T2;6300;3600;0.5;1.75;2162;0.4324
T1;7200;3600;0.5;2;2194;0.4388
T2;7200;3600;0.5;2;2171;0.4342
T1;9000;3600;0.5;2.5;2133;0.4266
T2;9000;3600;0.5;2.5;2232;0.4464
T1;10800;3600;0.5;3;2146;0.4292
T2;10800;3600;0.5;3;2202;0.4404
T1;12600;3600;0.5;3.5;2220;0.444
T2;12600;3600;0.5;3.5;2152;0.4304
T1;14400;3600;0.5;4;2185;0.437
T2;14400;3600;0.5;4;2211;0.4422
T1;16200;3600;0.5;4.5;2214;0.4428
T2;16200;3600;0.5;4.5;2125;0.425
T1;18000;3600;0.5;5;2201;0.4402
T2;18000;3600;0.5;5;2190;0.438
