step;d2;d3;d1
0;0;0;0
1;0;0;0
2;0;0;0
3;0;0;0
4;0;0;0
5;0;0;0
6;0;0;0
7;0;0;0
8;0;0;0
9;0;0;0
10;0;0;0
11;0;0;0
12;0;0;0
13;0;0;0
14;0;0;0
15;0;0;0
16;0;0;0
17;0;0;0
18;0;0;0
19;0;0;0
20;0;0;0
21;0;0;0
22;0;0;0
23;0;0;0
24;0;0;0
25;0;0;0
26;0;0;0
27;0;0;0
28;0;0;0
29;0;0;0
30;0;0;0
31;0;0;0
32;0;0;0
33;0;0;0
34;0;0;0
35;0;0;0
36;0;0;0
37;0;0;0
38;0;0;0
39;0;0;0
40;0;0;0
41;0;0;0
42;0;0;0
43;0;0;0
44;0;0;0
45;0;0;0
46;0;0;0
47;0;0;0
48;0;0;0
49;0;0;0
50;0;0;0
51;0;0;0
52;0;0;0
53;0;0;0
54;0;0;0
55;0;0;0
56;0;0;0
57;0;0;0
58;0;0;0
59;0;0;0
60;0;0;0
61;0;0;0
62;0;0;0
63;0;0;0
64;0;0;0
65;0;0;0
66;0;0;0
67;0;0;0
68;0;0;0
69;0;0;0
70;0;0;0
71;0;0;0
72;0;1;0
73;1;2;0
74;0;2;3
75;2;2;2
76;2;3;3
77;3;2;3
78;4;1;3
79;3;3;4
80;3;3;4
81;5;3;3
82;4;4;5
83;6;4;6
84;7;4;5
85;6;5;7
86;7;5;6
87;9;5;6
88;7;6;7
89;9;5;7
90;10;5;7
91;9;6;9
92;10;6;8
93;10;6;8
94;10;7;9
95;12;7;8
96;12;8;10
97;12;8;10
98;12;9;10
99;12;10;11
100;13;10;11
101;15;9;12
102;14;10;15
103;16;10;16
104;17;10;16
105;16;11;16
106;17;11;18
107;18;11;20
108;19;12;19
109;20;12;20
110;20;13;21
111;20;13;20
112;23;12;21
113;21;13;22
114;22;13;21
115;23;14;22
116;23;14;22
117;24;15;22
118;25;15;22
119;24;16;23
120;24;16;23
121;25;17;24
122;28;18;25
123;27;19;26
124;28;19;25
125;30;20;27
126;31;20;29
127;31;21;29
128;32;21;30
129;32;21;30
130;32;22;32
131;33;23;32
132;34;23;34
133;35;24;34
134;37;24;34
135;38;25;35
136;37;26;36
137;38;26;36
138;39;26;38
139;40;27;39
140;41;28;39
141;42;28;39
142;40;27;41
143;42;26;40
144;42;26;41
145;40;26;43
146;41;26;42
147;42;25;41
148;42;25;42
149;43;25;43
150;44;26;43
151;46;26;43
152;47;26;44
153;48;27;45
154;49;28;45
155;49;29;49
156;49;29;48
157;51;29;48
158;51;29;47
159;52;30;47
160;51;31;48
161;52;31;48
162;52;31;49
163;53;32;51
164;56;33;51
165;56;33;53
166;56;33;55
167;58;34;54
168;59;34;55
169;60;35;54
170;60;35;55
171;60;36;56
172;60;37;55
173;59;37;56
174;61;36;55
175;61;36;55
176;61;37;55
177;61;37;54
178;61;37;54
179;61;38;56
180;62;38;56
181;63;38;57
182;61;39;57
183;62;39;57
184;63;39;57
185;63;39;58
186;62;40;59
187;63;40;59
188;63;40;59
189;63;41;59
190;64;41;58
191;65;41;57
192;63;42;58
193;64;42;58
194;64;42;57
195;64;43;58
196;66;43;58
197;65;44;58
198;65;44;60
199;67;45;61
200;67;44;61
201;67;45;62
202;68;45;63
203;70;45;62
204;70;46;63
205;71;46;64
206;71;46;65
207;72;47;66
208;72;47;66
209;73;47;65
210;72;48;66
211;74;48;67
212;74;48;66
213;74;49;66
214;75;49;67
215;76;49;69
216;75;50;69
217;75;50;70
218;75;49;71
219;75;50;71
220;75;50;70
221;75;50;69
222;74;51;71
223;74;51;70
224;76;51;71
225;74;52;73
226;77;53;73
227;78;53;73
228;81;53;74
229;79;53;76
230;80;52;75
231;81;52;75
232;80;53;75
233;81;54;75
234;82;54;75
235;82;54;76
236;83;54;76
237;83;55;77
238;84;55;76
239;83;54;77
240;83;56;78
241;83;55;78
242;83;55;78
243;82;56;80
244;84;56;81
245;85;56;81
246;86;57;83
247;86;57;83
248;87;57;83
249;86;56;83
250;89;57;84
251;89;57;83
252;89;57;83
253;90;57;83
254;91;58;84
255;90;57;84
256;93;58;85
257;93;59;87
258;94;59;88
259;95;59;89
260;95;60;90
261;95;60;89
262;95;60;92
263;95;61;92
264;96;61;92
265;98;60;92
266;99;61;91
267;99;61;92
268;100;61;92
269;100;61;92
270;100;61;93
271;100;62;93
272;101;62;93
273;101;63;94
274;100;63;94
275;101;63;95
276;102;62;96
277;102;63;96
278;102;63;97
279;102;63;96
280;102;64;97
281;102;64;97
282;105;64;96
283;104;65;97
284;105;65;98
285;106;65;98
286;104;65;100
287;105;65;100
288;106;66;100
289;106;67;100
290;104;68;101
291;106;67;100
292;105;68;100
293;106;67;101
294;108;67;100
295;107;68;102
296;108;68;103
297;109;68;103
298;110;69;104
299;111;69;104
300;113;69;105
301;115;70;105
302;115;71;107
303;115;71;107
304;117;71;106
305;118;71;109
306;117;71;109
307;116;71;112
308;117;71;112
309;119;71;113
310;120;72;113
311;121;72;115
312;121;72;114
313;123;73;113
314;123;74;113
315;123;75;114
316;124;74;114
317;124;75;115
318;125;75;117
319;125;76;117
320;125;76;118
321;125;76;119
322;126;76;119
323;126;76;118
324;126;76;119
325;126;77;119
326;129;77;120
327;129;77;120
328;128;78;122
329;128;77;123
330;128;78;123
331;129;79;123
332;132;79;122
333;132;80;122
334;133;80;123
335;133;80;123
336;132;81;123
337;133;81;122
338;133;80;126
339;133;81;125
340;133;81;126
341;134;81;127
342;132;82;127
343;135;82;126
344;135;82;126
345;135;83;127
346;134;83;127
347;136;83;129
348;135;84;130
349;137;83;130
350;137;82;132
351;137;84;132
352;138;84;132
353;138;84;134
354;141;85;133
355;142;85;134
356;143;85;136
357;143;86;137
358;144;86;139
359;146;86;140
360;145;87;143
361;145;87;144
362;149;87;143
363;148;88;143
364;148;88;145
365;150;88;144
366;150;89;144
367;150;90;146
368;151;89;145
369;150;90;147
370;150;91;148
371;153;91;148
372;153;91;148
373;155;92;149
374;155;92;150
375;155;92;149
376;156;93;149
377;157;93;150
378;159;93;151
379;158;94;152
380;159;94;153
381;160;94;155
382;161;95;155
383;160;95;155
384;161;95;155
385;162;96;155
386;162;96;157
387;164;96;158
388;163;96;158
389;164;96;158
390;164;95;160
391;164;96;159
392;165;97;159
393;165;97;159
394;166;97;159
395;167;98;159
396;166;98;161
397;166;98;160
398;167;99;160
399;166;99;161
400;166;99;161
401;168;99;160
402;167;100;163
403;167;100;162
404;168;100;161
405;169;101;162
406;169;102;164
407;170;102;163
408;172;102;163
409;171;103;165
410;172;103;166
411;172;102;165
412;173;104;166
413;173;105;166
414;174;104;166
415;175;104;167
416;175;105;168
417;175;105;167
418;177;104;169
419;175;105;170
420;178;106;171
421;178;107;171
422;178;107;172
423;180;107;172
424;181;107;171
425;181;108;173
426;181;109;173
427;182;109;174
428;183;109;175
429;181;110;175
430;184;109;175
431;184;109;178
432;185;111;178
433;184;110;178
434;184;110;177
435;183;111;177
436;183;111;178
437;183;111;178
438;183;111;178
439;183;111;179
440;185;112;178
441;185;113;179
442;185;112;181
443;187;111;181
444;187;112;182
445;189;112;183
446;189;112;184
447;190;113;184
448;189;113;183
449;188;113;185
450;188;114;185
451;190;114;187
452;192;115;187
453;194;115;187
454;194;116;187
455;194;116;188
456;194;116;189
457;194;117;190
458;196;118;189
459;198;119;190
460;198;119;190
461;200;120;190
462;202;120;191
463;200;121;192
464;201;121;194
465;201;121;194
466;202;121;194
467;202;121;195
468;203;121;196
469;203;122;196
470;204;122;199
471;203;122;200
472;203;122;201
473;206;121;201
474;205;122;202
475;207;122;202
476;210;123;203
477;210;124;203
478;211;124;204
479;211;123;205
480;212;124;205
481;212;125;206
482;212;125;207
483;214;126;207
484;215;127;207
485;217;127;207
486;217;126;208
487;215;127;209
488;217;128;210
489;217;128;211
490;217;128;212
491;218;128;213
492;220;128;214
493;221;128;214
494;220;129;216
495;220;129;215
496;220;129;216
497;222;130;216
498;222;130;216
499;222;130;218
500;221;131;217
501;222;132;218
502;224;132;219
503;225;132;219
504;225;132;220
505;227;132;219
506;227;132;219
507;228;133;220
508;227;134;221
509;230;134;222
510;230;134;222
511;231;134;224
512;231;134;223
513;232;134;225
514;232;135;227
515;234;135;226
516;235;136;228
517;237;136;229
518;236;137;230
519;237;137;230
520;239;137;230
521;239;138;230
522;239;138;233
523;239;139;235
524;242;140;234
525;244;140;235
526;243;141;236
527;244;141;236
528;244;142;236
529;244;141;239
530;244;142;238
531;245;141;239
532;245;142;239
533;245;142;239
534;246;142;239
535;247;142;240
536;247;143;242
537;248;143;241
538;251;143;241
539;250;144;244
540;251;144;244
541;251;145;244
542;250;145;244
543;251;146;244
544;251;146;245
545;253;146;245
546;252;146;246
547;253;145;245
548;253;146;247
549;256;146;247
550;256;146;247
551;256;146;248
552;257;146;249
553;258;146;249
554;258;146;250
555;259;146;250
556;260;147;250
557;258;147;252
558;260;147;251
559;260;148;254
560;260;148;254
561;261;148;254
562;261;149;254
563;260;149;255
564;261;149;257
565;263;150;256
566;264;150;257
567;265;150;258
568;265;151;257
569;265;151;260
570;266;151;259
571;266;152;260
572;265;153;261
573;267;153;260
574;268;152;261
575;268;153;261
576;269;152;263
577;272;152;262
578;271;154;263
579;271;154;264
580;273;155;265
581;275;155;267
582;275;156;268
583;274;157;268
584;275;156;267
585;276;156;266
586;277;157;269
587;276;158;271
588;276;158;273
589;280;158;272
590;280;158;273
591;281;158;273
592;282;158;273
593;281;159;273
594;281;159;273
595;283;159;273
596;283;160;275
597;284;160;275
598;284;160;276
599;284;161;276
600;283;161;277
601;284;162;276
602;284;162;277
603;284;163;278
604;284;163;278
605;286;163;278
606;286;164;279
607;288;164;280
608;289;165;282
609;289;165;282
610;290;166;281
611;292;166;282
612;291;166;284
613;294;167;284
614;294;167;285
615;293;167;285
616;294;168;286
617;294;168;286
618;296;168;286
619;294;169;287
620;297;169;286
621;298;169;288
622;299;170;290
623;299;171;292
624;299;171;292
625;301;171;293
626;300;171;293
627;301;171;295
628;303;172;296
629;304;172;295
630;305;172;298
631;305;172;299
632;308;172;300
633;308;173;301
634;308;173;301
635;309;172;302
636;309;173;303
637;309;173;302
638;312;173;303
639;311;173;306
640;312;174;305
641;311;175;304
642;310;175;305
643;311;175;305
644;311;176;306
645;312;176;306
646;313;175;306
647;312;175;307
648;313;175;307
649;314;175;308
650;314;176;308
651;318;176;309
652;318;176;308
653;320;177;310
654;319;178;310
655;319;178;312
656;319;177;313
657;319;178;313
658;321;179;312
659;321;179;314
660;320;180;313
661;322;180;313
662;324;180;314
663;323;181;315
664;324;181;316
665;325;181;317
666;326;182;317
667;327;182;319
668;327;182;319
669;329;183;320
670;329;184;322
671;331;183;323
672;330;184;323
673;331;183;323
674;333;183;324
675;333;184;324
676;334;185;326
677;334;185;327
678;336;185;327
679;336;186;329
680;337;186;329
681;338;186;329
682;336;186;331
683;337;186;332
684;340;186;331
685;340;187;332
686;342;187;334
687;343;187;333
688;343;188;334
689;341;189;335
690;342;188;336
691;343;188;335
692;345;189;339
693;345;190;338
694;346;191;339
695;346;192;340
696;349;192;340
697;350;192;339
698;349;193;339
699;350;193;339
700;351;193;341
701;349;194;344
702;352;194;344
703;352;194;344
704;350;195;345
705;352;195;344
706;353;195;345
707;353;195;348
708;354;195;347
709;353;195;348
710;353;196;347
711;354;196;347
712;354;196;348
713;354;196;347
714;354;196;347
715;355;196;348
716;355;197;347
717;356;196;346
718;358;196;348
719;358;196;348
720;358;196;348
721;358;197;352
722;358;197;351
723;359;198;350
724;359;199;353
725;359;200;352
726;362;200;352
727;361;200;353
728;361;201;352
729;361;201;354
730;362;201;354
731;362;202;353
732;364;202;354
733;363;202;356
734;365;202;355
735;366;203;356
736;365;202;356
737;367;203;358
738;367;203;360
739;368;203;360
740;369;203;362
741;370;204;361
742;373;203;362
743;374;203;362
744;374;204;363
745;373;204;366
746;375;203;366
747;375;204;365
748;377;205;366
749;378;205;366
750;379;205;368
751;379;205;369
752;380;205;369
753;381;205;370
754;381;206;372
755;383;206;372
756;384;207;371
757;382;208;373
758;385;208;373
759;387;208;372
760;386;209;374
761;386;210;373
762;386;210;375
763;386;210;376
764;387;211;376
765;388;211;377
766;389;211;377
767;389;212;378
768;391;212;378
769;392;212;378
770;390;213;380
771;391;213;379
772;393;214;380
773;393;213;381
774;393;214;381
775;394;214;382
776;394;214;384
777;396;214;385
778;396;214;385
779;398;214;387
780;398;215;387
781;400;215;387
782;400;215;388
783;401;216;389
784;402;216;389
785;401;216;390
786;401;217;389
787;402;216;389
788;403;215;392
789;403;215;392
790;406;216;393
791;406;216;393
792;406;217;393
793;407;217;394
794;406;217;395
795;406;218;397
796;407;218;397
797;406;218;398
798;406;219;398
799;408;219;397
800;408;219;399
801;409;220;398
802;410;220;399
803;410;220;399
804;410;221;399
805;412;221;398
806;411;221;400
807;412;222;400
808;413;222;400
809;412;222;401
810;413;223;400
811;413;223;402
812;413;223;402
813;414;224;402
814;413;224;402
815;414;224;402
816;413;225;402
817;413;225;404
818;414;224;404
819;415;225;404
820;415;224;403
821;415;224;404
822;414;225;407
823;414;225;408
824;416;225;407
825;415;226;407
826;417;226;406
827;420;226;408
828;419;227;410
829;420;227;411
830;421;227;411
831;421;228;412
832;422;229;412
833;424;229;411
834;425;229;412
835;425;230;412
836;426;230;412
837;425;230;412
838;425;231;412
839;426;231;413
840;426;231;414
841;426;232;414
842;425;233;413
843;427;233;416
844;428;233;416
845;428;234;416
846;428;234;416
847;429;234;417
848;429;235;417
849;428;236;417
850;428;236;419
851;430;236;418
852;429;237;419
853;430;237;420
854;432;237;419
855;432;238;419
856;431;239;420
857;433;238;420
858;436;238;422
859;435;239;422
860;436;240;422
861;435;241;422
862;435;241;422
863;436;241;422
864;435;242;421
865;435;242;422
866;436;242;422
867;435;243;423
868;435;243;425
869;435;243;425
870;434;244;424
871;435;245;426
872;435;245;427
873;437;245;428
874;437;245;428
875;438;244;428
876;438;244;429
877;439;245;429
878;440;245;429
879;441;245;429
880;440;246;429
881;441;246;428
882;441;246;429
883;440;247;428
884;441;247;428
885;440;246;430
886;441;247;429
887;442;248;429
888;442;248;432
889;444;248;432
890;444;249;432
891;447;249;434
892;447;249;434
893;447;250;435
894;447;251;437
895;449;251;437
896;450;251;438
897;451;252;440
898;452;252;442
899;452;252;443
900;451;253;444
901;455;252;444
902;457;253;443
903;456;253;443
904;456;254;442
905;457;254;445
906;456;254;445
907;455;255;444
908;456;255;445
909;455;255;446
910;456;256;445
911;455;257;447
912;457;257;447
913;458;257;447
914;458;257;449
915;460;257;449
916;459;256;451
917;461;257;451
918;462;258;450
919;461;258;454
920;462;258;453
921;463;258;454
922;462;258;454
923;461;259;453
924;461;259;452
925;460;259;453
926;461;260;454
927;463;260;453
928;463;260;454
929;463;260;453
930;463;260;452
931;464;260;454
932;465;261;454
933;465;261;453
934;465;261;454
935;465;262;453
936;467;262;453
937;467;262;454
938;466;263;453
939;467;264;455
940;466;264;456
941;468;264;457
942;467;264;456
943;466;264;457
944;467;264;457
945;466;265;456
946;466;264;459
947;468;264;458
948;468;265;458
949;467;265;460
950;470;265;459
951;470;266;461
952;471;266;460
953;470;266;462
954;473;267;461
955;474;268;462
956;478;268;462
957;477;269;463
958;479;269;463
959;479;270;464
960;479;270;468
961;480;270;467
962;481;270;466
963;480;270;466
964;483;270;466
965;484;270;465
966;482;270;469
967;484;271;471
968;484;271;473
969;484;271;474
970;486;271;474
971;486;272;473
972;485;272;474
973;486;272;473
974;487;273;474
975;487;273;474
976;490;273;473
977;489;274;476
978;489;274;477
979;490;274;477
980;488;275;478
981;490;275;478
982;490;275;477
983;489;276;478
984;490;276;477
985;491;277;477
986;490;277;478
987;490;278;479
988;492;278;479
989;493;277;480
990;493;278;482
991;494;278;482
992;494;278;482
993;493;279;482
994;494;278;482
995;494;278;483
996;496;280;482
997;496;280;483
998;496;280;484
999;496;281;485
1000;496;282;486
1001;499;283;488
1002;499;283;488
1003;499;283;490
1004;500;284;489
1005;500;284;490
1006;499;284;491
1007;499;285;492
1008;501;284;491
1009;502;284;491
1010;504;285;491
1011;505;285;494
1012;506;284;495
1013;506;285;496
1014;507;284;498
1015;509;284;499
1016;508;286;499
1017;508;287;501
1018;509;287;500
1019;510;287;500
1020;509;288;500
1021;509;288;500
1022;509;288;499
1023;509;288;499
1024;510;288;500
1025;511;287;500
1026;510;288;500
1027;512;288;500
1028;513;288;499
1029;514;289;500
1030;513;289;501
1031;515;289;501
1032;516;290;503
1033;515;290;505
1034;516;290;505
1035;515;291;505
1036;514;290;505
1037;516;290;508
1038;517;291;508
1039;517;291;508
1040;517;291;508
1041;519;292;507
1042;519;292;507
1043;520;292;508
1044;519;293;510
1045;519;293;511
1046;520;293;512
1047;521;294;512
1048;521;294;512
1049;522;294;512
1050;524;295;511
1051;523;295;511
1052;524;296;513
1053;524;296;514
1054;526;296;514
1055;524;297;516
1056;525;297;517
1057;527;296;516
1058;526;298;517
1059;527;299;517
1060;528;298;517
1061;526;299;518
1062;528;298;518
1063;530;299;520
1064;530;298;521
1065;529;298;521
1066;529;299;521
1067;533;299;522
1068;533;299;522
1069;534;300;524
1070;535;300;523
1071;536;300;524
1072;538;301;525
1073;539;301;526
1074;539;301;528
1075;541;302;527
1076;539;302;529
1077;539;302;530
1078;541;301;529
1079;540;302;529
1080;542;302;529
1081;543;301;529
1082;543;302;530
1083;544;302;530
1084;545;301;532
1085;545;302;532
1086;544;302;534
1087;544;303;534
1088;547;303;533
1089;546;302;535
1090;547;302;536
1091;548;303;535
1092;548;304;537
1093;547;304;538
1094;547;303;538
1095;549;303;538
1096;550;303;540
1097;550;304;540
1098;550;304;541
1099;551;305;540
1100;553;304;541
1101;553;305;542
1102;554;305;543
1103;554;305;544
1104;554;305;544
1105;554;305;544
1106;554;305;544
1107;554;305;543
1108;554;305;546
1109;555;305;545
1110;557;306;545
1111;557;306;545
1112;558;307;546
1113;559;306;545
1114;558;308;547
1115;558;308;547
1116;559;308;547
1117;559;309;547
1118;560;309;549
1119;561;309;549
1120;560;310;550
1121;562;309;551
1122;562;309;550
1123;561;310;549
1124;560;311;550
1125;561;310;550
1126;562;310;551
1127;563;312;551
1128;564;312;551
1129;565;312;550
1130;563;313;551
1131;564;313;550
1132;564;313;551
1133;564;314;551
1134;564;314;551
1135;564;315;552
1136;564;315;554
1137;566;315;553
1138;566;315;555
1139;566;316;555
1140;567;316;555
1141;567;316;555
1142;567;317;555
1143;568;318;556
1144;569;318;556
1145;569;318;558
1146;569;319;558
1147;569;319;558
1148;570;319;561
1149;571;320;561
1150;572;320;560
1151;573;320;559
1152;573;321;561
1153;573;321;562
1154;573;321;562
1155;572;322;564
1156;573;322;565
1157;576;322;565
1158;576;323;566
1159;576;324;568
1160;579;324;568
1161;579;324;570
1162;579;325;571
1163;580;325;570
1164;582;325;572
1165;580;326;573
1166;581;327;573
1167;583;327;572
1168;584;327;572
1169;584;328;572
1170;585;328;572
1171;586;328;574
1172;587;329;575
1173;587;329;575
1174;588;329;576
1175;589;329;576
1176;588;330;577
1177;590;330;579
1178;591;330;579
1179;592;331;580
1180;593;331;580
1181;595;331;580
1182;594;332;581
1183;596;332;581
1184;597;332;583
1185;597;332;583
1186;598;333;583
1187;598;333;582
1188;598;333;583
1189;597;334;584
1190;597;335;587
1191;598;335;589
1192;600;335;589
1193;599;336;591
1194;600;337;590
1195;601;337;591
1196;603;337;590
1197;602;338;593
1198;604;337;592
1199;605;337;591
1200;604;338;594
1201;604;338;594
1202;606;338;595
1203;604;338;595
1204;606;338;595
1205;607;338;596
1206;609;339;595
1207;608;339;595
1208;609;339;596
1209;608;339;597
1210;609;339;598
1211;609;339;598
1212;609;340;597
1213;612;340;598
1214;612;339;598
1215;611;340;598
1216;611;341;600
1217;612;341;600
1218;612;341;600
1219;612;342;601
1220;612;343;600
1221;613;342;601
1222;614;342;600
1223;613;343;601
1224;612;344;602
1225;614;344;601
1226;615;343;602
1227;614;344;602
1228;616;344;604
1229;616;345;604
1230;617;346;604
1231;618;346;605
1232;619;346;606
1233;619;347;606
1234;620;347;608
1235;622;347;607
1236;621;348;609
1237;623;349;610
1238;623;349;609
1239;625;348;611
1240;624;350;612
1241;626;349;612
1242;627;349;612
1243;627;350;613
1244;626;351;614
1245;627;351;617
1246;628;351;618
1247;631;352;618
1248;632;353;618
1249;633;353;619
1250;633;353;620
1251;632;354;619
1252;633;354;620
1253;634;354;619
1254;633;355;620
1255;633;355;622
1256;633;354;622
1257;636;355;622
1258;634;356;623
1259;636;356;625
1260;638;356;626
1261;639;356;626
1262;638;357;626
1263;638;358;626
1264;639;357;626
1265;640;357;628
1266;640;358;627
1267;642;357;627
1268;642;357;627
1269;643;358;628
1270;643;358;628
1271;644;358;631
1272;643;359;632
1273;645;358;631
1274;646;359;630
1275;645;360;630
1276;646;360;632
1277;646;360;632
1278;646;361;632
1279;648;360;632
1280;648;360;634
1281;647;361;634
1282;648;362;635
1283;648;361;636
1284;649;362;637
1285;648;363;637
1286;648;363;636
1287;649;363;636
1288;649;364;636
1289;649;364;637
1290;651;363;637
1291;650;363;638
1292;652;363;638
1293;652;363;640
1294;652;364;640
1295;653;364;640
1296;653;364;640
1297;655;364;641
1298;654;365;640
1299;654;365;642
1300;655;365;641
1301;656;366;642
1302;655;366;644
1303;656;366;644
1304;658;367;643
1305;659;367;643
1306;658;367;645
1307;660;368;645
1308;661;367;644
1309;662;367;645
1310;660;368;646
1311;661;367;646
1312;661;367;645
1313;660;368;645
1314;660;368;647
1315;661;369;646
1316;661;368;648
1317;661;369;647
1318;663;369;647
1319;662;369;650
1320;662;370;650
1321;663;370;650
1322;664;370;651
1323;664;370;652
1324;665;371;652
1325;665;371;653
1326;669;370;653
1327;669;370;653
1328;668;370;654
1329;669;370;654
1330;668;371;656
1331;669;371;658
1332;669;371;659
1333;670;372;659
1334;673;372;661
1335;674;372;662
1336;675;373;662
1337;677;373;661
1338;676;373;664
1339;678;374;664
1340;679;374;666
1341;679;374;667
1342;678;374;667
1343;680;375;667
1344;681;375;669
1345;681;376;670
1346;682;376;671
1347;683;376;672
1348;681;377;673
1349;682;377;672
1350;685;377;672
1351;686;378;675
1352;684;379;675
1353;686;379;675
1354;687;379;674
1355;685;380;675
1356;686;380;675
1357;686;380;674
1358;685;381;675
1359;687;381;674
1360;687;381;675
1361;687;382;677
1362;688;382;676
1363;689;382;676
1364;688;383;677
1365;689;384;679
1366;691;384;678
1367;692;384;680
1368;692;384;679
1369;692;384;678
1370;692;385;680
1371;692;385;680
1372;692;386;680
1373;692;386;679
1374;693;385;680
1375;693;386;681
1376;693;386;680
1377;694;386;680
1378;692;387;681
1379;693;387;681
1380;693;387;681
1381;693;388;682
1382;693;388;681
1383;694;388;681
1384;693;389;681
1385;694;389;680
1386;696;389;681
1387;694;390;682
1388;696;390;682
1389;697;390;681
1390;695;391;682
1391;696;391;683
1392;696;391;682
1393;695;392;683
1394;695;392;682
1395;695;392;682
1396;696;393;681
1397;697;394;681
1398;697;395;680
1399;698;395;680
1400;699;394;682
1401;700;395;683
1402;699;395;685
1403;700;395;686
1404;701;396;686
1405;702;396;688
1406;702;397;688
1407;706;397;687
1408;705;398;689
1409;705;398;689
1410;706;398;689
1411;706;399;690
1412;707;400;692
1413;708;400;692
1414;708;400;693
1415;709;401;693
1416;710;401;694
1417;709;401;695
1418;711;402;697
1419;711;402;696
1420;712;401;697
1421;710;401;697
1422;712;402;696
1423;712;402;695
1424;712;403;695
1425;712;403;695
1426;712;405;696
1427;713;405;698
1428;712;406;698
1429;713;406;700
1430;713;406;699
1431;716;407;701
1432;714;407;702
1433;714;407;703
1434;714;407;703
1435;716;408;704
1436;716;409;706
1437;718;409;706
1438;718;408;707
1439;718;409;706
1440;720;409;705
1441;721;409;705
1442;722;410;705
1443;722;410;709
1444;723;409;708
1445;724;410;709
1446;723;411;710
1447;726;411;710
1448;726;411;711
1449;727;412;710
1450;728;412;711
1451;727;412;713
1452;727;413;713
1453;729;413;713
1454;728;412;714
1455;728;413;715
1456;729;414;716
1457;729;414;716
1458;729;414;715
1459;729;415;715
1460;730;415;718
1461;730;415;718
1462;732;416;717
1463;731;417;717
1464;732;417;718
1465;733;417;719
1466;731;418;720
1467;732;417;722
1468;736;417;722
1469;736;418;721
1470;736;418;723
1471;739;418;722
1472;738;419;725
1473;740;419;726
1474;740;419;727
1475;739;420;728
1476;740;420;728
1477;742;420;727
1478;742;420;729
1479;744;421;731
1480;744;421;731
1481;744;422;732
1482;746;422;731
1483;747;422;731
1484;745;423;731
1485;747;423;731
1486;748;423;733
1487;746;424;734
1488;748;425;733
1489;748;424;733
1490;748;424;734
1491;747;425;735
1492;748;425;735
1493;750;425;736
1494;750;426;737
1495;751;426;737
1496;751;426;737
1497;750;427;738
1498;752;427;737
1499;752;427;738
1500;751;428;738
1501;751;428;740
1502;752;428;739
1503;753;428;741
1504;754;428;740
1505;755;428;742
1506;755;429;742
1507;755;430;744
1508;755;430;743
1509;757;429;744
1510;758;430;743
1511;759;429;743
1512;761;429;743
1513;759;430;745
1514;760;431;744
1515;760;431;743
1516;761;431;744
1517;761;431;745
1518;762;432;745
1519;763;433;746
1520;763;433;747
1521;764;433;746
1522;764;433;747
1523;765;433;748
1524;765;433;749
1525;766;434;750
1526;766;435;751
1527;766;435;751
1528;766;435;753
1529;766;436;752
1530;767;436;754
1531;767;436;754
1532;770;437;756
1533;771;437;756
1534;773;437;756
1535;772;438;757
1536;772;438;759
1537;772;438;760
1538;771;439;761
1539;772;438;762
1540;772;438;761
1541;773;439;762
1542;773;439;761
1543;773;440;763
1544;774;439;763
1545;775;440;762
1546;775;440;762
1547;776;440;763
1548;777;441;763
1549;778;442;762
1550;777;443;764
1551;778;443;764
1552;779;443;763
1553;779;443;764
1554;780;442;763
1555;781;442;764
1556;779;443;765
1557;779;443;765
1558;782;444;765
1559;781;444;767
1560;782;445;767
1561;784;444;768
1562;783;444;769
1563;783;444;768
1564;785;445;770
1565;784;445;770
1566;785;445;772
1567;786;446;771
1568;787;446;772
1569;788;446;771
1570;787;447;771
1571;787;448;771
1572;787;447;772
1573;789;448;771
1574;788;448;772
1575;789;448;773
1576;790;450;774
1577;791;450;774
1578;792;450;773
1579;794;451;773
1580;792;452;773
1581;793;452;773
1582;794;452;773
1583;793;453;773
1584;792;452;774
1585;792;452;774
1586;792;453;776
1587;791;453;776
1588;792;454;776
1589;793;454;776
1590;793;455;777
1591;792;456;777
1592;792;455;778
1593;793;455;781
1594;793;456;780
1595;795;456;779
1596;795;456;780
1597;797;456;780
1598;799;456;780
1599;800;456;780
1600;800;457;781
1601;800;458;781
1602;799;459;783
1603;799;459;783
1604;800;459;783
1605;799;460;783
1606;801;460;782
1607;803;460;782
1608;801;461;784
1609;803;461;784
1610;806;461;783
1611;804;462;785
1612;805;461;784
1613;805;460;785
1614;805;462;788
1615;806;461;788
1616;809;461;788
1617;809;462;788
1618;809;462;789
1619;809;463;789
1620;809;464;788
1621;808;464;790
1622;810;465;789
1623;809;466;788
1624;809;466;788
1625;809;466;787
1626;809;467;790
1627;810;467;791
1628;810;467;791
1629;811;468;791
1630;811;468;790
1631;811;468;792
1632;812;468;792
1633;814;469;792
1634;814;470;794
1635;814;470;794
1636;814;470;793
1637;815;471;792
1638;814;471;793
1639;815;470;795
1640;816;471;794
1641;816;471;796
1642;817;472;796
1643;819;471;798
1644;818;472;799
1645;819;473;798
1646;819;473;797
1647;818;473;799
1648;818;474;799
1649;821;474;799
1650;821;474;800
1651;822;475;799
1652;824;475;799
1653;823;475;802
1654;823;476;803
1655;825;476;804
1656;826;476;806
1657;825;476;806
1658;827;476;806
1659;828;476;807
1660;827;477;808
1661;830;477;807
1662;829;476;809
1663;830;477;811
1664;830;477;810
1665;830;477;811
1666;831;478;810
1667;830;478;810
1668;830;478;811
1669;832;478;813
1670;832;479;813
1671;832;479;813
1672;834;479;814
1673;833;480;815
1674;836;480;816
1675;836;479;816
1676;835;480;816
1677;835;480;816
1678;835;481;815
1679;836;481;815
1680;835;481;816
1681;837;482;816
1682;837;482;817
1683;836;482;818
1684;837;483;817
1685;837;483;817
1686;836;483;818
1687;837;484;818
1688;838;485;818
1689;838;485;819
1690;838;485;820
1691;838;485;819
1692;839;486;819
1693;839;486;822
1694;841;487;822
1695;842;487;822
1696;842;487;822
1697;845;488;822
1698;844;489;821
1699;843;489;821
1700;844;489;821
1701;843;490;821
1702;843;489;824
1703;844;488;823
1704;846;489;822
1705;844;490;823
1706;845;490;824
1707;846;490;823
1708;845;491;824
1709;848;491;826
1710;848;491;825
1711;846;492;828
1712;847;492;827
1713;848;492;828
1714;847;492;828
1715;847;493;828
1716;849;493;828
1717;850;493;828
1718;849;494;831
1719;850;494;830
1720;851;494;830
1721;850;495;831
1722;850;494;832
1723;851;494;833
1724;853;495;832
1725;852;496;832
1726;853;496;833
1727;854;496;832
1728;855;497;832
1729;855;498;832
1730;855;498;831
1731;856;498;830
1732;854;498;832
1733;855;498;832
1734;856;498;832
1735;856;499;834
1736;856;499;833
1737;860;498;833
1738;858;499;834
1739;859;499;835
1740;859;499;834
1741;858;500;835
1742;859;500;835
1743;859;499;836
1744;861;499;837
1745;861;501;838
1746;861;501;840
1747;861;501;840
1748;864;502;839
1749;863;502;840
1750;864;502;842
1751;863;503;842
1752;863;503;842
1753;863;503;845
1754;862;504;844
1755;864;504;844
1756;864;504;844
1757;864;505;845
1758;867;505;846
1759;868;505;848
1760;868;506;848
1761;868;506;849
1762;871;506;848
1763;870;507;850
1764;870;508;851
1765;871;507;850
1766;870;508;851
1767;870;508;852
1768;870;508;853
1769;870;509;854
1770;873;509;853
1771;874;508;854
1772;873;510;855
1773;874;510;856
1774;876;510;857
1775;879;511;856
1776;880;511;855
1777;880;511;858
1778;880;511;858
1779;880;511;858
1780;881;512;860
1781;880;513;860
1782;882;513;859
1783;881;513;860
1784;882;514;860
1785;881;514;861
1786;883;514;861
1787;883;514;861
1788;883;515;863
1789;883;515;862
1790;884;515;864
1791;884;516;864
1792;884;516;866
1793;884;516;867
1794;886;517;867
1795;886;517;867
1796;884;518;868
1797;887;519;869
1798;887;519;868
1799;888;520;869
1800;888;520;869
1801;890;521;868
1802;890;520;869
1803;889;521;868
1804;891;522;869
1805;890;522;869
1806;890;523;870
1807;890;523;869
1808;889;523;869
1809;890;524;869
1810;891;524;870
1811;890;524;870
1812;890;525;872
1813;891;525;873
1814;892;525;873
1815;892;526;873
1816;893;526;872
1817;895;526;873
1818;895;527;875
1819;896;527;875
1820;896;527;877
1821;899;528;878
1822;898;529;879
1823;900;530;880
1824;900;529;881
1825;902;530;881
1826;903;530;880
1827;904;530;881
1828;903;531;881
1829;904;531;882
1830;904;531;883
1831;903;532;883
1832;905;531;885
1833;906;530;884
1834;906;531;885
1835;906;530;887
1836;907;531;887
1837;907;532;888
1838;908;533;888
1839;909;533;888
1840;909;533;888
1841;910;533;890
1842;911;534;890
1843;912;534;890
1844;911;534;891
1845;913;534;891
1846;915;534;892
1847;914;534;892
1848;917;535;893
1849;918;535;893
1850;918;535;894
1851;919;535;896
1852;918;536;895
1853;919;535;895
1854;918;535;897
1855;917;536;897
1856;918;536;896
1857;918;536;898
1858;918;537;898
1859;922;537;899
1860;922;536;899
1861;921;536;901
1862;922;537;901
1863;923;537;901
1864;923;537;903
1865;923;537;902
1866;923;537;904
1867;923;537;904
1868;924;537;905
1869;924;539;905
1870;924;539;904
1871;926;540;903
1872;926;540;906
1873;927;540;907
1874;929;541;907
1875;929;541;907
1876;931;541;909
1877;930;542;908
1878;931;542;908
1879;931;542;909
1880;932;543;908
1881;932;544;909
1882;931;545;910
1883;933;545;909
1884;933;545;910
1885;933;545;911
1886;935;545;910
1887;936;545;913
1888;934;546;913
1889;934;546;913
1890;936;546;914
1891;934;547;915
1892;934;547;914
1893;935;547;913
1894;934;548;913
1895;934;548;913
1896;936;548;912
1897;935;549;911
1898;935;549;913
1899;936;550;914
1900;936;550;915
1901;937;549;917
1902;938;548;917
1903;937;549;917
1904;936;549;918
1905;936;549;917
1906;938;550;916
1907;938;550;917
1908;939;550;918
1909;940;551;917
1910;939;551;918
1911;941;551;917
1912;941;552;918
1913;941;553;919
1914;941;554;920
1915;941;554;921
1916;941;553;922
1917;941;553;921
1918;942;554;921
1919;941;553;923
1920;944;553;922
1921;944;554;922
1922;944;553;923
1923;946;553;922
1924;945;554;922
1925;946;554;923
1926;946;554;925
1927;946;555;925
1928;945;555;927
1929;947;555;926
1930;948;556;926
1931;949;556;927
1932;950;555;928
1933;950;556;927
1934;950;556;929
1935;951;556;929
1936;953;556;930
1937;953;556;930
1938;956;556;931
1939;955;557;931
1940;957;557;932
1941;958;557;935
1942;956;557;935
1943;958;557;935
1944;958;558;935
1945;958;559;936
1946;960;559;938
1947;960;559;937
1948;959;560;938
1949;962;560;938
1950;963;560;938
1951;964;560;938
1952;964;560;940
1953;965;560;940
1954;965;560;941
1955;964;560;945
1956;964;560;947
1957;966;560;946
1958;967;560;946
1959;966;560;947
1960;967;559;946
1961;966;560;946
1962;966;559;946
1963;967;559;948
1964;966;560;949
1965;967;560;949
1966;969;560;949
1967;969;561;949
1968;969;562;949
1969;970;562;949
1970;973;562;948
1971;971;563;950
1972;972;563;950
1973;974;563;952
1974;973;564;951
1975;975;564;952
1976;976;564;953
1977;976;564;954
1978;975;563;955
1979;977;562;954
1980;979;563;956
1981;978;564;957
1982;979;564;958
1983;981;564;959
1984;980;565;958
1985;980;565;958
1986;981;565;958
1987;982;566;959
1988;981;566;961
1989;984;566;963
1990;984;567;963
1991;985;567;963
1992;985;567;964
1993;984;568;965
1994;986;568;964
1995;987;568;965
1996;986;568;966
1997;986;568;965
1998;989;568;966
1999;988;569;967
2000;989;569;969
2001;990;569;969
2002;989;570;969
2003;989;570;970
2004;989;570;969
2005;990;571;970
2006;990;571;970
2007;992;571;972
2008;992;572;971
2009;995;572;972
2010;996;572;972
2011;996;573;973
2012;997;573;974
2013;997;573;976
2014;997;575;977
2015;997;575;978
2016;997;576;977
2017;999;576;977
2018;999;576;977
2019;999;577;977
2020;999;577;977
2021;1001;577;978
2022;1000;578;977
2023;1001;578;978
2024;1000;578;979
2025;1000;579;980
2026;1000;579;981
2027;1000;579;980
2028;1000;580;980
2029;1000;580;980
2030;1000;580;981
2031;1000;581;981
2032;1001;582;981
2033;1001;582;983
2034;1003;582;983
2035;1002;583;984
2036;1005;583;984
2037;1007;583;985
2038;1007;584;985
2039;1009;584;985
2040;1009;584;986
2041;1010;584;988
2042;1010;584;987
2043;1010;584;988
2044;1009;585;987
2045;1010;584;987
2046;1010;584;988
2047;1010;585;987
2048;1010;585;986
2049;1009;584;988
2050;1010;585;988
2051;1011;586;989
2052;1011;586;991
2053;1014;586;991
2054;1014;587;993
2055;1014;587;995
2056;1017;587;995
2057;1016;587;995
2058;1017;588;996
2059;1017;588;996
2060;1017;589;998
2061;1017;589;1000
2062;1019;590;999
2063;1021;591;1000
2064;1021;591;999
2065;1021;591;1000
2066;1023;591;1002
2067;1023;591;1002
2068;1025;591;1001
2069;1024;591;1002
2070;1023;592;1003
2071;1023;592;1004
2072;1023;592;1004
2073;1022;593;1004
2074;1025;593;1004
2075;1028;593;1004
2076;1028;594;1003
2077;1029;594;1005
2078;1029;594;1006
2079;1030;595;1006
2080;1029;595;1009
2081;1029;595;1009
2082;1030;595;1008
2083;1030;595;1010
2084;1030;595;1010
2085;1030;596;1011
2086;1029;596;1011
2087;1034;596;1011
2088;1033;597;1011
2089;1033;597;1011
2090;1034;597;1012
2091;1033;598;1015
2092;1036;598;1014
2093;1039;598;1015
2094;1038;597;1016
2095;1038;597;1017
2096;1038;598;1019
2097;1039;599;1018
2098;1039;600;1021
2099;1041;600;1022
2100;1043;601;1022
2101;1044;601;1023
2102;1045;601;1024
2103;1046;602;1024
2104;1044;603;1026
2105;1045;603;1026
2106;1046;603;1025
2107;1047;602;1025
2108;1046;602;1027
2109;1047;602;1027
2110;1049;602;1027
2111;1047;603;1027
2112;1049;603;1027
2113;1050;604;1026
2114;1050;604;1027
2115;1049;605;1029
2116;1049;605;1028
2117;1049;605;1028
2118;1049;605;1029
2119;1049;606;1028
2120;1049;607;1029
2121;1048;606;1029
2122;1048;607;1028
2123;1048;607;1028
2124;1050;606;1028
2125;1051;607;1027
2126;1051;608;1026
2127;1050;608;1030
2128;1050;609;1030
2129;1052;610;1029
2130;1051;609;1029
2131;1051;610;1030
2132;1051;610;1031
2133;1052;610;1031
2134;1053;610;1033
2135;1056;610;1033
2136;1056;610;1032
2137;1054;611;1035
2138;1055;611;1035
2139;1057;611;1037
2140;1057;612;1037
2141;1058;612;1038
2142;1060;612;1037
2143;1060;613;1039
2144;1061;613;1040
2145;1061;613;1040
2146;1060;614;1039
2147;1060;614;1039
2148;1060;614;1039
2149;1060;615;1039
2150;1060;615;1041
2151;1060;615;1041
2152;1061;615;1041
2153;1062;616;1041
2154;1063;616;1042
2155;1064;617;1043
2156;1062;618;1043
2157;1066;618;1043
2158;1066;618;1045
2159;1065;619;1045
2160;1066;619;1045
2161;1067;619;1046
2162;1066;620;1046
2163;1065;621;1046
2164;1065;621;1048
2165;1066;621;1048
2166;1066;622;1048
2167;1066;622;1049
2168;1068;622;1049
2169;1069;623;1048
2170;1069;623;1050
2171;1071;623;1051
2172;1071;624;1050
2173;1072;625;1051
2174;1074;625;1052
2175;1075;625;1052
2176;1076;625;1052
2177;1074;626;1054
2178;1075;626;1055
2179;1078;626;1055
2180;1080;627;1055
2181;1079;626;1055
2182;1079;626;1056
2183;1079;626;1056
2184;1079;626;1057
2185;1080;626;1057
2186;1081;626;1058
2187;1081;626;1059
2188;1083;627;1059
2189;1084;627;1059
2190;1083;628;1060
2191;1084;628;1060
2192;1083;629;1059
2193;1082;629;1060
2194;1083;629;1062
2195;1084;630;1061
2196;1084;631;1062
2197;1084;631;1063
2198;1087;631;1062
2199;1085;632;1062
2200;1085;633;1063
2201;1086;633;1063
2202;1087;633;1063
2203;1089;633;1063
2204;1089;634;1063
2205;1089;633;1065
2206;1089;633;1065
2207;1089;634;1066
2208;1088;633;1066
2209;1090;633;1068
2210;1089;634;1068
2211;1089;634;1069
2212;1091;634;1069
2213;1092;635;1069
2214;1092;634;1070
2215;1093;635;1070
2216;1095;635;1069
2217;1093;635;1071
2218;1094;635;1071
2219;1096;635;1070
2220;1095;636;1071
2221;1094;636;1073
2222;1095;637;1073
2223;1096;637;1072
2224;1097;637;1073
2225;1097;637;1073
2226;1097;637;1073
2227;1098;638;1074
2228;1097;638;1073
2229;1097;638;1073
2230;1096;639;1073
2231;1097;639;1072
2232;1098;639;1073
2233;1097;640;1075
2234;1097;641;1074
2235;1098;641;1077
2236;1100;641;1077
2237;1101;642;1077
2238;1102;642;1078
2239;1101;642;1081
2240;1102;642;1080
2241;1103;642;1080
2242;1103;641;1080
2243;1103;642;1079
2244;1105;642;1079
2245;1104;643;1081
2246;1106;643;1082
2247;1107;644;1082
2248;1107;645;1084
2249;1108;645;1083
2250;1110;646;1083
2251;1109;646;1086
2252;1109;646;1086
2253;1110;646;1087
2254;1111;647;1088
2255;1111;646;1088
2256;1113;646;1089
2257;1113;647;1089
2258;1115;647;1090
2259;1115;647;1090
2260;1116;648;1092
2261;1116;648;1092
2262;1117;648;1093
2263;1117;649;1093
2264;1118;650;1093
2265;1117;651;1094
2266;1118;650;1094
2267;1119;651;1094
2268;1118;651;1095
2269;1119;651;1096
2270;1120;651;1096
2271;1122;652;1096
2272;1121;653;1096
2273;1122;653;1097
2274;1123;653;1097
2275;1124;654;1097
2276;1125;654;1098
2277;1126;655;1099
2278;1125;655;1102
2279;1124;656;1102
2280;1128;656;1102
2281;1129;656;1103
2282;1129;657;1104
2283;1131;657;1105
2284;1131;656;1106
2285;1132;657;1106
2286;1134;656;1106
2287;1134;655;1107
2288;1134;655;1107
2289;1134;656;1109
2290;1134;656;1110
2291;1135;657;1109
2292;1135;657;1110
2293;1135;658;1111
2294;1137;657;1110
2295;1137;657;1112
2296;1137;658;1112
2297;1138;657;1114
2298;1138;657;1114
2299;1140;658;1114
2300;1140;659;1114
2301;1141;659;1116
2302;1142;659;1115
2303;1143;659;1118
2304;1143;659;1117
2305;1142;659;1118
2306;1147;659;1119
2307;1147;660;1119
2308;1148;660;1121
2309;1148;660;1124
2310;1150;661;1124
2311;1151;661;1125
2312;1151;661;1124
2313;1151;662;1125
2314;1151;663;1126
2315;1152;663;1126
2316;1153;663;1127
2317;1152;664;1129
2318;1152;664;1129
2319;1154;664;1129
2320;1153;665;1130
2321;1155;666;1129
2322;1157;667;1131
2323;1158;667;1131
2324;1161;667;1133
2325;1162;668;1134
2326;1162;668;1134
2327;1162;668;1138
2328;1162;668;1137
2329;1162;668;1137
2330;1161;668;1137
2331;1160;669;1136
2332;1161;670;1136
2333;1161;669;1136
2334;1160;669;1136
2335;1162;670;1136
2336;1162;670;1136
2337;1163;670;1136
2338;1162;671;1137
2339;1163;671;1138
2340;1165;671;1138
2341;1163;672;1142
2342;1163;671;1142
2343;1166;672;1142
2344;1167;672;1142
2345;1169;672;1143
2346;1170;672;1145
2347;1170;673;1145
2348;1170;673;1146
2349;1172;673;1146
2350;1172;674;1146
2351;1173;674;1146
2352;1174;674;1146
2353;1174;675;1146
2354;1173;675;1147
2355;1173;675;1148
2356;1174;676;1149
2357;1173;677;1151
2358;1174;677;1151
2359;1176;677;1150
2360;1177;678;1151
2361;1177;679;1151
2362;1178;679;1152
2363;1180;679;1153
2364;1180;680;1154
2365;1180;680;1155
2366;1181;680;1156
2367;1181;681;1155
2368;1182;681;1157
2369;1182;680;1157
2370;1182;681;1158
2371;1182;681;1157
2372;1182;681;1158
2373;1183;682;1159
2374;1183;682;1159
2375;1185;682;1160
2376;1184;683;1159
2377;1186;683;1159
2378;1186;683;1159
2379;1186;683;1159
2380;1187;683;1159
2381;1186;683;1162
2382;1187;684;1162
2383;1187;684;1162
2384;1188;684;1163
2385;1187;685;1163
2386;1188;684;1163
2387;1188;683;1162
2388;1189;684;1163
2389;1189;684;1163
2390;1191;684;1164
2391;1190;685;1165
2392;1192;685;1166
2393;1193;685;1168
2394;1193;686;1168
2395;1194;686;1169
2396;1196;686;1170
2397;1197;686;1171
2398;1197;687;1172
2399;1198;687;1171
2400;1198;687;1173
2401;1199;688;1174
2402;1201;688;1173
2403;1202;689;1174
2404;1201;689;1174
2405;1201;690;1174
2406;1201;689;1173
2407;1201;689;1176
2408;1201;689;1176
2409;1202;689;1177
2410;1204;690;1178
2411;1204;690;1178
2412;1204;691;1180
2413;1204;691;1180
2414;1206;691;1181
2415;1205;692;1181
2416;1205;692;1182
2417;1207;692;1184
2418;1208;693;1184
2419;1209;694;1183
2420;1210;695;1184
2421;1210;695;1186
2422;1211;695;1185
2423;1211;696;1184
2424;1210;696;1184
2425;1211;696;1185
2426;1211;697;1186
2427;1212;696;1186
2428;1212;696;1187
2429;1211;697;1188
2430;1213;697;1188
2431;1213;697;1190
2432;1212;698;1189
2433;1212;699;1189
2434;1213;699;1190
2435;1214;700;1189
2436;1214;700;1190
2437;1213;701;1190
2438;1214;701;1190
2439;1214;701;1190
2440;1216;702;1190
2441;1216;703;1190
2442;1217;704;1192
2443;1217;704;1193
2444;1218;704;1192
2445;1218;705;1194
2446;1218;705;1195
2447;1222;705;1194
2448;1222;706;1196
2449;1223;706;1197
2450;1225;706;1197
2451;1225;707;1198
2452;1224;708;1200
2453;1226;708;1199
2454;1228;708;1201
2455;1228;708;1203
2456;1227;708;1203
2457;1228;708;1203
2458;1228;709;1203
2459;1228;709;1204
2460;1229;709;1206
2461;1230;710;1206
2462;1231;710;1209
2463;1231;710;1208
2464;1232;711;1208
2465;1232;711;1208
2466;1232;712;1208
2467;1232;712;1209
2468;1235;712;1209
2469;1235;712;1210
2470;1236;713;1211
2471;1236;713;1211
2472;1239;712;1213
2473;1238;712;1214
2474;1241;712;1213
2475;1242;712;1213
2476;1242;713;1215
2477;1242;713;1215
2478;1242;713;1216
2479;1241;714;1215
2480;1242;714;1216
2481;1243;714;1216
2482;1243;715;1217
2483;1243;715;1217
2484;1243;715;1219
2485;1243;716;1219
2486;1245;716;1219
2487;1246;716;1220
2488;1246;717;1220
2489;1246;717;1219
2490;1247;717;1220
2491;1246;718;1220
2492;1248;718;1222
2493;1248;717;1222
2494;1249;718;1225
2495;1249;718;1225
2496;1251;718;1227
2497;1249;719;1228
2498;1251;719;1229
2499;1251;719;1228
2500;1251;719;1228
2501;1251;719;1229
2502;1251;719;1229
2503;1253;719;1228
2504;1252;721;1229
2505;1253;720;1229
2506;1255;720;1229
2507;1255;720;1230
2508;1254;721;1231
2509;1255;721;1231
2510;1255;721;1231
2511;1255;722;1232
2512;1256;722;1231
2513;1258;722;1233
2514;1256;723;1233
2515;1258;723;1233
2516;1259;723;1232
2517;1260;723;1235
2518;1261;724;1235
2519;1262;724;1235
2520;1262;724;1237
2521;1262;725;1238
2522;1261;725;1238
2523;1263;725;1238
2524;1264;726;1238
2525;1262;727;1240
2526;1263;727;1241
2527;1263;726;1243
2528;1264;727;1243
2529;1265;727;1244
2530;1267;727;1244
2531;1266;728;1244
2532;1269;728;1246
2533;1270;728;1245
2534;1271;729;1245
2535;1270;729;1247
2536;1271;728;1247
2537;1272;729;1248
2538;1273;729;1248
2539;1273;729;1250
2540;1274;730;1249
2541;1274;730;1249
2542;1275;730;1251
2543;1276;731;1250
2544;1276;731;1250
2545;1275;731;1251
2546;1274;732;1250
2547;1276;733;1251
2548;1276;733;1253
2549;1276;734;1253
2550;1278;734;1252
2551;1277;735;1254
2552;1277;735;1253
2553;1280;735;1254
2554;1279;736;1254
2555;1278;736;1256
2556;1279;736;1257
2557;1280;737;1256
2558;1281;737;1258
2559;1281;737;1257
2560;1281;738;1257
2561;1281;738;1258
2562;1281;738;1257
2563;1282;739;1256
2564;1282;739;1259
2565;1283;739;1259
2566;1284;740;1259
2567;1284;740;1259
2568;1285;741;1260
2569;1284;741;1260
2570;1283;742;1260
2571;1285;742;1260
2572;1285;742;1261
2573;1284;743;1263
2574;1286;744;1263
2575;1287;744;1263
2576;1288;744;1265
2577;1289;745;1265
2578;1291;745;1265
2579;1291;745;1266
2580;1291;746;1265
2581;1292;746;1264
2582;1292;745;1265
2583;1292;746;1266
2584;1293;746;1266
2585;1292;746;1268
2586;1293;746;1268
2587;1292;748;1268
2588;1293;749;1270
2589;1292;749;1271
2590;1295;749;1272
2591;1294;750;1272
2592;1296;750;1272
2593;1298;750;1271
2594;1298;751;1272
2595;1298;750;1274
2596;1299;749;1274
2597;1298;750;1275
2598;1299;750;1276
2599;1300;750;1275
2600;1300;751;1277
2601;1300;751;1277
2602;1302;751;1278
2603;1303;752;1277
2604;1302;752;1280
2605;1303;751;1280
2606;1304;752;1279
2607;1303;753;1280
2608;1304;753;1282
2609;1306;753;1281
2610;1305;754;1282
2611;1305;753;1282
2612;1306;753;1281
2613;1306;754;1282
2614;1306;754;1283
2615;1307;755;1283
2616;1308;755;1282
2617;1308;755;1284
2618;1309;755;1283
2619;1310;755;1283
2620;1310;755;1286
2621;1311;756;1286
2622;1312;755;1288
2623;1312;755;1288
2624;1312;756;1288
2625;1313;756;1289
2626;1313;755;1289
2627;1312;756;1288
2628;1313;756;1288
2629;1314;755;1290
2630;1314;756;1291
2631;1315;756;1291
2632;1316;757;1291
2633;1316;757;1291
2634;1315;758;1293
2635;1316;758;1293
2636;1317;758;1293
2637;1315;759;1293
2638;1317;758;1293
2639;1320;759;1293
2640;1318;759;1293
2641;1321;760;1293
2642;1321;761;1294
2643;1321;761;1296
2644;1320;760;1295
2645;1322;760;1295
2646;1322;760;1297
2647;1322;761;1298
2648;1324;761;1298
2649;1325;761;1299
2650;1325;762;1299
2651;1327;762;1300
2652;1326;762;1302
2653;1327;763;1302
2654;1327;764;1302
2655;1326;764;1305
2656;1326;764;1304
2657;1327;765;1303
2658;1328;766;1305
2659;1329;766;1306
2660;1330;766;1305
2661;1328;767;1305
2662;1332;767;1305
2663;1333;767;1306
2664;1333;768;1307
2665;1334;769;1308
2666;1335;770;1310
2667;1336;770;1311
2668;1337;770;1311
2669;1336;771;1312
2670;1337;771;1311
2671;1337;771;1312
2672;1336;772;1313
2673;1337;772;1313
2674;1337;772;1312
2675;1336;773;1315
2676;1338;773;1314
2677;1342;773;1314
2678;1341;774;1315
2679;1341;774;1318
2680;1341;774;1318
2681;1341;775;1317
2682;1340;775;1317
2683;1341;775;1316
2684;1341;776;1316
2685;1341;775;1317
2686;1343;774;1316
2687;1345;776;1317
2688;1345;776;1320
2689;1345;775;1321
2690;1344;776;1321
2691;1345;775;1323
2692;1346;774;1322
2693;1347;774;1322
2694;1348;775;1323
2695;1349;776;1324
2696;1349;776;1325
2697;1349;776;1327
2698;1350;777;1327
2699;1352;777;1327
2700;1352;778;1328
2701;1351;778;1329
2702;1353;778;1328
2703;1354;779;1327
2704;1355;779;1329
2705;1355;779;1329
2706;1355;780;1328
2707;1356;780;1329
2708;1357;780;1329
2709;1358;781;1330
2710;1358;782;1331
2711;1358;781;1333
2712;1359;781;1337
2713;1358;782;1336
2714;1359;782;1336
2715;1359;783;1336
2716;1360;783;1336
2717;1362;783;1336
2718;1362;783;1336
2719;1362;784;1336
2720;1364;784;1335
2721;1364;784;1336
2722;1364;785;1336
2723;1365;785;1339
2724;1365;785;1339
2725;1366;785;1339
2726;1365;785;1340
2727;1365;785;1342
2728;1367;785;1343
2729;1366;786;1344
2730;1366;786;1344
2731;1369;786;1345
2732;1369;786;1344
2733;1370;786;1344
2734;1372;786;1343
2735;1371;787;1344
2736;1372;786;1344
2737;1373;787;1344
2738;1373;787;1345
2739;1373;786;1346
2740;1374;786;1350
2741;1375;787;1349
2742;1374;787;1350
2743;1375;787;1349
2744;1375;788;1349
2745;1377;789;1349
2746;1378;789;1350
2747;1379;788;1350
2748;1379;789;1351
2749;1379;789;1353
2750;1379;789;1352
2751;1380;790;1354
2752;1380;791;1353
2753;1380;791;1354
2754;1381;791;1354
2755;1381;792;1356
2756;1382;791;1357
2757;1383;791;1357
2758;1382;792;1357
2759;1383;792;1357
2760;1383;791;1358
2761;1384;792;1358
2762;1385;792;1359
2763;1386;792;1360
2764;1386;792;1361
2765;1387;792;1360
2766;1387;792;1360
2767;1386;793;1362
2768;1387;793;1363
2769;1388;793;1364
2770;1388;793;1365
2771;1389;793;1366
2772;1390;792;1366
2773;1390;793;1367
2774;1395;793;1366
2775;1395;793;1366
2776;1394;794;1367
2777;1394;794;1368
2778;1394;794;1367
2779;1393;795;1369
2780;1395;795;1371
2781;1395;796;1370
2782;1396;796;1371
2783;1396;797;1371
2784;1396;797;1373
2785;1398;797;1373
2786;1398;798;1374
2787;1398;798;1373
2788;1400;798;1373
2789;1399;798;1373
2790;1399;799;1374
2791;1401;799;1374
2792;1402;798;1375
2793;1401;799;1375
2794;1402;799;1375
2795;1403;799;1378
2796;1404;799;1377
2797;1403;800;1379
2798;1405;800;1378
2799;1407;800;1378
2800;1405;801;1380
2801;1406;801;1381
2802;1407;801;1381
2803;1406;802;1382
2804;1407;802;1381
2805;1407;801;1383
2806;1405;801;1383
2807;1407;802;1383
2808;1409;802;1383
2809;1408;803;1385
2810;1411;802;1385
2811;1413;802;1385
2812;1411;805;1387
2813;1412;805;1386
2814;1413;805;1387
2815;1412;805;1388
2816;1413;804;1387
2817;1413;805;1386
2818;1413;806;1389
2819;1414;805;1388
2820;1416;805;1388
2821;1416;806;1390
2822;1416;807;1391
2823;1417;808;1390
2824;1419;808;1390
2825;1418;809;1394
2826;1421;809;1394
2827;1421;809;1394
2828;1423;810;1395
2829;1422;810;1396
2830;1423;810;1398
2831;1424;810;1397
2832;1424;811;1398
2833;1425;812;1400
2834;1426;813;1400
2835;1428;813;1400
2836;1428;813;1401
2837;1429;814;1402
2838;1430;814;1402
2839;1429;814;1404
2840;1430;815;1405
2841;1431;815;1405
2842;1432;815;1406
2843;1433;816;1405
2844;1433;816;1405
2845;1434;816;1405
2846;1434;817;1407
2847;1434;817;1406
2848;1435;817;1408
2849;1435;818;1407
2850;1436;818;1408
2851;1435;818;1410
2852;1435;819;1411
2853;1437;818;1410
2854;1437;818;1412
2855;1437;819;1412
2856;1440;819;1412
2857;1440;820;1414
2858;1440;820;1415
2859;1441;821;1414
2860;1442;821;1415
2861;1443;821;1415
2862;1443;822;1414
2863;1443;822;1416
2864;1444;822;1415
2865;1443;823;1416
2866;1442;823;1418
2867;1444;823;1418
2868;1445;824;1417
2869;1446;824;1418
2870;1446;824;1419
2871;1445;825;1420
2872;1447;825;1421
2873;1448;825;1420
2874;1448;826;1423
2875;1449;826;1425
2876;1451;825;1425
2877;1451;825;1427
2878;1451;827;1427
2879;1451;826;1426
2880;1452;826;1425
2881;1451;827;1425
2882;1452;827;1425
2883;1453;828;1426
2884;1453;828;1427
2885;1454;828;1427
2886;1454;828;1429
2887;1454;829;1428
2888;1454;829;1431
2889;1456;828;1431
2890;1457;829;1431
2891;1458;830;1432
2892;1458;830;1434
2893;1459;830;1433
2894;1459;831;1434
2895;1460;831;1435
2896;1462;832;1435
2897;1464;832;1435
2898;1463;833;1436
2899;1464;832;1437
2900;1466;831;1436
2901;1464;833;1438
2902;1466;834;1438
2903;1467;832;1438
2904;1465;833;1439
2905;1465;833;1441
2906;1466;833;1440
2907;1466;834;1441
2908;1466;834;1441
2909;1467;834;1441
2910;1467;835;1441
2911;1467;835;1441
2912;1468;836;1442
2913;1468;836;1444
2914;1470;836;1446
2915;1471;837;1445
2916;1472;837;1446
2917;1473;838;1446
2918;1473;838;1446
2919;1475;838;1447
2920;1475;838;1448
2921;1477;838;1450
2922;1477;839;1450
2923;1477;839;1453
2924;1480;839;1453
2925;1480;840;1455
2926;1479;841;1456
2927;1480;842;1455
2928;1482;842;1455
2929;1483;842;1456
2930;1483;843;1457
2931;1483;843;1457
2932;1483;843;1457
2933;1482;844;1456
2934;1485;845;1458
2935;1486;846;1458
2936;1489;846;1458
2937;1489;846;1460
2938;1488;847;1461
2939;1488;847;1463
2940;1491;847;1464
2941;1490;848;1464
2942;1493;848;1466
2943;1494;848;1465
2944;1494;848;1466
2945;1494;849;1466
2946;1495;849;1466
2947;1495;849;1467
2948;1494;850;1466
2949;1495;850;1467
2950;1495;851;1469
2951;1497;850;1468
2952;1498;851;1469
2953;1497;851;1470
2954;1499;851;1469
2955;1498;852;1469
2956;1499;853;1470
2957;1499;853;1470
2958;1500;853;1471
2959;1499;853;1473
2960;1501;853;1473
2961;1502;854;1472
2962;1502;854;1474
2963;1503;855;1474
2964;1504;855;1475
2965;1504;855;1477
2966;1506;856;1478
2967;1506;856;1477
2968;1507;856;1478
2969;1508;857;1477
2970;1509;857;1479
2971;1510;858;1479
2972;1510;857;1480
2973;1509;858;1480
2974;1510;859;1480
2975;1511;859;1480
2976;1512;859;1481
2977;1511;860;1480
2978;1511;861;1483
2979;1512;861;1482
2980;1514;860;1484
2981;1514;861;1485
2982;1515;861;1484
2983;1515;861;1486
2984;1515;862;1488
2985;1516;862;1488
2986;1516;862;1488
2987;1516;863;1488
2988;1516;863;1489
2989;1517;863;1488
2990;1516;864;1489
2991;1516;863;1490
2992;1517;863;1491
2993;1518;864;1491
2994;1519;863;1491
2995;1521;863;1492
2996;1521;864;1492
2997;1521;864;1493
2998;1523;864;1493
2999;1524;864;1493
3000;1523;864;1494
3001;1525;864;1493
3002;1525;865;1494
3003;1525;866;1494
3004;1525;865;1495
3005;1526;865;1496
3006;1525;866;1498
3007;1525;866;1501
3008;1525;866;1501
3009;1526;867;1500
3010;1526;868;1501
3011;1528;867;1501
3012;1529;868;1501
3013;1529;868;1502
3014;1529;869;1502
3015;1531;869;1501
3016;1531;869;1503
3017;1531;870;1504
3018;1534;870;1504
3019;1534;869;1505
3020;1533;870;1506
3021;1535;870;1507
3022;1535;870;1508
3023;1535;871;1509
3024;1536;871;1508
3025;1538;872;1509
3026;1539;872;1509
3027;1538;873;1509
3028;1539;873;1509
3029;1539;873;1509
3030;1538;874;1508
3031;1540;874;1508
3032;1541;874;1509
3033;1541;875;1509
3034;1542;874;1511
3035;1543;875;1512
3036;1542;876;1514
3037;1543;875;1515
3038;1546;876;1514
3039;1546;877;1516
3040;1546;877;1516
3041;1546;877;1516
3042;1548;878;1517
3043;1548;877;1518
3044;1551;877;1519
3045;1551;878;1518
3046;1553;877;1518
3047;1552;877;1521
3048;1551;878;1522
3049;1553;877;1523
3050;1555;877;1523
3051;1556;878;1522
3052;1557;878;1523
3053;1556;878;1526
3054;1555;879;1528
3055;1558;879;1527
3056;1558;879;1529
3057;1559;880;1528
3058;1559;880;1528
3059;1559;881;1529
3060;1559;881;1529
3061;1560;881;1531
3062;1559;882;1532
3063;1560;883;1533
3064;1561;883;1533
3065;1564;883;1534
3066;1565;884;1533
3067;1564;884;1534
3068;1565;884;1534
3069;1564;885;1534
3070;1566;885;1535
3071;1567;885;1536
3072;1566;886;1535
3073;1568;886;1534
3074;1567;886;1536
3075;1566;887;1536
3076;1566;888;1535
3077;1567;887;1537
3078;1567;888;1538
3079;1569;888;1538
3080;1569;888;1538
3081;1569;889;1538
3082;1569;889;1539
3083;1570;889;1540
3084;1569;889;1540
3085;1571;888;1540
3086;1570;888;1541
3087;1570;889;1542
3088;1572;889;1541
3089;1572;890;1541
3090;1573;890;1542
3091;1574;891;1541
3092;1575;891;1544
3093;1575;891;1545
3094;1574;892;1544
3095;1575;892;1545
3096;1576;891;1544
3097;1578;892;1545
3098;1578;892;1546
3099;1578;891;1546
3100;1579;892;1546
3101;1579;893;1546
3102;1580;893;1546
3103;1580;893;1548
3104;1580;894;1547
3105;1580;895;1547
3106;1579;896;1547
3107;1579;897;1548
3108;1580;897;1547
3109;1579;896;1548
3110;1581;897;1548
3111;1583;897;1549
3112;1583;897;1549
3113;1583;898;1550
3114;1584;899;1550
3115;1585;899;1551
3116;1587;899;1550
3117;1585;900;1552
3118;1586;901;1552
3119;1587;901;1553
3120;1586;901;1553
3121;1587;902;1554
3122;1588;902;1554
3123;1588;902;1557
3124;1589;903;1557
3125;1590;903;1557
3126;1590;904;1559
3127;1591;904;1560
3128;1592;905;1559
3129;1591;905;1560
3130;1593;906;1559
3131;1594;907;1559
3132;1594;907;1562
3133;1593;907;1561
3134;1595;906;1560
3135;1594;906;1561
3136;1595;907;1561
3137;1596;907;1560
3138;1596;906;1562
3139;1595;907;1562
3140;1595;908;1564
3141;1597;908;1564
3142;1596;909;1565
3143;1597;909;1566
3144;1598;909;1566
3145;1597;910;1566
3146;1599;911;1567
3147;1601;911;1567
3148;1601;912;1568
3149;1602;912;1569
3150;1603;913;1569
3151;1603;913;1569
3152;1604;913;1570
3153;1605;913;1571
3154;1604;913;1571
3155;1605;912;1572
3156;1605;913;1571
3157;1606;913;1572
3158;1606;913;1572
3159;1607;914;1574
3160;1607;914;1573
3161;1608;914;1572
3162;1607;915;1572
3163;1609;916;1574
3164;1609;916;1575
3165;1611;915;1576
3166;1610;916;1576
3167;1610;916;1576
3168;1612;916;1577
3169;1612;917;1578
3170;1612;917;1580
3171;1614;917;1579
3172;1615;917;1579
3173;1615;918;1579
3174;1617;918;1580
3175;1617;918;1579
3176;1618;918;1581
3177;1618;919;1581
3178;1618;919;1581
3179;1617;919;1583
3180;1618;920;1582
3181;1618;920;1581
3182;1618;921;1582
3183;1617;921;1583
3184;1618;922;1583
3185;1618;922;1584
3186;1621;922;1583
3187;1619;923;1583
3188;1621;924;1584
3189;1621;924;1584
3190;1621;923;1587
3191;1623;924;1586
3192;1624;925;1585
3193;1623;926;1587
3194;1622;927;1586
3195;1623;927;1587
3196;1622;928;1588
3197;1624;928;1589
3198;1624;929;1589
3199;1623;930;1591
3200;1624;929;1591
3201;1624;929;1590
3202;1622;929;1592
3203;1625;929;1592
3204;1625;929;1591
3205;1623;929;1591
3206;1623;929;1590
3207;1624;929;1591
3208;1623;930;1591
3209;1624;931;1593
3210;1625;931;1593
3211;1627;932;1593
3212;1628;932;1592
3213;1628;932;1593
3214;1628;932;1593
3215;1631;932;1592
3216;1630;932;1593
3217;1632;933;1594
3218;1634;933;1595
3219;1633;934;1595
3220;1634;934;1595
3221;1635;934;1596
3222;1634;935;1596
3223;1634;936;1597
3224;1635;935;1598
3225;1636;935;1599
3226;1635;936;1600
3227;1636;936;1602
3228;1637;936;1605
3229;1637;937;1604
3230;1640;937;1603
3231;1641;938;1604
3232;1640;938;1606
3233;1641;939;1606
3234;1642;939;1606
3235;1643;939;1606
3236;1641;940;1608
3237;1641;940;1609
3238;1642;940;1609
3239;1643;941;1609
3240;1645;941;1609
3241;1645;941;1611
3242;1645;942;1611
3243;1647;942;1612
3244;1648;941;1612
3245;1647;942;1614
3246;1649;943;1614
3247;1650;943;1614
3248;1652;943;1614
3249;1650;944;1616
3250;1651;945;1615
3251;1652;946;1616
3252;1651;946;1618
3253;1651;946;1619
3254;1654;947;1619
3255;1655;948;1619
3256;1656;948;1622
3257;1659;948;1622
3258;1660;949;1622
3259;1659;949;1623
3260;1662;949;1623
3261;1663;950;1625
3262;1661;951;1626
3263;1662;951;1627
3264;1664;951;1627
3265;1664;952;1627
3266;1664;952;1629
3267;1666;953;1629
3268;1668;953;1629
3269;1667;954;1629
3270;1668;954;1630
3271;1667;954;1630
3272;1667;954;1632
3273;1667;954;1633
3274;1669;954;1633
3275;1668;955;1633
3276;1670;955;1633
3277;1670;955;1633
3278;1671;956;1635
3279;1672;956;1635
3280;1675;956;1636
3281;1674;957;1638
3282;1675;957;1640
3283;1675;957;1641
3284;1675;958;1641
3285;1675;958;1642
3286;1675;958;1642
3287;1674;959;1642
3288;1677;959;1642
3289;1679;959;1642
3290;1679;959;1644
3291;1678;960;1645
3292;1680;960;1644
3293;1679;960;1645
3294;1678;961;1645
3295;1679;961;1644
3296;1679;961;1645
3297;1680;962;1644
3298;1680;961;1644
3299;1680;961;1648
3300;1681;962;1647
3301;1682;962;1647
3302;1682;962;1649
3303;1682;963;1648
3304;1683;963;1647
3305;1683;963;1649
3306;1683;964;1650
3307;1685;964;1649
3308;1685;964;1652
3309;1685;965;1651
3310;1686;966;1653
3311;1688;966;1652
3312;1689;965;1653
3313;1689;965;1653
3314;1689;966;1653
3315;1691;966;1655
3316;1690;965;1656
3317;1690;966;1657
3318;1692;967;1657
3319;1693;967;1657
3320;1692;968;1657
3321;1693;968;1657
3322;1692;968;1658
3323;1694;969;1659
3324;1697;969;1661
3325;1697;969;1662
3326;1696;970;1662
3327;1699;970;1664
3328;1699;970;1664
3329;1699;971;1665
3330;1699;972;1664
3331;1699;970;1665
3332;1699;971;1665
3333;1701;971;1665
3334;1702;970;1666
3335;1701;971;1667
3336;1702;971;1667
3337;1703;971;1667
3338;1703;972;1669
3339;1704;972;1669
3340;1706;972;1670
3341;1704;973;1671
3342;1706;972;1672
3343;1706;972;1672
3344;1707;973;1672
3345;1708;973;1673
3346;1710;973;1674
3347;1709;974;1674
3348;1710;974;1675
3349;1711;974;1676
3350;1710;975;1677
3351;1712;975;1677
3352;1712;975;1678
3353;1713;976;1679
3354;1712;976;1680
3355;1713;976;1682
3356;1713;977;1682
3357;1712;977;1682
3358;1715;977;1682
3359;1716;978;1683
3360;1717;978;1683
3361;1718;978;1685
3362;1717;979;1687
3363;1716;979;1688
3364;1718;979;1688
3365;1721;980;1689
3366;1721;981;1690
3367;1723;981;1691
3368;1725;982;1691
3369;1726;981;1691
3370;1727;982;1691
3371;1726;983;1692
3372;1726;983;1693
3373;1726;983;1693
3374;1725;984;1694
3375;1727;984;1694
3376;1727;984;1696
3377;1727;985;1698
3378;1728;985;1699
3379;1729;985;1698
3380;1729;986;1698
3381;1729;987;1699
3382;1729;987;1699
3383;1731;987;1698
3384;1730;987;1698
3385;1732;987;1698
3386;1733;987;1697
3387;1731;987;1697
3388;1731;988;1696
3389;1732;989;1696
3390;1732;989;1697
3391;1734;990;1697
3392;1734;991;1697
3393;1735;990;1697
3394;1735;992;1697
3395;1736;992;1697
3396;1736;993;1699
3397;1736;993;1701
3398;1737;992;1700
3399;1738;993;1702
3400;1739;993;1703
3401;1740;994;1703
3402;1741;994;1705
3403;1743;993;1706
3404;1742;994;1706
3405;1745;994;1708
3406;1746;994;1707
3407;1745;995;1707
3408;1745;995;1707
3409;1745;995;1708
3410;1746;996;1710
3411;1745;997;1710
3412;1746;997;1713
3413;1747;996;1712
3414;1747;997;1712
3415;1747;997;1712
3416;1747;997;1712
3417;1747;998;1712
3418;1749;997;1713
3419;1750;997;1712
3420;1751;998;1713
3421;1752;999;1713
3422;1752;999;1713
3423;1753;999;1715
3424;1756;1000;1715
3425;1755;1001;1716
3426;1756;1001;1718
3427;1756;1001;1719
3428;1756;1002;1719
3429;1756;1002;1721
3430;1756;1002;1722
3431;1757;1003;1723
3432;1758;1003;1722
3433;1759;1003;1723
3434;1757;1004;1724
3435;1758;1004;1724
3436;1759;1004;1724
3437;1759;1005;1724
3438;1760;1005;1724
3439;1761;1005;1725
3440;1760;1005;1725
3441;1762;1004;1725
3442;1762;1004;1727
3443;1761;1005;1727
3444;1762;1005;1727
3445;1762;1005;1727
3446;1763;1006;1728
3447;1764;1006;1729
3448;1764;1006;1730
3449;1764;1007;1731
3450;1764;1007;1730
3451;1764;1007;1729
3452;1763;1007;1730
3453;1764;1007;1730
3454;1766;1007;1730
3455;1765;1008;1731
3456;1766;1008;1730
3457;1768;1008;1731
3458;1766;1009;1732
3459;1767;1009;1731
3460;1769;1009;1730
3461;1768;1010;1731
3462;1767;1011;1731
3463;1768;1011;1732
3464;1769;1011;1732
3465;1769;1012;1733
3466;1771;1012;1734
3467;1771;1012;1735
3468;1772;1013;1735
3469;1772;1014;1735
3470;1774;1014;1736
3471;1775;1014;1736
3472;1774;1015;1738
3473;1774;1015;1738
3474;1776;1015;1740
3475;1776;1016;1740
3476;1776;1016;1741
3477;1776;1016;1742
3478;1777;1017;1742
3479;1778;1017;1742
3480;1779;1017;1742
3481;1778;1018;1742
3482;1777;1018;1743
3483;1778;1017;1742
3484;1779;1019;1743
3485;1780;1020;1743
3486;1780;1019;1743
3487;1779;1020;1743
3488;1778;1020;1744
3489;1779;1020;1745
3490;1779;1021;1744
3491;1780;1021;1745
3492;1780;1021;1745
3493;1779;1022;1746
3494;1780;1022;1746
3495;1782;1022;1747
3496;1782;1022;1748
3497;1781;1023;1750
3498;1782;1023;1751
3499;1783;1023;1750
3500;1783;1023;1752
3501;1784;1024;1751
3502;1786;1025;1751
3503;1787;1025;1752
3504;1789;1025;1752
3505;1790;1026;1751
3506;1792;1026;1754
3507;1792;1027;1757
3508;1791;1027;1758
3509;1792;1027;1760
3510;1792;1028;1759
3511;1793;1028;1760
3512;1796;1028;1759
3513;1796;1029;1760
3514;1797;1029;1759
3515;1797;1029;1761
3516;1796;1030;1760
3517;1797;1030;1761
3518;1797;1030;1761
3519;1796;1031;1763
3520;1797;1032;1763
3521;1798;1032;1762
3522;1799;1032;1762
3523;1799;1033;1764
3524;1800;1033;1764
3525;1800;1033;1764
3526;1801;1034;1764
3527;1801;1034;1765
3528;1801;1035;1765
3529;1801;1035;1766
3530;1802;1036;1767
3531;1802;1036;1768
3532;1804;1036;1769
3533;1804;1037;1770
3534;1805;1037;1769
3535;1805;1037;1770
3536;1804;1038;1771
3537;1805;1037;1771
3538;1807;1037;1771
3539;1806;1038;1772
3540;1806;1038;1772
3541;1809;1038;1771
3542;1807;1039;1773
3543;1808;1039;1773
3544;1808;1039;1775
3545;1809;1040;1774
3546;1809;1041;1776
3547;1809;1042;1775
3548;1811;1041;1776
3549;1809;1042;1777
3550;1811;1042;1777
3551;1811;1042;1778
3552;1813;1042;1778
3553;1813;1043;1778
3554;1813;1042;1780
3555;1813;1043;1780
3556;1813;1042;1780
3557;1812;1041;1780
3558;1814;1041;1780
3559;1814;1042;1780
3560;1814;1042;1782
3561;1815;1042;1782
3562;1814;1043;1781
3563;1815;1043;1781
3564;1816;1042;1781
3565;1816;1043;1783
3566;1818;1043;1783
3567;1819;1043;1782
3568;1821;1044;1783
3569;1820;1044;1784
3570;1821;1044;1784
3571;1822;1044;1784
3572;1821;1046;1785
3573;1822;1046;1785
3574;1822;1046;1785
3575;1822;1047;1787
3576;1823;1047;1787
3577;1824;1047;1787
3578;1823;1048;1788
3579;1823;1048;1787
3580;1824;1048;1788
3581;1824;1049;1790
3582;1826;1049;1790
3583;1826;1049;1789
3584;1827;1050;1791
3585;1827;1050;1791
3586;1827;1051;1791
3587;1827;1051;1794
3588;1828;1051;1793
3589;1829;1051;1794
3590;1828;1051;1794
3591;1830;1051;1794
3592;1830;1052;1794
3593;1833;1052;1795
3594;1833;1053;1796
3595;1833;1053;1797
3596;1835;1054;1797
3597;1835;1054;1798
3598;1836;1054;1800
3599;1835;1055;1802
3600;1837;1055;1801
3601;1838;1055;1803
3602;1837;1056;1804
3603;1838;1056;1804
3604;1840;1056;1804
3605;1840;1057;1805
3606;1841;1057;1806
3607;1842;1057;1805
3608;1843;1058;1806
3609;1843;1059;1806
3610;1844;1058;1809
3611;1845;1058;1809
3612;1847;1059;1810
3613;1846;1060;1809
3614;1846;1061;1810
3615;1846;1061;1810
3616;1847;1061;1811
3617;1846;1062;1812
3618;1849;1063;1812
3619;1850;1063;1813
3620;1850;1062;1814
3621;1853;1061;1815
3622;1852;1062;1815
3623;1852;1061;1816
3624;1852;1060;1815
3625;1853;1062;1816
3626;1854;1062;1815
3627;1853;1062;1817
3628;1853;1063;1816
3629;1855;1064;1815
3630;1855;1064;1817
3631;1857;1064;1817
3632;1857;1065;1818
3633;1856;1066;1819
3634;1858;1066;1819
3635;1859;1066;1819
3636;1858;1067;1821
3637;1858;1066;1822
3638;1858;1066;1822
3639;1858;1067;1823
3640;1858;1067;1823
3641;1860;1066;1824
3642;1858;1067;1824
3643;1858;1066;1823
3644;1859;1066;1823
3645;1859;1067;1823
3646;1860;1067;1825
3647;1860;1068;1824
3648;1860;1068;1825
3649;1860;1069;1825
3650;1861;1069;1826
3651;1863;1069;1825
3652;1863;1070;1825
3653;1864;1070;1826
3654;1865;1070;1826
3655;1864;1071;1827
3656;1865;1072;1829
3657;1866;1071;1829
3658;1866;1072;1830
3659;1867;1072;1832
3660;1869;1072;1832
3661;1870;1073;1834
3662;1870;1073;1834
3663;1872;1073;1834
3664;1871;1074;1834
3665;1872;1074;1834
3666;1874;1074;1834
3667;1873;1075;1835
3668;1874;1075;1836
3669;1874;1075;1837
3670;1873;1076;1838
3671;1873;1075;1837
3672;1874;1075;1837
3673;1873;1075;1838
3674;1876;1076;1839
3675;1876;1076;1838
3676;1875;1077;1839
3677;1876;1077;1838
3678;1877;1077;1839
3679;1875;1078;1841
3680;1875;1078;1840
3681;1875;1078;1840
3682;1876;1077;1841
3683;1875;1078;1841
3684;1875;1078;1840
3685;1878;1078;1841
3686;1878;1079;1842
3687;1879;1080;1841
3688;1881;1080;1844
3689;1882;1080;1844
3690;1881;1081;1845
3691;1882;1081;1847
3692;1884;1082;1846
3693;1886;1082;1848
3694;1884;1083;1848
3695;1885;1083;1849
3696;1886;1083;1850
3697;1886;1084;1851
3698;1887;1084;1851
3699;1888;1084;1852
3700;1889;1085;1852
3701;1889;1084;1856
3702;1890;1084;1855
3703;1889;1085;1855
3704;1890;1084;1855
3705;1893;1084;1855
3706;1893;1085;1855
3707;1892;1085;1858
3708;1892;1085;1858
3709;1891;1086;1859
3710;1892;1086;1858
3711;1891;1086;1858
3712;1892;1087;1859
3713;1895;1087;1858
3714;1895;1087;1857
3715;1895;1088;1859
3716;1896;1088;1859
3717;1896;1088;1860
3718;1896;1089;1861
3719;1897;1089;1860
3720;1897;1089;1861
3721;1897;1090;1860
3722;1899;1090;1861
3723;1898;1090;1864
3724;1898;1091;1864
3725;1899;1091;1865
3726;1898;1091;1865
3727;1900;1091;1865
3728;1901;1092;1865
3729;1901;1092;1865
3730;1903;1092;1865
3731;1903;1092;1865
3732;1901;1093;1867
3733;1903;1092;1866
3734;1905;1092;1866
3735;1904;1093;1868
3736;1903;1093;1869
3737;1906;1093;1868
3738;1906;1093;1868
3739;1906;1093;1870
3740;1906;1093;1871
3741;1907;1094;1871
3742;1908;1095;1870
3743;1908;1094;1871
3744;1909;1094;1871
3745;1908;1095;1872
3746;1909;1095;1875
3747;1910;1095;1878
3748;1911;1096;1877
3749;1912;1096;1878
3750;1912;1096;1878
3751;1912;1096;1878
3752;1913;1096;1878
3753;1916;1096;1879
3754;1917;1097;1879
3755;1917;1097;1880
3756;1917;1098;1880
3757;1917;1099;1880
3758;1917;1099;1883
3759;1918;1100;1885
3760;1919;1099;1886
3761;1921;1100;1885
3762;1920;1100;1886
3763;1920;1101;1887
3764;1920;1101;1887
3765;1923;1101;1889
3766;1923;1101;1889
3767;1923;1101;1889
3768;1924;1101;1890
3769;1924;1102;1890
3770;1924;1103;1890
3771;1927;1103;1892
3772;1927;1104;1893
3773;1928;1105;1895
3774;1929;1104;1896
3775;1929;1105;1896
3776;1928;1105;1898
3777;1931;1105;1897
3778;1930;1106;1896
3779;1930;1106;1897
3780;1931;1106;1899
3781;1930;1107;1899
3782;1933;1107;1899
3783;1932;1106;1900
3784;1933;1107;1900
3785;1936;1107;1899
3786;1936;1107;1901
3787;1938;1108;1902
3788;1938;1109;1903
3789;1938;1109;1902
3790;1940;1109;1903
3791;1940;1110;1904
3792;1940;1110;1905
3793;1941;1109;1905
3794;1942;1110;1905
3795;1942;1110;1904
3796;1941;1110;1906
3797;1942;1111;1907
3798;1942;1111;1906
3799;1942;1110;1908
3800;1942;1111;1907
3801;1943;1111;1907
3802;1942;1111;1907
3803;1943;1112;1908
3804;1945;1112;1908
3805;1944;1111;1911
3806;1945;1111;1911
3807;1946;1111;1910
3808;1947;1110;1911
3809;1946;1111;1913
3810;1947;1111;1913
3811;1949;1111;1913
3812;1948;1112;1916
3813;1949;1112;1915
3814;1950;1112;1916
3815;1949;1113;1916
3816;1950;1113;1917
3817;1951;1113;1917
3818;1952;1114;1917
3819;1952;1115;1917
3820;1954;1114;1919
3821;1953;1115;1918
3822;1952;1115;1919
3823;1953;1115;1919
3824;1954;1116;1918
3825;1954;1116;1920
3826;1955;1116;1920
3827;1955;1117;1921
3828;1955;1116;1921
3829;1957;1116;1923
3830;1956;1117;1924
3831;1957;1116;1924
3832;1957;1116;1925
3833;1958;1116;1925
3834;1960;1117;1924
3835;1960;1117;1925
3836;1961;1117;1927
3837;1963;1117;1928
3838;1962;1117;1927
3839;1964;1118;1929
3840;1963;1119;1930
3841;1966;1119;1930
3842;1965;1120;1930
3843;1967;1120;1932
3844;1968;1120;1932
3845;1967;1121;1933
3846;1968;1120;1935
3847;1970;1120;1935
3848;1970;1121;1934
3849;1969;1121;1935
3850;1970;1120;1935
3851;1970;1121;1937
3852;1971;1120;1939
3853;1974;1120;1938
3854;1974;1121;1938
3855;1974;1122;1940
3856;1975;1122;1939
3857;1975;1121;1938
3858;1973;1122;1939
3859;1975;1122;1941
3860;1976;1122;1941
3861;1978;1123;1941
3862;1977;1124;1943
3863;1978;1124;1943
3864;1980;1124;1944
3865;1979;1125;1945
3866;1981;1125;1945
3867;1981;1125;1944
3868;1980;1126;1946
3869;1980;1126;1947
3870;1981;1126;1947
3871;1983;1127;1947
3872;1982;1127;1948
3873;1983;1127;1949
3874;1982;1127;1949
3875;1983;1128;1948
3876;1983;1127;1949
3877;1986;1129;1950
3878;1986;1130;1950
3879;1986;1131;1952
3880;1987;1130;1951
3881;1988;1131;1950
3882;1987;1131;1952
3883;1989;1132;1952
3884;1990;1132;1952
3885;1990;1133;1953
3886;1991;1133;1956
3887;1991;1134;1955
3888;1992;1134;1956
3889;1992;1134;1955
3890;1991;1135;1955
3891;1991;1134;1956
3892;1991;1134;1956
3893;1992;1135;1957
3894;1995;1135;1956
3895;1994;1135;1959
3896;1995;1136;1960
3897;1996;1136;1959
3898;1996;1136;1961
3899;1998;1137;1961
3900;2000;1138;1962
3901;1999;1138;1964
3902;2002;1138;1964
3903;2001;1139;1963
3904;2000;1139;1966
3905;2000;1139;1966
3906;2000;1140;1966
3907;2001;1140;1967
3908;2003;1140;1966
3909;2003;1140;1967
3910;2003;1140;1969
3911;2004;1140;1970
3912;2006;1141;1970
3913;2007;1142;1971
3914;2007;1142;1971
3915;2008;1143;1973
3916;2008;1143;1973
3917;2008;1144;1974
3918;2010;1144;1973
3919;2012;1144;1974
3920;2010;1145;1974
3921;2012;1144;1975
3922;2013;1144;1974
3923;2011;1145;1975
3924;2012;1145;1977
3925;2012;1144;1976
3926;2012;1145;1978
3927;2012;1146;1978
3928;2012;1146;1978
3929;2013;1146;1978
3930;2012;1146;1977
3931;2012;1147;1979
3932;2013;1147;1978
3933;2014;1148;1979
3934;2014;1149;1979
3935;2016;1149;1979
3936;2018;1149;1979
3937;2016;1149;1982
3938;2018;1149;1982
3939;2018;1149;1983
3940;2019;1149;1983
3941;2018;1150;1983
3942;2020;1150;1984
3943;2020;1150;1984
3944;2021;1150;1984
3945;2022;1151;1985
3946;2022;1151;1984
3947;2023;1151;1986
3948;2023;1150;1986
3949;2022;1151;1987
3950;2025;1151;1988
3951;2025;1151;1988
3952;2026;1151;1989
3953;2025;1152;1988
3954;2026;1153;1988
3955;2026;1153;1989
3956;2026;1153;1990
3957;2027;1154;1992
3958;2028;1154;1991
3959;2029;1153;1992
3960;2030;1154;1994
3961;2031;1154;1994
3962;2032;1154;1994
3963;2032;1155;1995
3964;2032;1156;1996
3965;2032;1156;1995
3966;2032;1156;1996
3967;2033;1157;1996
3968;2035;1158;1996
3969;2034;1158;1999
3970;2035;1158;1999
3971;2036;1159;1999
3972;2035;1159;2000
3973;2035;1159;2000
3974;2034;1160;2000
3975;2035;1160;2001
3976;2035;1159;2002
3977;2036;1160;2002
3978;2036;1160;2001
3979;2037;1161;2004
3980;2038;1161;2004
3981;2038;1162;2004
3982;2039;1162;2004
3983;2040;1162;2004
3984;2040;1163;2004
3985;2041;1164;2004
3986;2042;1164;2004
3987;2042;1164;2005
3988;2043;1164;2008
3989;2043;1164;2008
3990;2043;1165;2007
3991;2044;1165;2007
3992;2045;1165;2007
3993;2045;1166;2008
3994;2047;1166;2009
3995;2046;1166;2010
3996;2047;1167;2012
3997;2048;1167;2013
3998;2050;1167;2013
3999;2049;1168;2016
4000;2048;1168;2016
4001;2050;1167;2017
4002;2051;1168;2017
4003;2053;1169;2018
4004;2053;1169;2018
4005;2054;1169;2020
4006;2053;1170;2021
4007;2054;1170;2020
4008;2057;1170;2021
4009;2056;1171;2022
4010;2059;1171;2022
4011;2059;1171;2022
4012;2059;1172;2024
4013;2061;1172;2024
4014;2062;1172;2024
4015;2061;1173;2027
4016;2062;1173;2026
4017;2062;1173;2028
4018;2062;1174;2029
4019;2063;1174;2031
4020;2065;1174;2031
4021;2064;1175;2032
4022;2064;1175;2032
4023;2067;1175;2032
4024;2067;1176;2033
4025;2068;1177;2032
4026;2070;1177;2033
4027;2069;1177;2034
4028;2068;1178;2036
4029;2071;1177;2037
4030;2072;1177;2037
4031;2071;1178;2040
4032;2072;1178;2040
4033;2071;1179;2041
4034;2072;1179;2040
4035;2073;1179;2040
4036;2074;1179;2040
4037;2076;1178;2040
4038;2075;1179;2040
4039;2076;1180;2040
4040;2076;1180;2040
4041;2077;1180;2040
4042;2076;1181;2042
4043;2077;1181;2043
4044;2079;1181;2044
4045;2077;1182;2044
4046;2078;1182;2045
4047;2080;1182;2045
4048;2079;1182;2045
4049;2079;1182;2046
4050;2079;1182;2045
4051;2077;1183;2048
4052;2078;1183;2047
4053;2079;1183;2047
4054;2080;1184;2049
4055;2081;1184;2049
4056;2081;1184;2048
4057;2082;1185;2049
4058;2082;1185;2048
4059;2083;1185;2049
4060;2084;1185;2049
4061;2085;1186;2049
4062;2087;1186;2048
4063;2087;1186;2048
4064;2085;1187;2050
4065;2086;1187;2050
4066;2087;1188;2050
4067;2085;1188;2050
4068;2085;1188;2050
4069;2086;1189;2049
4070;2086;1189;2050
4071;2085;1190;2049
4072;2086;1190;2050
4073;2085;1190;2050
4074;2085;1191;2050
4075;2087;1190;2053
4076;2088;1190;2052
4077;2087;1192;2053
4078;2089;1192;2055
4079;2089;1192;2055
4080;2090;1193;2055
4081;2091;1193;2055
4082;2093;1193;2056
4083;2091;1194;2058
4084;2093;1195;2058
4085;2094;1195;2058
4086;2096;1195;2060
4087;2096;1196;2060
4088;2098;1196;2063
4089;2097;1195;2063
4090;2099;1196;2065
4091;2099;1196;2064
4092;2100;1196;2065
4093;2102;1197;2065
4094;2103;1197;2065
4095;2102;1197;2067
4096;2102;1198;2066
4097;2103;1198;2066
4098;2102;1198;2067
4099;2101;1199;2067
4100;2104;1199;2066
4101;2103;1199;2067
4102;2103;1200;2067
4103;2104;1200;2066
4104;2103;1200;2067
4105;2104;1201;2067
4106;2103;1202;2066
4107;2103;1202;2067
4108;2104;1203;2067
4109;2106;1203;2068
4110;2106;1204;2069
4111;2106;1204;2071
4112;2107;1205;2071
4113;2108;1205;2071
4114;2108;1206;2073
4115;2109;1206;2073
4116;2110;1206;2075
4117;2110;1207;2075
4118;2111;1208;2075
4119;2112;1208;2075
4120;2114;1208;2076
4121;2115;1208;2077
4122;2116;1208;2076
4123;2118;1208;2077
4124;2118;1209;2077
4125;2118;1210;2078
4126;2116;1211;2079
4127;2117;1211;2081
4128;2118;1211;2081
4129;2118;1212;2082
4130;2119;1212;2083
4131;2120;1212;2083
4132;2122;1212;2085
4133;2121;1212;2086
4134;2124;1211;2086
4135;2125;1212;2088
4136;2124;1212;2090
4137;2126;1212;2090
4138;2127;1213;2089
4139;2128;1213;2091
4140;2129;1213;2091
4141;2129;1214;2093
4142;2128;1214;2095
4143;2129;1214;2095
4144;2131;1215;2094
4145;2133;1215;2095
4146;2133;1215;2097
4147;2132;1215;2097
4148;2134;1215;2097
4149;2135;1215;2098
4150;2134;1216;2098
4151;2134;1216;2098
4152;2134;1215;2098
4153;2133;1215;2099
4154;2133;1215;2098
4155;2133;1215;2098
4156;2133;1216;2098
4157;2134;1216;2099
4158;2134;1216;2100
4159;2135;1217;2099
4160;2135;1217;2098
4161;2137;1217;2098
4162;2137;1218;2098
4163;2138;1218;2098
4164;2139;1219;2101
4165;2140;1219;2100
4166;2139;1220;2102
4167;2140;1220;2101
4168;2141;1220;2102
4169;2143;1220;2102
4170;2144;1221;2103
4171;2144;1222;2103
4172;2144;1222;2105
4173;2145;1223;2107
4174;2145;1223;2108
4175;2145;1224;2108
4176;2145;1224;2108
4177;2146;1224;2109
4178;2146;1225;2109
4179;2146;1225;2111
4180;2147;1225;2110
4181;2150;1225;2111
4182;2149;1226;2111
4183;2150;1226;2112
4184;2152;1226;2111
4185;2152;1227;2111
4186;2152;1228;2114
4187;2153;1228;2115
4188;2154;1228;2114
4189;2154;1228;2114
4190;2153;1229;2117
4191;2153;1229;2117
4192;2156;1229;2117
4193;2155;1230;2118
4194;2156;1230;2119
4195;2157;1230;2119
4196;2156;1231;2119
4197;2158;1232;2119
4198;2160;1233;2118
4199;2159;1232;2118
4200;2159;1233;2118
4201;2159;1233;2118
4202;2161;1233;2119
4203;2160;1234;2120
4204;2162;1233;2121
4205;2162;1235;2120
4206;2162;1235;2122
4207;2162;1236;2122
4208;2164;1236;2123
4209;2163;1236;2124
4210;2162;1237;2125
4211;2163;1238;2125
4212;2164;1238;2126
4213;2164;1238;2126
4214;2163;1239;2127
4215;2164;1240;2127
4216;2165;1240;2128
4217;2165;1240;2128
4218;2165;1241;2129
4219;2166;1241;2129
4220;2168;1241;2130
4221;2167;1241;2129
4222;2168;1241;2132
4223;2168;1241;2131
4224;2169;1242;2131
4225;2168;1242;2131
4226;2170;1242;2130
4227;2169;1243;2129
4228;2171;1243;2130
4229;2171;1243;2130
4230;2171;1243;2131
4231;2170;1242;2132
4232;2171;1242;2133
4233;2171;1243;2133
4234;2171;1243;2134
4235;2171;1242;2134
4236;2172;1244;2135
4237;2171;1244;2136
4238;2172;1244;2135
4239;2172;1245;2135
4240;2174;1245;2136
4241;2174;1245;2136
4242;2176;1246;2135
4243;2175;1246;2136
4244;2176;1246;2137
4245;2176;1247;2138
4246;2175;1246;2138
4247;2177;1246;2139
4248;2178;1247;2139
4249;2177;1246;2139
4250;2180;1246;2139
4251;2179;1247;2139
4252;2179;1247;2140
4253;2178;1247;2140
4254;2180;1248;2142
4255;2179;1249;2142
4256;2179;1249;2142
4257;2179;1249;2142
4258;2178;1250;2143
4259;2181;1250;2143
4260;2181;1250;2143
4261;2182;1251;2144
4262;2184;1251;2143
4263;2183;1251;2145
4264;2182;1252;2145
4265;2183;1252;2146
4266;2184;1252;2147
4267;2183;1252;2147
4268;2184;1252;2147
4269;2185;1252;2149
4270;2186;1253;2148
4271;2188;1254;2148
4272;2187;1253;2149
4273;2189;1254;2148
4274;2190;1254;2147
4275;2190;1255;2148
4276;2189;1255;2149
4277;2188;1256;2150
4278;2188;1256;2150
4279;2189;1257;2150
4280;2190;1257;2150
4281;2190;1257;2150
4282;2190;1257;2151
4283;2190;1257;2151
4284;2191;1258;2153
4285;2193;1258;2152
4286;2195;1259;2151
4287;2195;1259;2153
4288;2196;1259;2154
4289;2195;1260;2155
4290;2197;1260;2156
4291;2197;1260;2157
4292;2197;1261;2159
4293;2199;1261;2158
4294;2200;1261;2160
4295;2201;1262;2159
4296;2201;1262;2160
4297;2200;1262;2162
4298;2203;1263;2161
4299;2202;1264;2161
4300;2203;1264;2162
4301;2203;1264;2162
4302;2202;1264;2163
4303;2202;1264;2164
4304;2202;1264;2165
4305;2202;1265;2165
4306;2203;1265;2166
4307;2204;1265;2166
4308;2203;1266;2168
4309;2204;1267;2168
4310;2206;1267;2168
4311;2207;1267;2167
4312;2207;1268;2169
4313;2207;1268;2168
4314;2207;1268;2168
4315;2207;1269;2168
4316;2208;1270;2170
4317;2209;1270;2169
4318;2210;1270;2169
4319;2211;1270;2170
4320;2212;1271;2169
4321;2212;1271;2172
4322;2212;1271;2172
4323;2211;1271;2172
4324;2211;1271;2174
4325;2211;1272;2174
4326;2213;1271;2175
4327;2214;1271;2174
4328;2216;1272;2176
4329;2217;1272;2175
4330;2217;1274;2176
4331;2217;1274;2176
4332;2217;1273;2176
4333;2217;1275;2175
4334;2219;1275;2176
4335;2219;1274;2178
4336;2218;1275;2178
4337;2219;1275;2177
4338;2219;1275;2178
4339;2219;1276;2178
4340;2222;1276;2178
4341;2222;1276;2178
4342;2222;1277;2180
4343;2223;1277;2181
4344;2223;1277;2181
4345;2226;1278;2181
4346;2225;1278;2182
4347;2225;1278;2184
4348;2225;1278;2184
4349;2225;1278;2183
4350;2224;1277;2184
4351;2225;1278;2184
4352;2226;1277;2183
4353;2226;1276;2184
4354;2225;1277;2186
4355;2226;1277;2186
4356;2227;1277;2185
4357;2226;1278;2187
4358;2227;1278;2187
4359;2229;1279;2188
4360;2229;1279;2190
4361;2228;1280;2189
4362;2229;1281;2189
4363;2228;1281;2190
4364;2229;1280;2189
4365;2230;1281;2188
4366;2229;1282;2190
4367;2230;1282;2190
4368;2230;1281;2191
4369;2228;1282;2192
4370;2228;1282;2191
4371;2230;1282;2191
4372;2229;1283;2191
4373;2231;1283;2191
4374;2232;1282;2190
4375;2231;1282;2191
4376;2233;1282;2190
4377;2234;1282;2190
4378;2235;1283;2191
4379;2235;1284;2191
4380;2235;1284;2190
4381;2238;1284;2190
4382;2236;1284;2194
4383;2238;1284;2193
4384;2239;1283;2194
4385;2238;1284;2196
4386;2237;1284;2197
4387;2241;1283;2198
4388;2241;1284;2197
4389;2241;1284;2199
4390;2243;1284;2199
4391;2244;1284;2199
4392;2243;1285;2201
4393;2244;1285;2202
4394;2246;1284;2201
4395;2245;1284;2204
4396;2246;1283;2205
4397;2249;1284;2205
4398;2250;1284;2205
4399;2249;1284;2206
4400;2250;1284;2207
4401;2251;1284;2209
4402;2249;1284;2209
4403;2251;1285;2210
4404;2253;1285;2211
4405;2252;1285;2211
4406;2253;1284;2213
4407;2254;1285;2213
4408;2254;1285;2214
4409;2254;1285;2213
4410;2254;1285;2214
4411;2253;1286;2214
4412;2255;1287;2215
4413;2255;1287;2217
4414;2255;1287;2217
4415;2255;1288;2216
4416;2257;1288;2217
4417;2257;1288;2217
4418;2259;1289;2219
4419;2260;1289;2218
4420;2263;1289;2219
4421;2262;1290;2220
4422;2264;1290;2221
4423;2264;1290;2221
4424;2264;1291;2221
4425;2263;1291;2222
4426;2263;1291;2223
4427;2266;1292;2225
4428;2267;1293;2224
4429;2269;1293;2226
4430;2269;1293;2226
4431;2271;1294;2226
4432;2271;1295;2227
4433;2271;1294;2228
4434;2271;1294;2227
4435;2272;1295;2228
4436;2272;1294;2229
4437;2273;1295;2229
4438;2273;1295;2229
4439;2274;1296;2232
4440;2274;1296;2233
4441;2276;1296;2234
4442;2275;1297;2234
4443;2277;1297;2233
4444;2278;1297;2233
4445;2277;1298;2234
4446;2277;1298;2234
4447;2278;1299;2235
4448;2278;1300;2236
4449;2280;1300;2237
4450;2279;1301;2237
4451;2279;1301;2240
4452;2279;1301;2239
4453;2281;1302;2239
4454;2279;1303;2240
4455;2280;1303;2240
4456;2281;1304;2240
4457;2282;1304;2242
4458;2282;1304;2242
4459;2285;1303;2243
4460;2287;1304;2242
4461;2287;1304;2241
4462;2286;1305;2243
4463;2288;1305;2244
4464;2288;1305;2245
4465;2288;1306;2248
4466;2289;1306;2247
4467;2291;1306;2248
4468;2290;1307;2249
4469;2292;1306;2249
4470;2292;1306;2248
4471;2292;1307;2249
4472;2292;1307;2250
4473;2294;1307;2250
4474;2294;1308;2250
4475;2296;1309;2252
4476;2295;1309;2253
4477;2297;1309;2255
4478;2298;1310;2255
4479;2299;1310;2256
4480;2299;1310;2257
4481;2299;1311;2257
4482;2300;1311;2257
4483;2301;1311;2258
4484;2301;1312;2258
4485;2302;1311;2260
4486;2303;1311;2262
4487;2302;1312;2261
4488;2301;1312;2262
4489;2301;1311;2261
4490;2303;1311;2262
4491;2302;1310;2263
4492;2306;1311;2263
4493;2305;1311;2263
4494;2305;1311;2264
4495;2305;1311;2264
4496;2306;1312;2264
4497;2307;1312;2265
4498;2306;1312;2266
4499;2307;1313;2266
4500;2308;1313;2266
4501;2307;1313;2267
4502;2308;1313;2267
4503;2309;1313;2268
4504;2310;1314;2268
4505;2311;1315;2267
4506;2312;1316;2268
4507;2311;1316;2269
4508;2312;1315;2269
4509;2312;1316;2269
4510;2311;1317;2271
4511;2312;1317;2271
4512;2312;1318;2270
4513;2311;1318;2272
4514;2313;1319;2271
4515;2314;1319;2271
4516;2313;1320;2272
4517;2314;1319;2271
4518;2316;1320;2272
4519;2316;1320;2274
4520;2315;1321;2275
4521;2316;1322;2274
4522;2316;1322;2273
4523;2318;1321;2273
4524;2318;1323;2272
4525;2318;1324;2275
4526;2318;1323;2275
4527;2317;1323;2275
4528;2319;1324;2276
4529;2319;1324;2275
4530;2320;1325;2276
4531;2320;1326;2277
4532;2322;1326;2277
4533;2322;1326;2279
4534;2321;1327;2279
4535;2322;1327;2282
4536;2322;1327;2282
4537;2321;1328;2281
4538;2322;1327;2283
4539;2322;1327;2283
4540;2324;1328;2282
4541;2324;1328;2283
4542;2324;1328;2283
4543;2324;1329;2283
4544;2325;1329;2283
4545;2325;1329;2283
4546;2325;1329;2282
4547;2326;1329;2283
4548;2326;1328;2283
4549;2327;1329;2284
4550;2328;1329;2283
4551;2328;1330;2284
4552;2327;1330;2284
4553;2329;1330;2284
4554;2329;1330;2285
4555;2329;1330;2285
4556;2329;1330;2286
4557;2329;1330;2287
4558;2328;1331;2289
4559;2330;1331;2288
4560;2330;1330;2288
4561;2328;1331;2289
4562;2329;1331;2290
4563;2330;1331;2290
4564;2330;1332;2290
4565;2333;1332;2291
4566;2333;1332;2291
4567;2333;1333;2291
4568;2333;1334;2292
4569;2335;1334;2291
4570;2335;1334;2292
4571;2336;1335;2292
4572;2337;1336;2292
4573;2337;1336;2293
4574;2336;1336;2294
4575;2336;1336;2293
4576;2336;1336;2294
4577;2338;1337;2294
4578;2338;1337;2293
4579;2338;1337;2295
4580;2339;1338;2294
4581;2338;1339;2294
4582;2337;1339;2296
4583;2337;1339;2296
4584;2338;1340;2296
4585;2337;1340;2297
4586;2340;1340;2298
4587;2339;1341;2297
4588;2341;1341;2298
4589;2341;1341;2299
4590;2341;1342;2299
4591;2341;1342;2300
4592;2341;1342;2300
4593;2341;1343;2300
4594;2341;1343;2301
4595;2343;1343;2301
4596;2343;1344;2301
4597;2345;1344;2302
4598;2345;1344;2303
4599;2347;1345;2304
4600;2347;1346;2304
4601;2348;1347;2304
4602;2350;1347;2305
4603;2350;1347;2305
4604;2350;1347;2305
4605;2350;1347;2305
4606;2351;1347;2307
4607;2352;1347;2306
4608;2352;1348;2307
4609;2351;1349;2308
4610;2353;1349;2308
4611;2353;1349;2309
4612;2352;1349;2311
4613;2353;1349;2310
4614;2355;1350;2312
4615;2355;1350;2313
4616;2356;1350;2314
4617;2356;1351;2315
4618;2357;1351;2315
4619;2359;1351;2316
4620;2359;1352;2315
4621;2361;1352;2317
4622;2362;1352;2316
4623;2364;1353;2318
4624;2364;1354;2318
4625;2365;1355;2320
4626;2366;1355;2320
4627;2368;1355;2320
4628;2367;1355;2321
4629;2368;1356;2323
4630;2368;1357;2324
4631;2368;1357;2325
4632;2368;1358;2324
4633;2370;1358;2325
4634;2370;1358;2325
4635;2369;1359;2326
4636;2369;1359;2327
4637;2370;1359;2328
4638;2372;1360;2328
4639;2374;1360;2327
4640;2373;1360;2327
4641;2373;1361;2328
4642;2373;1361;2328
4643;2375;1362;2329
4644;2374;1362;2330
4645;2376;1362;2331
4646;2376;1363;2332
4647;2379;1364;2332
4648;2380;1364;2333
4649;2381;1364;2333
4650;2382;1365;2333
4651;2382;1366;2334
4652;2382;1365;2337
4653;2383;1365;2336
4654;2384;1366;2338
4655;2385;1366;2337
4656;2386;1366;2337
4657;2385;1366;2339
4658;2384;1366;2339
4659;2385;1367;2338
4660;2384;1367;2339
4661;2384;1367;2340
4662;2387;1366;2339
4663;2388;1367;2338
4664;2388;1367;2339
4665;2387;1369;2340
4666;2388;1369;2339
4667;2388;1369;2341
4668;2388;1370;2340
4669;2387;1371;2341
4670;2387;1371;2341
4671;2387;1371;2343
4672;2387;1372;2344
4673;2389;1373;2345
4674;2388;1372;2346
4675;2391;1372;2346
4676;2391;1372;2345
4677;2394;1373;2346
4678;2394;1373;2346
4679;2396;1374;2348
4680;2397;1374;2350
4681;2397;1374;2351
4682;2396;1375;2351
4683;2398;1375;2351
4684;2398;1375;2353
4685;2399;1376;2352
4686;2399;1377;2353
4687;2399;1377;2354
4688;2400;1378;2355
4689;2402;1379;2356
4690;2403;1379;2356
4691;2404;1380;2356
4692;2404;1380;2357
4693;2405;1380;2358
4694;2406;1381;2360
4695;2406;1382;2359
4696;2408;1382;2361
4697;2408;1382;2363
4698;2411;1383;2363
4699;2411;1383;2362
4700;2412;1383;2366
4701;2411;1384;2366
4702;2415;1384;2367
4703;2415;1384;2367
4704;2416;1385;2367
4705;2417;1385;2367
4706;2418;1385;2367
4707;2417;1385;2368
4708;2417;1384;2369
4709;2418;1383;2368
4710;2417;1383;2368
4711;2418;1383;2367
4712;2419;1382;2368
4713;2418;1384;2370
4714;2419;1384;2370
4715;2420;1384;2371
4716;2419;1385;2371
4717;2419;1385;2372
4718;2420;1385;2372
4719;2419;1386;2372
4720;2419;1386;2373
4721;2420;1386;2372
4722;2422;1387;2373
4723;2420;1388;2374
4724;2420;1388;2375
4725;2422;1388;2375
4726;2426;1389;2374
4727;2426;1389;2374
4728;2426;1389;2376
4729;2427;1389;2377
4730;2426;1390;2377
4731;2426;1391;2378
4732;2427;1391;2378
4733;2426;1391;2380
4734;2427;1392;2379
4735;2429;1392;2378
4736;2429;1392;2381
4737;2428;1393;2381
4738;2428;1393;2381
4739;2429;1393;2382
4740;2429;1394;2382
4741;2431;1394;2381
4742;2432;1394;2382
4743;2432;1394;2383
4744;2433;1394;2385
4745;2433;1394;2385
4746;2432;1395;2385
4747;2434;1395;2385
4748;2433;1395;2387
4749;2433;1396;2386
4750;2435;1397;2385
4751;2434;1398;2388
4752;2436;1398;2387
4753;2439;1399;2386
4754;2438;1399;2387
4755;2438;1400;2389
4756;2439;1400;2388
4757;2438;1400;2390
4758;2439;1401;2390
4759;2440;1401;2391
4760;2442;1401;2392
4761;2440;1402;2392
4762;2441;1402;2394
4763;2443;1402;2394
4764;2442;1403;2395
4765;2442;1402;2395
4766;2443;1402;2394
4767;2442;1403;2394
4768;2444;1403;2395
4769;2444;1403;2394
4770;2443;1404;2395
4771;2444;1404;2395
4772;2445;1404;2396
4773;2443;1405;2397
4774;2444;1405;2396
4775;2446;1405;2395
4776;2448;1406;2396
4777;2448;1406;2398
4778;2448;1406;2397
4779;2450;1407;2398
4780;2448;1407;2399
4781;2449;1407;2401
4782;2449;1408;2400
4783;2450;1408;2401
4784;2452;1407;2402
4785;2451;1408;2402
4786;2452;1407;2402
4787;2451;1407;2403
4788;2453;1408;2404
4789;2453;1408;2404
4790;2454;1407;2405
4791;2454;1408;2405
4792;2455;1407;2405
4793;2455;1407;2407
4794;2455;1408;2407
4795;2457;1408;2407
4796;2456;1407;2407
4797;2456;1408;2409
4798;2458;1408;2408
4799;2458;1408;2408
4800;2460;1408;2409
4801;2460;1408;2409
4802;2461;1408;2411
4803;2459;1410;2412
4804;2462;1410;2414
4805;2463;1410;2414
4806;2463;1411;2415
4807;2462;1410;2415
4808;2463;1410;2415
4809;2463;1411;2415
4810;2463;1410;2416
4811;2464;1410;2417
4812;2466;1411;2416
4813;2465;1411;2417
4814;2467;1411;2420
4815;2467;1411;2420
4816;2468;1412;2420
4817;2468;1413;2421
4818;2468;1413;2422
4819;2470;1412;2421
4820;2469;1413;2421
4821;2469;1413;2422
4822;2470;1413;2422
4823;2471;1414;2421
4824;2472;1414;2422
4825;2474;1414;2422
4826;2476;1415;2422
4827;2474;1416;2423
4828;2475;1416;2423
4829;2475;1416;2427
4830;2474;1417;2428
4831;2475;1417;2429
4832;2477;1417;2428
4833;2478;1418;2428
4834;2478;1418;2431
4835;2479;1418;2430
4836;2481;1418;2431
4837;2481;1419;2431
4838;2481;1419;2430
4839;2481;1419;2430
4840;2479;1420;2431
4841;2480;1420;2431
4842;2480;1420;2431
4843;2480;1421;2433
4844;2484;1421;2433
4845;2484;1421;2433
4846;2483;1422;2434
4847;2484;1422;2434
4848;2486;1423;2435
4849;2485;1423;2438
4850;2484;1424;2437
4851;2485;1423;2439
4852;2485;1423;2440
4853;2485;1424;2440
4854;2486;1424;2439
4855;2487;1423;2439
4856;2487;1424;2440
4857;2487;1424;2440
4858;2490;1423;2440
4859;2490;1425;2439
4860;2489;1425;2443
4861;2489;1425;2444
4862;2490;1425;2443
4863;2491;1425;2445
4864;2492;1425;2445
4865;2491;1426;2444
4866;2491;1426;2446
4867;2492;1426;2445
4868;2493;1427;2444
4869;2493;1427;2445
4870;2494;1427;2445
4871;2494;1427;2446
4872;2494;1427;2447
4873;2495;1429;2446
4874;2495;1429;2447
4875;2496;1430;2448
4876;2497;1430;2448
4877;2498;1430;2449
4878;2500;1431;2451
4879;2500;1432;2451
4880;2501;1432;2451
4881;2502;1432;2453
4882;2502;1433;2455
4883;2502;1434;2455
4884;2503;1433;2456
4885;2504;1433;2455
4886;2505;1434;2456
4887;2504;1434;2457
4888;2505;1434;2457
4889;2505;1435;2456
4890;2505;1435;2457
4891;2506;1435;2457
4892;2506;1435;2457
4893;2508;1436;2457
4894;2507;1436;2457
4895;2506;1437;2457
4896;2506;1437;2458
4897;2506;1437;2460
4898;2506;1438;2459
4899;2508;1439;2458
4900;2508;1439;2459
4901;2509;1438;2459
4902;2509;1439;2459
4903;2508;1440;2460
4904;2508;1440;2461
4905;2508;1441;2461
4906;2511;1441;2463
4907;2511;1441;2463
4908;2514;1442;2462
4909;2513;1443;2463
4910;2515;1443;2463
4911;2516;1443;2464
4912;2514;1443;2464
4913;2516;1442;2465
4914;2516;1443;2466
4915;2515;1444;2466
4916;2517;1444;2466
4917;2517;1444;2466
4918;2517;1445;2467
4919;2518;1445;2467
4920;2519;1445;2468
4921;2518;1445;2469
4922;2519;1445;2471
4923;2521;1445;2472
4924;2521;1446;2474
4925;2520;1446;2476
4926;2522;1447;2476
4927;2523;1448;2475
4928;2524;1448;2475
4929;2524;1449;2476
4930;2525;1449;2478
4931;2528;1449;2477
4932;2528;1450;2478
4933;2527;1451;2478
4934;2527;1451;2478
4935;2529;1451;2480
4936;2528;1452;2480
4937;2529;1452;2480
4938;2528;1452;2480
4939;2528;1453;2480
4940;2530;1453;2480
4941;2530;1453;2481
4942;2531;1454;2482
4943;2530;1454;2482
4944;2531;1454;2481
4945;2530;1454;2482
4946;2530;1454;2481
4947;2529;1455;2480
4948;2528;1455;2481
4949;2530;1455;2481
4950;2530;1456;2481
4951;2531;1456;2482
4952;2534;1456;2481
4953;2535;1457;2481
4954;2534;1457;2484
4955;2536;1458;2486
4956;2538;1458;2485
4957;2537;1459;2487
4958;2538;1459;2489
4959;2540;1459;2489
4960;2540;1460;2491
4961;2541;1460;2491
4962;2542;1460;2491
4963;2542;1461;2492
4964;2543;1461;2493
4965;2544;1461;2494
4966;2544;1462;2494
4967;2545;1462;2494
4968;2545;1462;2494
4969;2546;1463;2494
4970;2547;1462;2494
4971;2547;1461;2496
4972;2548;1462;2496
4973;2548;1461;2498
4974;2548;1461;2498
4975;2549;1461;2499
4976;2549;1461;2500
4977;2549;1461;2501
4978;2550;1462;2500
4979;2550;1462;2503
4980;2553;1462;2503
4981;2553;1463;2504
4982;2553;1464;2505
4983;2554;1464;2504
4984;2557;1464;2506
4985;2557;1465;2507
4986;2558;1465;2507
4987;2559;1464;2507
4988;2557;1465;2508
4989;2559;1465;2509
4990;2559;1465;2509
4991;2559;1466;2510
4992;2559;1466;2509
4993;2560;1466;2509
4994;2560;1467;2509
4995;2559;1467;2510
4996;2560;1468;2509
4997;2562;1469;2508
4998;2561;1469;2508
4999;2561;1469;2508
