e4;0.5;0.5;0.5;48;0.0096;0.5;0.5;0.01;0.1;0.01;152.542
e6;0.5;0.5;0.5;7;0.0014;0.5;0.5;0.001;0.1;0.01;151.571
e4;0.5;0.5;0.5;162;0.0324;0.5;0.5;0.0344444;0.1;0.0344444;152.444
e6;0.5;0.5;0.5;11;0.0022;0.5;0.5;0.00344444;0.1;0.0344444;152.182
e4;0.5;0.5;0.5;290;0.058;0.5;0.5;0.0588889;0.1;0.0588889;152.772
e6;0.5;0.5;0.5;24;0.0048;0.5;0.5;0.00588889;0.1;0.0588889;152.333
e4;0.5;0.5;0.5;390;0.078;0.5;0.5;0.0833333;0.1;0.0833333;153.133
e6;0.5;0.5;0.5;36;0.0072;0.5;0.5;0.00833333;0.1;0.0833333;152.028
e4;0.5;0.5;0.5;537;0.1074;0.5;0.5;0.107778;0.1;0.107778;153.266
e6;0.5;0.5;0.5;47;0.0094;0.5;0.5;0.0107778;0.1;0.107778;152.17
e4;0.5;0.5;0.5;639;0.1278;0.5;0.5;0.132222;0.1;0.132222;153.634
e6;0.5;0.5;0.5;64;0.0128;0.5;0.5;0.0132222;0.1;0.132222;152.547
e4;0.5;0.5;0.5;709;0.1418;0.5;0.5;0.156667;0.1;0.156667;153.625
e6;0.5;0.5;0.5;71;0.0142;0.5;0.5;0.0156667;0.1;0.156667;152.944
e4;0.5;0.5;0.5;899;0.1798;0.5;0.5;0.181111;0.1;0.181111;155.039
e6;0.5;0.5;0.5;106;0.0212;0.5;0.5;0.0181111;0.1;0.181111;153
e4;0.5;0.5;0.5;980;0.196;0.5;0.5;0.205556;0.1;0.205556;155.092
e6;0.5;0.5;0.5;91;0.0182;0.5;0.5;0.0205556;0.1;0.205556;153.176
e4;0.5;0.5;0.5;1136;0.2272;0.5;0.5;0.23;0.1;0.23;155.349
e6;0.5;0.5;0.5;117;0.0234;0.5;0.5;0.023;0.1;0.23;153.966
e4;0.5;0.5;0.5;26;0.0052;0.5;0.5;0.01;0.25;0.01;152.423
e6;0.5;0.5;0.5;15;0.003;0.5;0.5;0.0025;0.25;0.01;151.933
e4;0.5;0.5;0.5;181;0.0362;0.5;0.5;0.0344444;0.25;0.0344444;152.503
e6;0.5;0.5;0.5;43;0.0086;0.5;0.5;0.00861111;0.25;0.0344444;151.628
e4;0.5;0.5;0.5;316;0.0632;0.5;0.5;0.0588889;0.25;0.0588889;152.608
e6;0.5;0.5;0.5;75;0.015;0.5;0.5;0.0147222;0.25;0.0588889;151.867
e4;0.5;0.5;0.5;412;0.0824;0.5;0.5;0.0833333;0.25;0.0833333;153.291
e6;0.5;0.5;0.5;112;0.0224;0.5;0.5;0.0208333;0.25;0.0833333;151.75
e4;0.5;0.5;0.5;479;0.0958;0.5;0.5;0.107778;0.25;0.107778;153.28
e6;0.5;0.5;0.5;126;0.0252;0.5;0.5;0.0269444;0.25;0.107778;152.77
e4;0.5;0.5;0.5;667;0.1334;0.5;0.5;0.132222;0.25;0.132222;153.85
e6;0.5;0.5;0.5;147;0.0294;0.5;0.5;0.0330556;0.25;0.132222;152.102
e4;0.5;0.5;0.5;770;0.154;0.5;0.5;0.156667;0.25;0.156667;154.518
e6;0.5;0.5;0.5;199;0.0398;0.5;0.5;0.0391667;0.25;0.156667;153.528
e4;0.5;0.5;0.5;843;0.1686;0.5;0.5;0.181111;0.25;0.181111;154.696
e6;0.5;0.5;0.5;251;0.0502;0.5;0.5;0.0452778;0.25;0.181111;153.275
e4;0.5;0.5;0.5;1003;0.2006;0.5;0.5;0.205556;0.25;0.205556;156.338
e6;0.5;0.5;0.5;267;0.0534;0.5;0.5;0.0513889;0.25;0.205556;154.097
e4;0.5;0.5;0.5;1154;0.2308;0.5;0.5;0.23;0.25;0.23;157.017
e6;0.5;0.5;0.5;288;0.0576;0.5;0.5;0.0575;0.25;0.23;155.34
e4;0.5;0.5;0.5;57;0.0114;0.5;0.5;0.01;0.5;0.01;152.123
e6;0.5;0.5;0.5;24;0.0048;0.5;0.5;0.005;0.5;0.01;151.375
e4;0.5;0.5;0.5;158;0.0316;0.5;0.5;0.0344444;0.5;0.0344444;152.57
e6;0.5;0.5;0.5;77;0.0154;0.5;0.5;0.0172222;0.5;0.0344444;151.792
e4;0.5;0.5;0.5;294;0.0588;0.5;0.5;0.0588889;0.5;0.0588889;152.752
e6;0.5;0.5;0.5;142;0.0284;0.5;0.5;0.0294444;0.5;0.0588889;152.317
e4;0.5;0.5;0.5;403;0.0806;0.5;0.5;0.0833333;0.5;0.0833333;153.417
e6;0.5;0.5;0.5;192;0.0384;0.5;0.5;0.0416667;0.5;0.0833333;152.781
e4;0.5;0.5;0.5;580;0.116;0.5;0.5;0.107778;0.5;0.107778;153.972
e6;0.5;0.5;0.5;259;0.0518;0.5;0.5;0.0538889;0.5;0.107778;152.587
e4;0.5;0.5;0.5;665;0.133;0.5;0.5;0.132222;0.5;0.132222;154.305
e6;0.5;0.5;0.5;316;0.0632;0.5;0.5;0.0661111;0.5;0.132222;152.668
e4;0.5;0.5;0.5;768;0.1536;0.5;0.5;0.156667;0.5;0.156667;154.882
e6;0.5;0.5;0.5;378;0.0756;0.5;0.5;0.0783333;0.5;0.156667;153.439
e4;0.5;0.5;0.5;836;0.1672;0.5;0.5;0.181111;0.5;0.181111;155.31
e6;0.5;0.5;0.5;436;0.0872;0.5;0.5;0.0905556;0.5;0.181111;153.938
e4;0.5;0.5;0.5;969;0.1938;0.5;0.5;0.205556;0.5;0.205556;157.059
e6;0.5;0.5;0.5;462;0.0924;0.5;0.5;0.102778;0.5;0.205556;154.844
e4;0.5;0.5;0.5;1073;0.2146;0.5;0.5;0.23;0.5;0.23;157.934
e6;0.5;0.5;0.5;557;0.1114;0.5;0.5;0.115;0.5;0.23;156.549
e4;0.5;0.5;0.5;63;0.0126;0.5;0.5;0.01;0.75;0.01;152.349
e6;0.5;0.5;0.5;37;0.0074;0.5;0.5;0.0075;0.75;0.01;151.973
e4;0.5;0.5;0.5;188;0.0376;0.5;0.5;0.0344444;0.75;0.0344444;152.723
e6;0.5;0.5;0.5;129;0.0258;0.5;0.5;0.0258333;0.75;0.0344444;152.14
e4;0.5;0.5;0.5;293;0.0586;0.5;0.5;0.0588889;0.75;0.0588889;152.962
e6;0.5;0.5;0.5;207;0.0414;0.5;0.5;0.0441667;0.75;0.0588889;152.087
e4;0.5;0.5;0.5;404;0.0808;0.5;0.5;0.0833333;0.75;0.0833333;153.248
e6;0.5;0.5;0.5;293;0.0586;0.5;0.5;0.0625;0.75;0.0833333;152.785
e4;0.5;0.5;0.5;533;0.1066;0.5;0.5;0.107778;0.75;0.107778;153.887
e6;0.5;0.5;0.5;431;0.0862;0.5;0.5;0.0808333;0.75;0.107778;153.445
e4;0.5;0.5;0.5;606;0.1212;0.5;0.5;0.132222;0.75;0.132222;154.723
e6;0.5;0.5;0.5;502;0.1004;0.5;0.5;0.0991667;0.75;0.132222;154.193
e4;0.5;0.5;0.5;731;0.1462;0.5;0.5;0.156667;0.75;0.156667;155.005
e6;0.5;0.5;0.5;609;0.1218;0.5;0.5;0.1175;0.75;0.156667;154.757
e4;0.5;0.5;0.5;879;0.1758;0.5;0.5;0.181111;0.75;0.181111;157.794
e6;0.5;0.5;0.5;627;0.1254;0.5;0.5;0.135833;0.75;0.181111;156.206
e4;0.5;0.5;0.5;983;0.1966;0.5;0.5;0.205556;0.75;0.205556;158.831
e6;0.5;0.5;0.5;714;0.1428;0.5;0.5;0.154167;0.75;0.205556;157.308
e4;0.5;0.5;0.5;1066;0.2132;0.5;0.5;0.23;0.75;0.23;160.581
e6;0.5;0.5;0.5;857;0.1714;0.5;0.5;0.1725;0.75;0.23;159.197
e4;0.5;0.5;0.5;46;0.0092;0.5;0.5;0.01;1;0.01;152.239
e6;0.5;0.5;0.5;51;0.0102;0.5;0.5;0.01;1;0.01;151.51
e4;0.5;0.5;0.5;150;0.03;0.5;0.5;0.0322222;1;0.0322222;152.533
e6;0.5;0.5;0.5;131;0.0262;0.5;0.5;0.0322222;1;0.0322222;151.84
e4;0.5;0.5;0.5;279;0.0558;0.5;0.5;0.0544444;1;0.0544444;153.014
e6;0.5;0.5;0.5;266;0.0532;0.5;0.5;0.0544444;1;0.0544444;151.989
e4;0.5;0.5;0.5;363;0.0726;0.5;0.5;0.0766667;1;0.0766667;153.51
e6;0.5;0.5;0.5;391;0.0782;0.5;0.5;0.0766667;1;0.0766667;152.747
e4;0.5;0.5;0.5;467;0.0934;0.5;0.5;0.0988889;1;0.0988889;153.82
e6;0.5;0.5;0.5;485;0.097;0.5;0.5;0.0988889;1;0.0988889;153.049
e4;0.5;0.5;0.5;582;0.1164;0.5;0.5;0.121111;1;0.121111;155.002
e6;0.5;0.5;0.5;596;0.1192;0.5;0.5;0.121111;1;0.121111;153.805
e4;0.5;0.5;0.5;683;0.1366;0.5;0.5;0.143333;1;0.143333;155.921
e6;0.5;0.5;0.5;714;0.1428;0.5;0.5;0.143333;1;0.143333;155.263
e4;0.5;0.5;0.5;810;0.162;0.5;0.5;0.165556;1;0.165556;157.322
e6;0.5;0.5;0.5;797;0.1594;0.5;0.5;0.165556;1;0.165556;156.729
e4;0.5;0.5;0.5;932;0.1864;0.5;0.5;0.187778;1;0.187778;159.403
e6;0.5;0.5;0.5;875;0.175;0.5;0.5;0.187778;1;0.187778;158.753
e4;0.5;0.5;0.5;992;0.1984;0.5;0.5;0.21;1;0.21;165.373
e6;0.5;0.5;0.5;960;0.192;0.5;0.5;0.21;1;0.21;162.131
e4;0.5;0.5;0.5;52;0.0104;0.5;0.5;0.01;2;0.01;152.308
e6;0.5;0.5;0.5;111;0.0222;0.5;0.5;0.02;2;0.01;151.802
e4;0.5;0.5;0.5;96;0.0192;0.5;0.5;0.0205556;2;0.0205556;152.354
e6;0.5;0.5;0.5;201;0.0402;0.5;0.5;0.0411111;2;0.0205556;151.98
e4;0.5;0.5;0.5;133;0.0266;0.5;0.5;0.0311111;2;0.0311111;152.737
e6;0.5;0.5;0.5;305;0.061;0.5;0.5;0.0622222;2;0.0311111;152.643
e4;0.5;0.5;0.5;211;0.0422;0.5;0.5;0.0416667;2;0.0416667;153.137
e6;0.5;0.5;0.5;391;0.0782;0.5;0.5;0.0833333;2;0.0416667;152.501
e4;0.5;0.5;0.5;249;0.0498;0.5;0.5;0.0522222;2;0.0522222;153.108
e6;0.5;0.5;0.5;525;0.105;0.5;0.5;0.104444;2;0.0522222;153.013
e4;0.5;0.5;0.5;299;0.0598;0.5;0.5;0.0627778;2;0.0627778;153.843
e6;0.5;0.5;0.5;630;0.126;0.5;0.5;0.125556;2;0.0627778;153.397
e4;0.5;0.5;0.5;363;0.0726;0.5;0.5;0.0733333;2;0.0733333;154.116
e6;0.5;0.5;0.5;692;0.1384;0.5;0.5;0.146667;2;0.0733333;154.046
e4;0.5;0.5;0.5;445;0.089;0.5;0.5;0.0838889;2;0.0838889;154.342
e6;0.5;0.5;0.5;788;0.1576;0.5;0.5;0.167778;2;0.0838889;153.801
e4;0.5;0.5;0.5;445;0.089;0.5;0.5;0.0944444;2;0.0944444;154.463
e6;0.5;0.5;0.5;906;0.1812;0.5;0.5;0.188889;2;0.0944444;154.887
e4;0.5;0.5;0.5;540;0.108;0.5;0.5;0.105;2;0.105;156.139
e6;0.5;0.5;0.5;1029;0.2058;0.5;0.5;0.21;2;0.105;155.948
