e4;1;0.25;0.25;53;0.0106;0.5;2;0.01;0.1;0.01;154.283
e6;1;0.25;0.25;5;0.001;0.5;2;0.001;0.1;0.01;151.8
e4;1;0.25;0.25;147;0.0294;0.5;2;0.0333333;0.1;0.0333333;154.163
e6;1;0.25;0.25;20;0.004;0.5;2;0.00333333;0.1;0.0333333;152
e4;1;0.25;0.25;295;0.059;0.5;2;0.0566667;0.1;0.0566667;155.529
e6;1;0.25;0.25;29;0.0058;0.5;2;0.00566667;0.1;0.0566667;154.414
e4;1;0.25;0.25;400;0.08;0.5;2;0.08;0.1;0.08;155.787
e6;1;0.25;0.25;39;0.0078;0.5;2;0.008;0.1;0.08;154.154
e4;1;0.25;0.25;518;0.1036;0.5;2;0.103333;0.1;0.103333;156.714
e6;1;0.25;0.25;47;0.0094;0.5;2;0.0103333;0.1;0.103333;154.638
e4;1;0.25;0.25;655;0.131;0.5;2;0.126667;0.1;0.126667;158.91
e6;1;0.25;0.25;57;0.0114;0.5;2;0.0126667;0.1;0.126667;154.175
e4;1;0.25;0.25;710;0.142;0.5;2;0.15;0.1;0.15;160.118
e6;1;0.25;0.25;82;0.0164;0.5;2;0.015;0.1;0.15;153.024
e4;1;0.25;0.25;801;0.1602;0.5;2;0.173333;0.1;0.173333;163.137
e6;1;0.25;0.25;85;0.017;0.5;2;0.0173333;0.1;0.173333;153.306
e4;1;0.25;0.25;973;0.1946;0.5;2;0.196667;0.1;0.196667;174.355
e6;1;0.25;0.25;92;0.0184;0.5;2;0.0196667;0.1;0.196667;153.217
e4;1;0.25;0.25;1052;0.2104;0.5;2;0.22;0.1;0.22;185.815
e6;1;0.25;0.25;94;0.0188;0.5;2;0.022;0.1;0.22;153.298
e4;1;0.25;0.25;48;0.0096;0.5;2;0.01;0.25;0.01;153.521
e6;1;0.25;0.25;19;0.0038;0.5;2;0.0025;0.25;0.01;152.105
e4;1;0.25;0.25;154;0.0308;0.5;2;0.0333333;0.25;0.0333333;154.032
e6;1;0.25;0.25;35;0.007;0.5;2;0.00833333;0.25;0.0333333;152.4
e4;1;0.25;0.25;284;0.0568;0.5;2;0.0566667;0.25;0.0566667;154.585
e6;1;0.25;0.25;60;0.012;0.5;2;0.0141667;0.25;0.0566667;154.283
e4;1;0.25;0.25;369;0.0738;0.5;2;0.08;0.25;0.08;155.775
e6;1;0.25;0.25;92;0.0184;0.5;2;0.02;0.25;0.08;152.62
e4;1;0.25;0.25;506;0.1012;0.5;2;0.103333;0.25;0.103333;157.158
e6;1;0.25;0.25;146;0.0292;0.5;2;0.0258333;0.25;0.103333;154.068
e4;1;0.25;0.25;608;0.1216;0.5;2;0.126667;0.25;0.126667;157.278
e6;1;0.25;0.25;169;0.0338;0.5;2;0.0316667;0.25;0.126667;153.781
e4;1;0.25;0.25;735;0.147;0.5;2;0.15;0.25;0.15;160.433
e6;1;0.25;0.25;208;0.0416;0.5;2;0.0375;0.25;0.15;153.995
e4;1;0.25;0.25;789;0.1578;0.5;2;0.173333;0.25;0.173333;162.535
e6;1;0.25;0.25;190;0.038;0.5;2;0.0433333;0.25;0.173333;154.942
e4;1;0.25;0.25;943;0.1886;0.5;2;0.196667;0.25;0.196667;173.987
e6;1;0.25;0.25;241;0.0482;0.5;2;0.0491667;0.25;0.196667;154.78
e4;1;0.25;0.25;1059;0.2118;0.5;2;0.22;0.25;0.22;200.063
e6;1;0.25;0.25;258;0.0516;0.5;2;0.055;0.25;0.22;154.829
e4;1;0.25;0.25;31;0.0062;0.5;2;0.01;0.5;0.01;153.097
e6;1;0.25;0.25;28;0.0056;0.5;2;0.005;0.5;0.01;152.071
e4;1;0.25;0.25;152;0.0304;0.5;2;0.0333333;0.5;0.0333333;153.868
e6;1;0.25;0.25;80;0.016;0.5;2;0.0166667;0.5;0.0333333;153.225
e4;1;0.25;0.25;256;0.0512;0.5;2;0.0566667;0.5;0.0566667;155.074
e6;1;0.25;0.25;130;0.026;0.5;2;0.0283333;0.5;0.0566667;153.185
e4;1;0.25;0.25;353;0.0706;0.5;2;0.08;0.5;0.08;155.637
e6;1;0.25;0.25;162;0.0324;0.5;2;0.04;0.5;0.08;153.741
e4;1;0.25;0.25;518;0.1036;0.5;2;0.103333;0.5;0.103333;156.834
e6;1;0.25;0.25;258;0.0516;0.5;2;0.0516667;0.5;0.103333;154.76
e4;1;0.25;0.25;612;0.1224;0.5;2;0.126667;0.5;0.126667;157.685
e6;1;0.25;0.25;266;0.0532;0.5;2;0.0633333;0.5;0.126667;153.959
e4;1;0.25;0.25;771;0.1542;0.5;2;0.15;0.5;0.15;160.07
e6;1;0.25;0.25;379;0.0758;0.5;2;0.075;0.5;0.15;156.224
e4;1;0.25;0.25;867;0.1734;0.5;2;0.173333;0.5;0.173333;165.303
e6;1;0.25;0.25;466;0.0932;0.5;2;0.0866667;0.5;0.173333;156.88
e4;1;0.25;0.25;943;0.1886;0.5;2;0.196667;0.5;0.196667;169.934
e6;1;0.25;0.25;456;0.0912;0.5;2;0.0983333;0.5;0.196667;156.906
e4;1;0.25;0.25;1056;0.2112;0.5;2;0.22;0.5;0.22;189.748
e6;1;0.25;0.25;547;0.1094;0.5;2;0.11;0.5;0.22;156.894
e4;1;0.25;0.25;61;0.0122;0.5;2;0.01;0.75;0.01;153.623
e6;1;0.25;0.25;40;0.008;0.5;2;0.0075;0.75;0.01;153.075
e4;1;0.25;0.25;158;0.0316;0.5;2;0.0333333;0.75;0.0333333;153.804
e6;1;0.25;0.25;110;0.022;0.5;2;0.025;0.75;0.0333333;154.609
e4;1;0.25;0.25;296;0.0592;0.5;2;0.0566667;0.75;0.0566667;155.122
e6;1;0.25;0.25;216;0.0432;0.5;2;0.0425;0.75;0.0566667;154.315
e4;1;0.25;0.25;377;0.0754;0.5;2;0.08;0.75;0.08;155.867
e6;1;0.25;0.25;312;0.0624;0.5;2;0.06;0.75;0.08;155.247
e4;1;0.25;0.25;498;0.0996;0.5;2;0.103333;0.75;0.103333;157.098
e6;1;0.25;0.25;313;0.0626;0.5;2;0.0775;0.75;0.103333;154.882
e4;1;0.25;0.25;637;0.1274;0.5;2;0.126667;0.75;0.126667;157.634
e6;1;0.25;0.25;500;0.1;0.5;2;0.095;0.75;0.126667;157.268
e4;1;0.25;0.25;714;0.1428;0.5;2;0.15;0.75;0.15;159.821
e6;1;0.25;0.25;520;0.104;0.5;2;0.1125;0.75;0.15;157.34
e4;1;0.25;0.25;843;0.1686;0.5;2;0.173333;0.75;0.173333;164.935
e6;1;0.25;0.25;606;0.1212;0.5;2;0.13;0.75;0.173333;158.769
e4;1;0.25;0.25;982;0.1964;0.5;2;0.196667;0.75;0.196667;177
e6;1;0.25;0.25;696;0.1392;0.5;2;0.1475;0.75;0.196667;161.454
e4;1;0.25;0.25;1090;0.218;0.5;2;0.22;0.75;0.22;213.33
e6;1;0.25;0.25;791;0.1582;0.5;2;0.165;0.75;0.22;167.056
e4;1;0.25;0.25;44;0.0088;0.5;2;0.01;1;0.01;154.045
e6;1;0.25;0.25;47;0.0094;0.5;2;0.01;1;0.01;152.766
e4;1;0.25;0.25;157;0.0314;0.5;2;0.0322222;1;0.0322222;154.025
e6;1;0.25;0.25;148;0.0296;0.5;2;0.0322222;1;0.0322222;153.135
e4;1;0.25;0.25;271;0.0542;0.5;2;0.0544444;1;0.0544444;155.018
e6;1;0.25;0.25;251;0.0502;0.5;2;0.0544444;1;0.0544444;153.845
e4;1;0.25;0.25;360;0.072;0.5;2;0.0766667;1;0.0766667;154.894
e6;1;0.25;0.25;381;0.0762;0.5;2;0.0766667;1;0.0766667;156.134
e4;1;0.25;0.25;490;0.098;0.5;2;0.0988889;1;0.0988889;156.176
e6;1;0.25;0.25;463;0.0926;0.5;2;0.0988889;1;0.0988889;156.19
e4;1;0.25;0.25;571;0.1142;0.5;2;0.121111;1;0.121111;157.849
e6;1;0.25;0.25;618;0.1236;0.5;2;0.121111;1;0.121111;157.484
e4;1;0.25;0.25;649;0.1298;0.5;2;0.143333;1;0.143333;159.062
e6;1;0.25;0.25;718;0.1436;0.5;2;0.143333;1;0.143333;161.04
e4;1;0.25;0.25;810;0.162;0.5;2;0.165556;1;0.165556;163.232
e6;1;0.25;0.25;795;0.159;0.5;2;0.165556;1;0.165556;161.501
e4;1;0.25;0.25;915;0.183;0.5;2;0.187778;1;0.187778;167.989
e6;1;0.25;0.25;921;0.1842;0.5;2;0.187778;1;0.187778;178.8
e4;1;0.25;0.25;957;0.1914;0.5;2;0.21;1;0.21;179.652
e6;1;0.25;0.25;1019;0.2038;0.5;2;0.21;1;0.21;189.774
e4;1;0.25;0.25;58;0.0116;0.5;2;0.01;2;0.01;153.621
e6;1;0.25;0.25;99;0.0198;0.5;2;0.02;2;0.01;153.364
e4;1;0.25;0.25;121;0.0242;0.5;2;0.0205556;2;0.0205556;154.802
e6;1;0.25;0.25;194;0.0388;0.5;2;0.0411111;2;0.0205556;153.969
e4;1;0.25;0.25;148;0.0296;0.5;2;0.0311111;2;0.0311111;153.297
e6;1;0.25;0.25;318;0.0636;0.5;2;0.0622222;2;0.0311111;156.321
e4;1;0.25;0.25;197;0.0394;0.5;2;0.0416667;2;0.0416667;154.142
e6;1;0.25;0.25;394;0.0788;0.5;2;0.0833333;2;0.0416667;155.371
e4;1;0.25;0.25;266;0.0532;0.5;2;0.0522222;2;0.0522222;154.921
e6;1;0.25;0.25;486;0.0972;0.5;2;0.104444;2;0.0522222;158.284
e4;1;0.25;0.25;274;0.0548;0.5;2;0.0627778;2;0.0627778;155.266
e6;1;0.25;0.25;602;0.1204;0.5;2;0.125556;2;0.0627778;157.5
e4;1;0.25;0.25;340;0.068;0.5;2;0.0733333;2;0.0733333;155.206
e6;1;0.25;0.25;695;0.139;0.5;2;0.146667;2;0.0733333;160.114
e4;1;0.25;0.25;387;0.0774;0.5;2;0.0838889;2;0.0838889;155.31
e6;1;0.25;0.25;780;0.156;0.5;2;0.167778;2;0.0838889;163.536
e4;1;0.25;0.25;473;0.0946;0.5;2;0.0944444;2;0.0944444;156.911
e6;1;0.25;0.25;906;0.1812;0.5;2;0.188889;2;0.0944444;174.62
e4;1;0.25;0.25;516;0.1032;0.5;2;0.105;2;0.105;156.391
e6;1;0.25;0.25;966;0.1932;0.5;2;0.21;2;0.105;178.514
