e4;1;0.125;0.375;58;0.0116;0.25;2;0.01;0.1;0.01;162.224
e6;1;0.125;0.375;5;0.001;0.25;2;0.001;0.1;0.01;153.8
e4;1;0.125;0.375;118;0.0236;0.25;2;0.0211111;0.1;0.0211111;165.153
e6;1;0.125;0.375;14;0.0028;0.25;2;0.00211111;0.1;0.0211111;153.429
e4;1;0.125;0.375;145;0.029;0.25;2;0.0322222;0.1;0.0322222;167.193
e6;1;0.125;0.375;14;0.0028;0.25;2;0.00322222;0.1;0.0322222;153.286
e4;1;0.125;0.375;204;0.0408;0.25;2;0.0433333;0.1;0.0433333;173.922
e6;1;0.125;0.375;18;0.0036;0.25;2;0.00433333;0.1;0.0433333;152.611
e4;1;0.125;0.375;238;0.0476;0.25;2;0.0544444;0.1;0.0544444;177.286
e6;1;0.125;0.375;24;0.0048;0.25;2;0.00544444;0.1;0.0544444;151.792
e4;1;0.125;0.375;301;0.0602;0.25;2;0.0655556;0.1;0.0655556;206.708
e6;1;0.125;0.375;37;0.0074;0.25;2;0.00655556;0.1;0.0655556;151.351
e4;1;0.125;0.375;344;0.0688;0.25;2;0.0766667;0.1;0.0766667;228.265
e6;1;0.125;0.375;45;0.009;0.25;2;0.00766667;0.1;0.0766667;152.956
e4;1;0.125;0.375;396;0.0792;0.25;2;0.0877778;0.1;0.0877778;293.768
e6;1;0.125;0.375;36;0.0072;0.25;2;0.00877778;0.1;0.0877778;152.306
e4;1;0.125;0.375;436;0.0872;0.25;2;0.0988889;0.1;0.0988889;415.055
e6;1;0.125;0.375;50;0.01;0.25;2;0.00988889;0.1;0.0988889;151.3
e4;1;0.125;0.375;426;0.0852;0.25;2;0.11;0.1;0.11;384.859
e6;1;0.125;0.375;50;0.01;0.25;2;0.011;0.1;0.11;151.24
e4;1;0.125;0.375;54;0.0108;0.25;2;0.01;0.25;0.01;162.63
e6;1;0.125;0.375;17;0.0034;0.25;2;0.0025;0.25;0.01;154.059
e4;1;0.125;0.375;104;0.0208;0.25;2;0.0211111;0.25;0.0211111;164.404
e6;1;0.125;0.375;28;0.0056;0.25;2;0.00527778;0.25;0.0211111;151.643
e4;1;0.125;0.375;166;0.0332;0.25;2;0.0322222;0.25;0.0322222;167.277
e6;1;0.125;0.375;34;0.0068;0.25;2;0.00805556;0.25;0.0322222;152.118
e4;1;0.125;0.375;203;0.0406;0.25;2;0.0433333;0.25;0.0433333;180.384
e6;1;0.125;0.375;55;0.011;0.25;2;0.0108333;0.25;0.0433333;151.927
e4;1;0.125;0.375;299;0.0598;0.25;2;0.0544444;0.25;0.0544444;191.03
e6;1;0.125;0.375;63;0.0126;0.25;2;0.0136111;0.25;0.0544444;152.413
e4;1;0.125;0.375;301;0.0602;0.25;2;0.0655556;0.25;0.0655556;209.405
e6;1;0.125;0.375;73;0.0146;0.25;2;0.0163889;0.25;0.0655556;152.11
e4;1;0.125;0.375;364;0.0728;0.25;2;0.0766667;0.25;0.0766667;267.808
e6;1;0.125;0.375;77;0.0154;0.25;2;0.0191667;0.25;0.0766667;151.909
e4;1;0.125;0.375;370;0.074;0.25;2;0.0877778;0.25;0.0877778;249.297
e6;1;0.125;0.375;98;0.0196;0.25;2;0.0219444;0.25;0.0877778;151.929
e4;1;0.125;0.375;431;0.0862;0.25;2;0.0988889;0.25;0.0988889;386.095
e6;1;0.125;0.375;116;0.0232;0.25;2;0.0247222;0.25;0.0988889;151.724
e4;1;0.125;0.375;433;0.0866;0.25;2;0.11;0.25;0.11;389.273
e6;1;0.125;0.375;130;0.026;0.25;2;0.0275;0.25;0.11;151.746
e4;1;0.125;0.375;40;0.008;0.25;2;0.01;0.5;0.01;161.95
e6;1;0.125;0.375;23;0.0046;0.25;2;0.005;0.5;0.01;152.043
e4;1;0.125;0.375;103;0.0206;0.25;2;0.0211111;0.5;0.0211111;164.243
e6;1;0.125;0.375;48;0.0096;0.25;2;0.0105556;0.5;0.0211111;151.479
e4;1;0.125;0.375;155;0.031;0.25;2;0.0322222;0.5;0.0322222;170.155
e6;1;0.125;0.375;71;0.0142;0.25;2;0.0161111;0.5;0.0322222;151.958
e4;1;0.125;0.375;228;0.0456;0.25;2;0.0433333;0.5;0.0433333;188.254
e6;1;0.125;0.375;91;0.0182;0.25;2;0.0216667;0.5;0.0433333;152.143
e4;1;0.125;0.375;270;0.054;0.25;2;0.0544444;0.5;0.0544444;191.367
e6;1;0.125;0.375;122;0.0244;0.25;2;0.0272222;0.5;0.0544444;152.434
e4;1;0.125;0.375;306;0.0612;0.25;2;0.0655556;0.5;0.0655556;195.291
e6;1;0.125;0.375;174;0.0348;0.25;2;0.0327778;0.5;0.0655556;152.994
e4;1;0.125;0.375;369;0.0738;0.25;2;0.0766667;0.5;0.0766667;281.436
e6;1;0.125;0.375;186;0.0372;0.25;2;0.0383333;0.5;0.0766667;152.215
e4;1;0.125;0.375;393;0.0786;0.25;2;0.0877778;0.5;0.0877778;311.537
e6;1;0.125;0.375;205;0.041;0.25;2;0.0438889;0.5;0.0877778;152.215
e4;1;0.125;0.375;404;0.0808;0.25;2;0.0988889;0.5;0.0988889;355.978
e6;1;0.125;0.375;246;0.0492;0.25;2;0.0494444;0.5;0.0988889;151.846
e4;1;0.125;0.375;450;0.09;0.25;2;0.11;0.5;0.11;415.487
e6;1;0.125;0.375;282;0.0564;0.25;2;0.055;0.5;0.11;152.408
e4;1;0.125;0.375;43;0.0086;0.25;2;0.01;0.75;0.01;161.023
e6;1;0.125;0.375;33;0.0066;0.25;2;0.0075;0.75;0.01;152.364
e4;1;0.125;0.375;96;0.0192;0.25;2;0.0211111;0.75;0.0211111;161.99
e6;1;0.125;0.375;78;0.0156;0.25;2;0.0158333;0.75;0.0211111;152.615
e4;1;0.125;0.375;131;0.0262;0.25;2;0.0322222;0.75;0.0322222;168.214
e6;1;0.125;0.375;127;0.0254;0.25;2;0.0241667;0.75;0.0322222;153.142
e4;1;0.125;0.375;215;0.043;0.25;2;0.0433333;0.75;0.0433333;175.874
e6;1;0.125;0.375;161;0.0322;0.25;2;0.0325;0.75;0.0433333;152.478
e4;1;0.125;0.375;290;0.058;0.25;2;0.0544444;0.75;0.0544444;212.8
e6;1;0.125;0.375;202;0.0404;0.25;2;0.0408333;0.75;0.0544444;152.49
e4;1;0.125;0.375;333;0.0666;0.25;2;0.0655556;0.75;0.0655556;214.228
e6;1;0.125;0.375;241;0.0482;0.25;2;0.0491667;0.75;0.0655556;152.618
e4;1;0.125;0.375;345;0.069;0.25;2;0.0766667;0.75;0.0766667;269.38
e6;1;0.125;0.375;290;0.058;0.25;2;0.0575;0.75;0.0766667;152.462
e4;1;0.125;0.375;406;0.0812;0.25;2;0.0877778;0.75;0.0877778;309.778
e6;1;0.125;0.375;315;0.063;0.25;2;0.0658333;0.75;0.0877778;152.771
e4;1;0.125;0.375;422;0.0844;0.25;2;0.0988889;0.75;0.0988889;367.822
e6;1;0.125;0.375;376;0.0752;0.25;2;0.0741667;0.75;0.0988889;152.41
e4;1;0.125;0.375;432;0.0864;0.25;2;0.11;0.75;0.11;400.086
e6;1;0.125;0.375;390;0.078;0.25;2;0.0825;0.75;0.11;152.533
e4;1;0.125;0.375;50;0.01;0.25;2;0.01;1;0.01;164.58
e6;1;0.125;0.375;33;0.0066;0.25;2;0.01;1;0.01;152.667
e4;1;0.125;0.375;88;0.0176;0.25;2;0.0211111;1;0.0211111;161.932
e6;1;0.125;0.375;115;0.023;0.25;2;0.0211111;1;0.0211111;153.217
e4;1;0.125;0.375;162;0.0324;0.25;2;0.0322222;1;0.0322222;169.154
e6;1;0.125;0.375;155;0.031;0.25;2;0.0322222;1;0.0322222;152.426
e4;1;0.125;0.375;204;0.0408;0.25;2;0.0433333;1;0.0433333;173.382
e6;1;0.125;0.375;189;0.0378;0.25;2;0.0433333;1;0.0433333;152.651
e4;1;0.125;0.375;268;0.0536;0.25;2;0.0544444;1;0.0544444;196.437
e6;1;0.125;0.375;231;0.0462;0.25;2;0.0544444;1;0.0544444;152.567
e4;1;0.125;0.375;324;0.0648;0.25;2;0.0655556;1;0.0655556;243.966
e6;1;0.125;0.375;334;0.0668;0.25;2;0.0655556;1;0.0655556;153.03
e4;1;0.125;0.375;369;0.0738;0.25;2;0.0766667;1;0.0766667;273.377
e6;1;0.125;0.375;412;0.0824;0.25;2;0.0766667;1;0.0766667;153.454
e4;1;0.125;0.375;388;0.0776;0.25;2;0.0877778;1;0.0877778;304.845
e6;1;0.125;0.375;427;0.0854;0.25;2;0.0877778;1;0.0877778;153.389
e4;1;0.125;0.375;435;0.087;0.25;2;0.0988889;1;0.0988889;396.28
e6;1;0.125;0.375;462;0.0924;0.25;2;0.0988889;1;0.0988889;152.74
e4;1;0.125;0.375;485;0.097;0.25;2;0.11;1;0.11;474.299
e6;1;0.125;0.375;514;0.1028;0.25;2;0.11;1;0.11;153.835
e4;1;0.125;0.375;45;0.009;0.25;2;0.01;2;0.01;162.467
e6;1;0.125;0.375;102;0.0204;0.25;2;0.02;2;0.01;153.696
e4;1;0.125;0.375;90;0.018;0.25;2;0.0211111;2;0.0211111;170.133
e6;1;0.125;0.375;203;0.0406;0.25;2;0.0422222;2;0.0211111;152.749
e4;1;0.125;0.375;133;0.0266;0.25;2;0.0322222;2;0.0322222;164.18
e6;1;0.125;0.375;297;0.0594;0.25;2;0.0644444;2;0.0322222;153.205
e4;1;0.125;0.375;222;0.0444;0.25;2;0.0433333;2;0.0433333;172.617
e6;1;0.125;0.375;429;0.0858;0.25;2;0.0866667;2;0.0433333;153.993
e4;1;0.125;0.375;272;0.0544;0.25;2;0.0544444;2;0.0544444;191.14
e6;1;0.125;0.375;537;0.1074;0.25;2;0.108889;2;0.0544444;154.849
e4;1;0.125;0.375;313;0.0626;0.25;2;0.0655556;2;0.0655556;204.805
e6;1;0.125;0.375;647;0.1294;0.25;2;0.131111;2;0.0655556;155.519
e4;1;0.125;0.375;337;0.0674;0.25;2;0.0766667;2;0.0766667;234.122
e6;1;0.125;0.375;741;0.1482;0.25;2;0.153333;2;0.0766667;158.416
e4;1;0.125;0.375;425;0.085;0.25;2;0.0877778;2;0.0877778;327.932
e6;1;0.125;0.375;868;0.1736;0.25;2;0.175556;2;0.0877778;157.614
e4;1;0.125;0.375;439;0.0878;0.25;2;0.0988889;2;0.0988889;393.244
e6;1;0.125;0.375;966;0.1932;0.25;2;0.197778;2;0.0988889;160.369
e4;1;0.125;0.375;460;0.092;0.25;2;0.11;2;0.11;471.393
e6;1;0.125;0.375;1029;0.2058;0.25;2;0.22;2;0.11;160.394
