e4;1;0.125;0.375;46;0.0092;0.25;2;0.01;0.1;0.01;158.261
e6;1;0.125;0.375;4;0.0008;0.25;2;0.001;0.1;0.01;152.5
e4;1;0.125;0.375;115;0.023;0.25;2;0.0211111;0.1;0.0211111;159.157
e6;1;0.125;0.375;13;0.0026;0.25;2;0.00211111;0.1;0.0211111;150.231
e4;1;0.125;0.375;145;0.029;0.25;2;0.0322222;0.1;0.0322222;161.407
e6;1;0.125;0.375;15;0.003;0.25;2;0.00322222;0.1;0.0322222;152
e4;1;0.125;0.375;218;0.0436;0.25;2;0.0433333;0.1;0.0433333;161.56
e6;1;0.125;0.375;23;0.0046;0.25;2;0.00433333;0.1;0.0433333;151.261
e4;1;0.125;0.375;264;0.0528;0.25;2;0.0544444;0.1;0.0544444;166.833
e6;1;0.125;0.375;19;0.0038;0.25;2;0.00544444;0.1;0.0544444;151.158
e4;1;0.125;0.375;294;0.0588;0.25;2;0.0655556;0.1;0.0655556;162.993
e6;1;0.125;0.375;26;0.0052;0.25;2;0.00655556;0.1;0.0655556;151.654
e4;1;0.125;0.375;388;0.0776;0.25;2;0.0766667;0.1;0.0766667;175.235
e6;1;0.125;0.375;42;0.0084;0.25;2;0.00766667;0.1;0.0766667;151.881
e4;1;0.125;0.375;456;0.0912;0.25;2;0.0877778;0.1;0.0877778;192.851
e6;1;0.125;0.375;41;0.0082;0.25;2;0.00877778;0.1;0.0877778;150.927
e4;1;0.125;0.375;500;0.1;0.25;2;0.0988889;0.1;0.0988889;190.404
e6;1;0.125;0.375;52;0.0104;0.25;2;0.00988889;0.1;0.0988889;151.5
e4;1;0.125;0.375;514;0.1028;0.25;2;0.11;0.1;0.11;186.261
e6;1;0.125;0.375;44;0.0088;0.25;2;0.011;0.1;0.11;151.523
e4;1;0.125;0.375;41;0.0082;0.25;2;0.01;0.25;0.01;158.049
e6;1;0.125;0.375;13;0.0026;0.25;2;0.0025;0.25;0.01;151.308
e4;1;0.125;0.375;84;0.0168;0.25;2;0.0211111;0.25;0.0211111;161.048
e6;1;0.125;0.375;30;0.006;0.25;2;0.00527778;0.25;0.0211111;151.1
e4;1;0.125;0.375;157;0.0314;0.25;2;0.0322222;0.25;0.0322222;162.312
e6;1;0.125;0.375;50;0.01;0.25;2;0.00805556;0.25;0.0322222;151.7
e4;1;0.125;0.375;185;0.037;0.25;2;0.0433333;0.25;0.0433333;163.13
e6;1;0.125;0.375;52;0.0104;0.25;2;0.0108333;0.25;0.0433333;151.481
e4;1;0.125;0.375;274;0.0548;0.25;2;0.0544444;0.25;0.0544444;165.088
e6;1;0.125;0.375;63;0.0126;0.25;2;0.0136111;0.25;0.0544444;150.841
e4;1;0.125;0.375;331;0.0662;0.25;2;0.0655556;0.25;0.0655556;169.523
e6;1;0.125;0.375;75;0.015;0.25;2;0.0163889;0.25;0.0655556;151.24
e4;1;0.125;0.375;350;0.07;0.25;2;0.0766667;0.25;0.0766667;165.426
e6;1;0.125;0.375;101;0.0202;0.25;2;0.0191667;0.25;0.0766667;151.416
e4;1;0.125;0.375;421;0.0842;0.25;2;0.0877778;0.25;0.0877778;178.644
e6;1;0.125;0.375;125;0.025;0.25;2;0.0219444;0.25;0.0877778;151.408
e4;1;0.125;0.375;477;0.0954;0.25;2;0.0988889;0.25;0.0988889;181.279
e6;1;0.125;0.375;119;0.0238;0.25;2;0.0247222;0.25;0.0988889;151.504
e4;1;0.125;0.375;527;0.1054;0.25;2;0.11;0.25;0.11;198.844
e6;1;0.125;0.375;145;0.029;0.25;2;0.0275;0.25;0.11;151.924
e4;1;0.125;0.375;47;0.0094;0.25;2;0.01;0.5;0.01;159.213
e6;1;0.125;0.375;21;0.0042;0.25;2;0.005;0.5;0.01;151.571
e4;1;0.125;0.375;110;0.022;0.25;2;0.0211111;0.5;0.0211111;159.027
e6;1;0.125;0.375;41;0.0082;0.25;2;0.0105556;0.5;0.0211111;151.317
e4;1;0.125;0.375;144;0.0288;0.25;2;0.0322222;0.5;0.0322222;159
e6;1;0.125;0.375;86;0.0172;0.25;2;0.0161111;0.5;0.0322222;151.837
e4;1;0.125;0.375;223;0.0446;0.25;2;0.0433333;0.5;0.0433333;162.377
e6;1;0.125;0.375;100;0.02;0.25;2;0.0216667;0.5;0.0433333;151.58
e4;1;0.125;0.375;257;0.0514;0.25;2;0.0544444;0.5;0.0544444;164.903
e6;1;0.125;0.375;130;0.026;0.25;2;0.0272222;0.5;0.0544444;151.738
e4;1;0.125;0.375;296;0.0592;0.25;2;0.0655556;0.5;0.0655556;166.628
e6;1;0.125;0.375;156;0.0312;0.25;2;0.0327778;0.5;0.0655556;151.853
e4;1;0.125;0.375;369;0.0738;0.25;2;0.0766667;0.5;0.0766667;180.271
e6;1;0.125;0.375;177;0.0354;0.25;2;0.0383333;0.5;0.0766667;151.621
e4;1;0.125;0.375;418;0.0836;0.25;2;0.0877778;0.5;0.0877778;182.682
e6;1;0.125;0.375;206;0.0412;0.25;2;0.0438889;0.5;0.0877778;151.495
e4;1;0.125;0.375;468;0.0936;0.25;2;0.0988889;0.5;0.0988889;195.479
e6;1;0.125;0.375;249;0.0498;0.25;2;0.0494444;0.5;0.0988889;151.711
e4;1;0.125;0.375;523;0.1046;0.25;2;0.11;0.5;0.11;212.461
e6;1;0.125;0.375;271;0.0542;0.25;2;0.055;0.5;0.11;151.594
e4;1;0.125;0.375;44;0.0088;0.25;2;0.01;0.75;0.01;160.386
e6;1;0.125;0.375;41;0.0082;0.25;2;0.0075;0.75;0.01;151.439
e4;1;0.125;0.375;101;0.0202;0.25;2;0.0211111;0.75;0.0211111;159.713
e6;1;0.125;0.375;76;0.0152;0.25;2;0.0158333;0.75;0.0211111;151.776
e4;1;0.125;0.375;146;0.0292;0.25;2;0.0322222;0.75;0.0322222;161.034
e6;1;0.125;0.375;121;0.0242;0.25;2;0.0241667;0.75;0.0322222;151.81
e4;1;0.125;0.375;212;0.0424;0.25;2;0.0433333;0.75;0.0433333;163.675
e6;1;0.125;0.375;154;0.0308;0.25;2;0.0325;0.75;0.0433333;151.351
e4;1;0.125;0.375;298;0.0596;0.25;2;0.0544444;0.75;0.0544444;165.842
e6;1;0.125;0.375;211;0.0422;0.25;2;0.0408333;0.75;0.0544444;151.621
e4;1;0.125;0.375;326;0.0652;0.25;2;0.0655556;0.75;0.0655556;170.681
e6;1;0.125;0.375;250;0.05;0.25;2;0.0491667;0.75;0.0655556;151.888
e4;1;0.125;0.375;369;0.0738;0.25;2;0.0766667;0.75;0.0766667;173.271
e6;1;0.125;0.375;269;0.0538;0.25;2;0.0575;0.75;0.0766667;152.175
e4;1;0.125;0.375;426;0.0852;0.25;2;0.0877778;0.75;0.0877778;181.265
e6;1;0.125;0.375;351;0.0702;0.25;2;0.0658333;0.75;0.0877778;151.635
e4;1;0.125;0.375;466;0.0932;0.25;2;0.0988889;0.75;0.0988889;180.547
e6;1;0.125;0.375;348;0.0696;0.25;2;0.0741667;0.75;0.0988889;152.187
e4;1;0.125;0.375;527;0.1054;0.25;2;0.11;0.75;0.11;199.522
e6;1;0.125;0.375;396;0.0792;0.25;2;0.0825;0.75;0.11;151.949
e4;1;0.125;0.375;54;0.0108;0.25;2;0.01;1;0.01;160.13
e6;1;0.125;0.375;47;0.0094;0.25;2;0.01;1;0.01;151.043
e4;1;0.125;0.375;99;0.0198;0.25;2;0.0211111;1;0.0211111;158.475
e6;1;0.125;0.375;94;0.0188;0.25;2;0.0211111;1;0.0211111;152.16
e4;1;0.125;0.375;163;0.0326;0.25;2;0.0322222;1;0.0322222;165.736
e6;1;0.125;0.375;147;0.0294;0.25;2;0.0322222;1;0.0322222;151.551
e4;1;0.125;0.375;217;0.0434;0.25;2;0.0433333;1;0.0433333;162.037
e6;1;0.125;0.375;202;0.0404;0.25;2;0.0433333;1;0.0433333;151.782
e4;1;0.125;0.375;273;0.0546;0.25;2;0.0544444;1;0.0544444;164.018
e6;1;0.125;0.375;258;0.0516;0.25;2;0.0544444;1;0.0544444;151.93
e4;1;0.125;0.375;339;0.0678;0.25;2;0.0655556;1;0.0655556;166.944
e6;1;0.125;0.375;329;0.0658;0.25;2;0.0655556;1;0.0655556;152.021
e4;1;0.125;0.375;372;0.0744;0.25;2;0.0766667;1;0.0766667;177.745
e6;1;0.125;0.375;387;0.0774;0.25;2;0.0766667;1;0.0766667;152.155
e4;1;0.125;0.375;437;0.0874;0.25;2;0.0877778;1;0.0877778;176.236
e6;1;0.125;0.375;423;0.0846;0.25;2;0.0877778;1;0.0877778;152.395
e4;1;0.125;0.375;493;0.0986;0.25;2;0.0988889;1;0.0988889;184.765
e6;1;0.125;0.375;474;0.0948;0.25;2;0.0988889;1;0.0988889;152.449
e4;1;0.125;0.375;528;0.1056;0.25;2;0.11;1;0.11;193.568
e6;1;0.125;0.375;495;0.099;0.25;2;0.11;1;0.11;152.509
e4;1;0.125;0.375;32;0.0064;0.25;2;0.01;2;0.01;156.531
e6;1;0.125;0.375;112;0.0224;0.25;2;0.02;2;0.01;151.375
e4;1;0.125;0.375;115;0.023;0.25;2;0.0211111;2;0.0211111;158.809
e6;1;0.125;0.375;207;0.0414;0.25;2;0.0422222;2;0.0211111;152.043
e4;1;0.125;0.375;157;0.0314;0.25;2;0.0322222;2;0.0322222;163.962
e6;1;0.125;0.375;288;0.0576;0.25;2;0.0644444;2;0.0322222;151.92
e4;1;0.125;0.375;188;0.0376;0.25;2;0.0433333;2;0.0433333;161.691
e6;1;0.125;0.375;418;0.0836;0.25;2;0.0866667;2;0.0433333;152.555
e4;1;0.125;0.375;276;0.0552;0.25;2;0.0544444;2;0.0544444;165.467
e6;1;0.125;0.375;577;0.1154;0.25;2;0.108889;2;0.0544444;153.139
e4;1;0.125;0.375;311;0.0622;0.25;2;0.0655556;2;0.0655556;167.891
e6;1;0.125;0.375;622;0.1244;0.25;2;0.131111;2;0.0655556;152.979
e4;1;0.125;0.375;360;0.072;0.25;2;0.0766667;2;0.0766667;171.383
e6;1;0.125;0.375;741;0.1482;0.25;2;0.153333;2;0.0766667;153.637
e4;1;0.125;0.375;434;0.0868;0.25;2;0.0877778;2;0.0877778;196.673
e6;1;0.125;0.375;866;0.1732;0.25;2;0.175556;2;0.0877778;154.379
e4;1;0.125;0.375;479;0.0958;0.25;2;0.0988889;2;0.0988889;194.626
e6;1;0.125;0.375;997;0.1994;0.25;2;0.197778;2;0.0988889;154.404
e4;1;0.125;0.375;568;0.1136;0.25;2;0.11;2;0.11;231.905
e6;1;0.125;0.375;1068;0.2136;0.25;2;0.22;2;0.11;155.317
