e4;1;0.05;0.45;53;0.0106;0.1;2;0.01;0.1;0.01;175.717
e6;1;0.05;0.45;2;0.0004;0.1;2;0.001;0.1;0.01;150
e4;1;0.05;0.45;48;0.0096;0.1;2;0.0133333;0.1;0.0133333;173.375
e6;1;0.05;0.45;2;0.0004;0.1;2;0.00133333;0.1;0.0133333;151.5
e4;1;0.05;0.45;78;0.0156;0.1;2;0.0166667;0.1;0.0166667;177.769
e6;1;0.05;0.45;12;0.0024;0.1;2;0.00166667;0.1;0.0166667;150.583
e4;1;0.05;0.45;102;0.0204;0.1;2;0.02;0.1;0.02;183.549
e6;1;0.05;0.45;12;0.0024;0.1;2;0.002;0.1;0.02;152.167
e4;1;0.05;0.45;118;0.0236;0.1;2;0.0233333;0.1;0.0233333;184.856
e6;1;0.05;0.45;12;0.0024;0.1;2;0.00233333;0.1;0.0233333;151.083
e4;1;0.05;0.45;133;0.0266;0.1;2;0.0266667;0.1;0.0266667;199.128
e6;1;0.05;0.45;10;0.002;0.1;2;0.00266667;0.1;0.0266667;151.4
e4;1;0.05;0.45;153;0.0306;0.1;2;0.03;0.1;0.03;201.118
e6;1;0.05;0.45;10;0.002;0.1;2;0.003;0.1;0.03;150.6
e4;1;0.05;0.45;158;0.0316;0.1;2;0.0333333;0.1;0.0333333;198.57
e6;1;0.05;0.45;10;0.002;0.1;2;0.00333333;0.1;0.0333333;149.9
e4;1;0.05;0.45;156;0.0312;0.1;2;0.0366667;0.1;0.0366667;212.224
e6;1;0.05;0.45;20;0.004;0.1;2;0.00366667;0.1;0.0366667;150.9
e4;1;0.05;0.45;191;0.0382;0.1;2;0.04;0.1;0.04;247.916
e6;1;0.05;0.45;17;0.0034;0.1;2;0.004;0.1;0.04;150.706
e4;1;0.05;0.45;59;0.0118;0.1;2;0.01;0.25;0.01;177.102
e6;1;0.05;0.45;12;0.0024;0.1;2;0.0025;0.25;0.01;150.917
e4;1;0.05;0.45;73;0.0146;0.1;2;0.0133333;0.25;0.0133333;179.205
e6;1;0.05;0.45;21;0.0042;0.1;2;0.00333333;0.25;0.0133333;151.095
e4;1;0.05;0.45;80;0.016;0.1;2;0.0166667;0.25;0.0166667;184.025
e6;1;0.05;0.45;19;0.0038;0.1;2;0.00416667;0.25;0.0166667;151.474
e4;1;0.05;0.45;105;0.021;0.1;2;0.02;0.25;0.02;188.714
e6;1;0.05;0.45;31;0.0062;0.1;2;0.005;0.25;0.02;150.935
e4;1;0.05;0.45;96;0.0192;0.1;2;0.0233333;0.25;0.0233333;181.375
e6;1;0.05;0.45;25;0.005;0.1;2;0.00583333;0.25;0.0233333;150.4
e4;1;0.05;0.45;119;0.0238;0.1;2;0.0266667;0.25;0.0266667;192.395
e6;1;0.05;0.45;32;0.0064;0.1;2;0.00666667;0.25;0.0266667;151.375
e4;1;0.05;0.45;153;0.0306;0.1;2;0.03;0.25;0.03;194.033
e6;1;0.05;0.45;25;0.005;0.1;2;0.0075;0.25;0.03;151.28
e4;1;0.05;0.45;134;0.0268;0.1;2;0.0333333;0.25;0.0333333;206.582
e6;1;0.05;0.45;32;0.0064;0.1;2;0.00833333;0.25;0.0333333;151.031
e4;1;0.05;0.45;170;0.034;0.1;2;0.0366667;0.25;0.0366667;232.129
e6;1;0.05;0.45;48;0.0096;0.1;2;0.00916667;0.25;0.0366667;150.688
e4;1;0.05;0.45;196;0.0392;0.1;2;0.04;0.25;0.04;252.602
e6;1;0.05;0.45;52;0.0104;0.1;2;0.01;0.25;0.04;150.827
e4;1;0.05;0.45;48;0.0096;0.1;2;0.01;0.5;0.01;172.917
e6;1;0.05;0.45;26;0.0052;0.1;2;0.005;0.5;0.01;150.654
e4;1;0.05;0.45;60;0.012;0.1;2;0.0133333;0.5;0.0133333;178.267
e6;1;0.05;0.45;36;0.0072;0.1;2;0.00666667;0.5;0.0133333;151.194
e4;1;0.05;0.45;74;0.0148;0.1;2;0.0166667;0.5;0.0166667;166.986
e6;1;0.05;0.45;38;0.0076;0.1;2;0.00833333;0.5;0.0166667;151.079
e4;1;0.05;0.45;94;0.0188;0.1;2;0.02;0.5;0.02;193.085
e6;1;0.05;0.45;47;0.0094;0.1;2;0.01;0.5;0.02;150.66
e4;1;0.05;0.45;116;0.0232;0.1;2;0.0233333;0.5;0.0233333;188
e6;1;0.05;0.45;51;0.0102;0.1;2;0.0116667;0.5;0.0233333;151.02
e4;1;0.05;0.45;145;0.029;0.1;2;0.0266667;0.5;0.0266667;212.648
e6;1;0.05;0.45;61;0.0122;0.1;2;0.0133333;0.5;0.0266667;151.23
e4;1;0.05;0.45;141;0.0282;0.1;2;0.03;0.5;0.03;199.199
e6;1;0.05;0.45;78;0.0156;0.1;2;0.015;0.5;0.03;150.885
e4;1;0.05;0.45;149;0.0298;0.1;2;0.0333333;0.5;0.0333333;190.362
e6;1;0.05;0.45;64;0.0128;0.1;2;0.0166667;0.5;0.0333333;150.891
e4;1;0.05;0.45;181;0.0362;0.1;2;0.0366667;0.5;0.0366667;241.818
e6;1;0.05;0.45;83;0.0166;0.1;2;0.0183333;0.5;0.0366667;151.169
e4;1;0.05;0.45;193;0.0386;0.1;2;0.04;0.5;0.04;259.28
e6;1;0.05;0.45;103;0.0206;0.1;2;0.02;0.5;0.04;151.204
e4;1;0.05;0.45;55;0.011;0.1;2;0.01;0.75;0.01;175.309
e6;1;0.05;0.45;35;0.007;0.1;2;0.0075;0.75;0.01;150.771
e4;1;0.05;0.45;75;0.015;0.1;2;0.0133333;0.75;0.0133333;173.733
e6;1;0.05;0.45;45;0.009;0.1;2;0.01;0.75;0.0133333;150.956
e4;1;0.05;0.45;62;0.0124;0.1;2;0.0166667;0.75;0.0166667;180.629
e6;1;0.05;0.45;63;0.0126;0.1;2;0.0125;0.75;0.0166667;151.397
e4;1;0.05;0.45;80;0.016;0.1;2;0.02;0.75;0.02;180.988
e6;1;0.05;0.45;68;0.0136;0.1;2;0.015;0.75;0.02;151.191
e4;1;0.05;0.45;123;0.0246;0.1;2;0.0233333;0.75;0.0233333;187.772
e6;1;0.05;0.45;83;0.0166;0.1;2;0.0175;0.75;0.0233333;151.012
e4;1;0.05;0.45;140;0.028;0.1;2;0.0266667;0.75;0.0266667;210.714
e6;1;0.05;0.45;87;0.0174;0.1;2;0.02;0.75;0.0266667;150.897
e4;1;0.05;0.45;128;0.0256;0.1;2;0.03;0.75;0.03;179.586
e6;1;0.05;0.45;117;0.0234;0.1;2;0.0225;0.75;0.03;151.017
e4;1;0.05;0.45;180;0.036;0.1;2;0.0333333;0.75;0.0333333;224.278
e6;1;0.05;0.45;123;0.0246;0.1;2;0.025;0.75;0.0333333;150.927
e4;1;0.05;0.45;180;0.036;0.1;2;0.0366667;0.75;0.0366667;252.011
e6;1;0.05;0.45;140;0.028;0.1;2;0.0275;0.75;0.0366667;151.093
e4;1;0.05;0.45;197;0.0394;0.1;2;0.04;0.75;0.04;221.716
e6;1;0.05;0.45;146;0.0292;0.1;2;0.03;0.75;0.04;150.863
e4;1;0.05;0.45;46;0.0092;0.1;2;0.01;1;0.01;177.087
e6;1;0.05;0.45;37;0.0074;0.1;2;0.01;1;0.01;151.541
e4;1;0.05;0.45;68;0.0136;0.1;2;0.0133333;1;0.0133333;180
e6;1;0.05;0.45;56;0.0112;0.1;2;0.0133333;1;0.0133333;150.875
e4;1;0.05;0.45;69;0.0138;0.1;2;0.0166667;1;0.0166667;179.812
e6;1;0.05;0.45;86;0.0172;0.1;2;0.0166667;1;0.0166667;150.988
e4;1;0.05;0.45;99;0.0198;0.1;2;0.02;1;0.02;184.424
e6;1;0.05;0.45;99;0.0198;0.1;2;0.02;1;0.02;150.677
e4;1;0.05;0.45;122;0.0244;0.1;2;0.0233333;1;0.0233333;189.779
e6;1;0.05;0.45;104;0.0208;0.1;2;0.0233333;1;0.0233333;150.894
e4;1;0.05;0.45;119;0.0238;0.1;2;0.0266667;1;0.0266667;193.185
e6;1;0.05;0.45;123;0.0246;0.1;2;0.0266667;1;0.0266667;150.691
e4;1;0.05;0.45;142;0.0284;0.1;2;0.03;1;0.03;217.507
e6;1;0.05;0.45;161;0.0322;0.1;2;0.03;1;0.03;150.932
e4;1;0.05;0.45;147;0.0294;0.1;2;0.0333333;1;0.0333333;198.408
e6;1;0.05;0.45;158;0.0316;0.1;2;0.0333333;1;0.0333333;150.937
e4;1;0.05;0.45;163;0.0326;0.1;2;0.0366667;1;0.0366667;209.687
e6;1;0.05;0.45;180;0.036;0.1;2;0.0366667;1;0.0366667;151.372
e4;1;0.05;0.45;100;0.02;0.1;2;0.04;1;0.04;266.55
e6;1;0.05;0.45;100;0.02;0.1;2;0.04;1;0.04;151.34
e4;1;0.05;0.45;45;0.009;0.1;2;0.01;2;0.01;175.489
e6;1;0.05;0.45;92;0.0184;0.1;2;0.02;2;0.01;150.837
e4;1;0.05;0.45;72;0.0144;0.1;2;0.0133333;2;0.0133333;195.542
e6;1;0.05;0.45;137;0.0274;0.1;2;0.0266667;2;0.0133333;151
e4;1;0.05;0.45;82;0.0164;0.1;2;0.0166667;2;0.0166667;190.549
e6;1;0.05;0.45;179;0.0358;0.1;2;0.0333333;2;0.0166667;151.358
e4;1;0.05;0.45;93;0.0186;0.1;2;0.02;2;0.02;185.871
e6;1;0.05;0.45;196;0.0392;0.1;2;0.04;2;0.02;150.974
e4;1;0.05;0.45;106;0.0212;0.1;2;0.0233333;2;0.0233333;183.736
e6;1;0.05;0.45;206;0.0412;0.1;2;0.0466667;2;0.0233333;150.932
e4;1;0.05;0.45;120;0.024;0.1;2;0.0266667;2;0.0266667;196.542
e6;1;0.05;0.45;258;0.0516;0.1;2;0.0533333;2;0.0266667;151.298
e4;1;0.05;0.45;147;0.0294;0.1;2;0.03;2;0.03;216.027
e6;1;0.05;0.45;308;0.0616;0.1;2;0.06;2;0.03;151.331
e4;1;0.05;0.45;154;0.0308;0.1;2;0.0333333;2;0.0333333;205.74
e6;1;0.05;0.45;302;0.0604;0.1;2;0.0666667;2;0.0333333;150.967
e4;1;0.05;0.45;178;0.0356;0.1;2;0.0366667;2;0.0366667;237.242
e6;1;0.05;0.45;359;0.0718;0.1;2;0.0733333;2;0.0366667;151.217
e4;1;0.05;0.45;188;0.0376;0.1;2;0.04;2;0.04;251.872
e6;1;0.05;0.45;387;0.0774;0.1;2;0.08;2;0.04;151.473
