e4;0.25;0;1;0;0;0;0.25;0
e6;0.25;0;1;1129;0.2258;0;0.25;0.22
e4;0.25;0.25;0.75;424;0.0848;0.25;0.25;0.08
e6;0.25;0.25;0.75;673;0.1346;0.25;0.25;0.13
e4;0.25;0.1;0.9;264;0.0528;0.1;0.25;0.04
e6;0.25;0.1;0.9;814;0.1628;0.1;0.25;0.16
e4;0.25;0.75;0.25;659;0.1318;0.75;0.25;0.12
e6;0.25;0.75;0.25;386;0.0772;0.75;0.25;0.08
e4;0.25;1;0;1132;0.2264;1;0.25;0.22
e6;0.25;1;0;0;0;1;0.25;0
e4;0.25;0.5;0.5;531;0.1062;0.5;0.25;0.1
e6;0.25;0.5;0.5;576;0.1152;0.5;0.25;0.11
e4;0.5;0;1;0;0;0;0.5;0
e6;0.5;0;1;2134;0.4268;0;0.5;0.42
e4;0.5;0.25;0.75;664;0.1328;0.25;0.5;0.12
e6;0.5;0.25;0.75;1526;0.3052;0.25;0.5;0.3
e4;0.5;0.1;0.9;330;0.066;0.1;0.5;0.06
e6;0.5;0.1;0.9;1839;0.3678;0.1;0.5;0.36
e4;0.5;0.75;0.25;1601;0.3202;0.75;0.5;0.31
e6;0.5;0.75;0.25;642;0.1284;0.75;0.5;0.13
e4;0.5;1;0;2256;0.4512;1;0.5;0.45
e6;0.5;1;0;0;0;1;0.5;0
e4;0.5;0.5;0.5;1116;0.2232;0.5;0.5;0.22
e6;0.5;0.5;0.5;1140;0.228;0.5;0.5;0.22
e4;1;0;0.5;0;0;0;2;0
e6;1;0;0.5;2244;0.4488;0;2;0.44
e4;1;0.125;0.375;570;0.114;0.25;2;0.11
e6;1;0.125;0.375;1676;0.3352;0.25;2;0.33
e4;1;0.05;0.45;218;0.0436;0.1;2;0.04
e6;1;0.05;0.45;2001;0.4002;0.1;2;0.4
e4;1;0.375;0.125;1654;0.3308;0.75;2;0.33
e6;1;0.375;0.125;530;0.106;0.75;2;0.1
e4;1;0.5;0;2212;0.4424;1;2;0.44
e6;1;0.5;0;0;0;1;2;0
e4;1;0.25;0.25;1100;0.22;0.5;2;0.22
e6;1;0.25;0.25;1060;0.212;0.5;2;0.21
e4;1;0;0.333333;0;0;0;3;0
e6;1;0;0.333333;1448;0.2896;0;3;0.28
e4;1;0.0833333;0.25;367;0.0734;0.25;3;0.07
e6;1;0.0833333;0.25;1076;0.2152;0.25;3;0.21
e4;1;0.0333333;0.3;137;0.0274;0.1;3;0.02
e6;1;0.0333333;0.3;1295;0.259;0.1;3;0.25
e4;1;0.25;0.0833333;1110;0.222;0.75;3;0.22
e6;1;0.25;0.0833333;369;0.0738;0.75;3;0.07
e4;1;0.333333;0;1440;0.288;1;3;0.28
e6;1;0.333333;0;0;0;1;3;0
e4;1;0.166667;0.166667;686;0.1372;0.5;3;0.13
e6;1;0.166667;0.166667;752;0.1504;0.5;3;0.15
e4;1;0;0.25;0;0;0;4;0
e6;1;0;0.25;1113;0.2226;0;4;0.22
e4;1;0.0625;0.1875;284;0.0568;0.25;4;0.05
e6;1;0.0625;0.1875;786;0.1572;0.25;4;0.15
e4;1;0.025;0.225;118;0.0236;0.1;4;0.02
e6;1;0.025;0.225;968;0.1936;0.1;4;0.19
e4;1;0.1875;0.0625;782;0.1564;0.75;4;0.15
e6;1;0.1875;0.0625;270;0.054;0.75;4;0.05
e4;1;0.25;0;1125;0.225;1;4;0.22
e6;1;0.25;0;0;0;1;4;0
e4;1;0.125;0.125;532;0.1064;0.5;4;0.1
e6;1;0.125;0.125;533;0.1066;0.5;4;0.1
e4;0.1;0;1;0;0;0;0.1;0
e6;0.1;0;1;454;0.0908;0;0.1;0.09
e4;0.1;0.25;0.75;208;0.0416;0.25;0.1;0.04
e6;0.1;0.25;0.75;247;0.0494;0.25;0.1;0.04
e4;0.1;0.1;0.9;150;0.03;0.1;0.1;0.02
e6;0.1;0.1;0.9;271;0.0542;0.1;0.1;0.05
e4;0.1;0.75;0.25;222;0.0444;0.75;0.1;0.04
e6;0.1;0.75;0.25;165;0.033;0.75;0.1;0.03
e4;0.1;1;0;417;0.0834;1;0.1;0.08
e6;0.1;1;0;0;0;1;0.1;0
e4;0.1;0.5;0.5;229;0.0458;0.5;0.1;0.04
e6;0.1;0.5;0.5;232;0.0464;0.5;0.1;0.04
e4;1;0;0.8;0;0;0;1.25;0
e6;1;0;0.8;3536;0.7072;0;1.25;0.7
e4;1;0.2;0.6;944;0.1888;0.25;1.25;0.18
e6;1;0.2;0.6;2555;0.511;0.25;1.25;0.51
e4;1;0.08;0.72;321;0.0642;0.1;1.25;0.06
e6;1;0.08;0.72;3195;0.639;0.1;1.25;0.63
e4;1;0.6;0.2;2603;0.5206;0.75;1.25;0.52
e6;1;0.6;0.2;875;0.175;0.75;1.25;0.17
e4;1;0.8;0;3525;0.705;1;1.25;0.7
e6;1;0.8;0;0;0;1;1.25;0
e4;1;0.4;0.4;1709;0.3418;0.5;1.25;0.34
e6;1;0.4;0.4;1786;0.3572;0.5;1.25;0.35
e4;1;0;1;0;0;0;1;0
e6;1;0;1;4364;0.8728;0;1;0.87
e4;1;0.25;0.75;1075;0.215;0.25;1;0.21
e6;1;0.25;0.75;3217;0.6434;0.25;1;0.64
e4;1;0.1;0.9;438;0.0876;0.1;1;0.08
e6;1;0.1;0.9;3864;0.7728;0.1;1;0.77
e4;1;0.75;0.25;3243;0.6486;0.75;1;0.64
e6;1;0.75;0.25;1056;0.2112;0.75;1;0.21
e4;1;1;0;4363;0.8726;1;1;0.87
e6;1;1;0;0;0;1;1;0
e4;1;0.5;0.5;2097;0.4194;0.5;1;0.42
e6;1;0.5;0.5;2201;0.4402;0.5;1;0.44
e4;1;0;0.2;0;0;0;5;0
e6;1;0;0.2;854;0.1708;0;5;0.17
e4;1;0.05;0.15;224;0.0448;0.25;5;0.04
e6;1;0.05;0.15;669;0.1338;0.25;5;0.13
e4;1;0.02;0.18;101;0.0202;0.1;5;0.02
e6;1;0.02;0.18;775;0.155;0.1;5;0.15
e4;1;0.15;0.05;663;0.1326;0.75;5;0.13
e6;1;0.15;0.05;197;0.0394;0.75;5;0.03
e4;1;0.2;0;883;0.1766;1;5;0.17
e6;1;0.2;0;0;0;1;5;0
e4;1;0.1;0.1;459;0.0918;0.5;5;0.09
e6;1;0.1;0.1;427;0.0854;0.5;5;0.08
e4;1;0;0.571429;0;0;0;1.75;0
e6;1;0;0.571429;2523;0.5046;0;1.75;0.5
e4;1;0.142857;0.428571;672;0.1344;0.25;1.75;0.13
e6;1;0.142857;0.428571;1879;0.3758;0.25;1.75;0.37
e4;1;0.0571429;0.514286;265;0.053;0.1;1.75;0.05
e6;1;0.0571429;0.514286;2315;0.463;0.1;1.75;0.46
e4;1;0.428571;0.142857;1831;0.3662;0.75;1.75;0.36
e6;1;0.428571;0.142857;674;0.1348;0.75;1.75;0.13
e4;1;0.571429;0;2522;0.5044;1;1.75;0.5
e6;1;0.571429;0;0;0;1;1.75;0
e4;1;0.285714;0.285714;1277;0.2554;0.5;1.75;0.25
e6;1;0.285714;0.285714;1228;0.2456;0.5;1.75;0.24
e4;1;0;0.285714;0;0;0;3.5;0
e6;1;0;0.285714;1252;0.2504;0;3.5;0.25
e4;1;0.0714286;0.214286;340;0.068;0.25;3.5;0.06
e6;1;0.0714286;0.214286;982;0.1964;0.25;3.5;0.19
e4;1;0.0285714;0.257143;143;0.0286;0.1;3.5;0.02
e6;1;0.0285714;0.257143;1167;0.2334;0.1;3.5;0.23
e4;1;0.214286;0.0714286;883;0.1766;0.75;3.5;0.17
e6;1;0.214286;0.0714286;311;0.0622;0.75;3.5;0.06
e4;1;0.285714;0;1270;0.254;1;3.5;0.25
e6;1;0.285714;0;0;0;1;3.5;0
e4;1;0.142857;0.142857;664;0.1328;0.5;3.5;0.13
e6;1;0.142857;0.142857;639;0.1278;0.5;3.5;0.12
e4;1;0;0.222222;0;0;0;4.5;0
e6;1;0;0.222222;1005;0.201;0;4.5;0.2
e4;1;0.0555556;0.166667;218;0.0436;0.25;4.5;0.04
e6;1;0.0555556;0.166667;704;0.1408;0.25;4.5;0.14
e4;1;0.0222222;0.2;89;0.0178;0.1;4.5;0.01
e6;1;0.0222222;0.2;840;0.168;0.1;4.5;0.16
e4;1;0.166667;0.0555556;757;0.1514;0.75;4.5;0.15
e6;1;0.166667;0.0555556;219;0.0438;0.75;4.5;0.04
e4;1;0.222222;0;980;0.196;1;4.5;0.19
e6;1;0.222222;0;0;0;1;4.5;0
e4;1;0.111111;0.111111;480;0.096;0.5;4.5;0.09
e6;1;0.111111;0.111111;483;0.0966;0.5;4.5;0.09
e4;1;0;0.666667;0;0;0;1.5;0
e6;1;0;0.666667;2944;0.5888;0;1.5;0.58
e4;1;0.166667;0.5;698;0.1396;0.25;1.5;0.13
e6;1;0.166667;0.5;2219;0.4438;0.25;1.5;0.44
e4;1;0.0666667;0.6;284;0.0568;0.1;1.5;0.05
e6;1;0.0666667;0.6;2636;0.5272;0.1;1.5;0.52
e4;1;0.5;0.166667;2251;0.4502;0.75;1.5;0.44
e6;1;0.5;0.166667;735;0.147;0.75;1.5;0.14
e4;1;0.666667;0;2954;0.5908;1;1.5;0.59
e6;1;0.666667;0;0;0;1;1.5;0
e4;1;0.333333;0.333333;1490;0.298;0.5;1.5;0.29
e6;1;0.333333;0.333333;1451;0.2902;0.5;1.5;0.28
e4;1;0;0.4;0;0;0;2.5;0
e6;1;0;0.4;1755;0.351;0;2.5;0.35
e4;1;0.1;0.3;411;0.0822;0.25;2.5;0.08
e6;1;0.1;0.3;1267;0.2534;0.25;2.5;0.25
e4;1;0.04;0.36;188;0.0376;0.1;2.5;0.03
e6;1;0.04;0.36;1558;0.3116;0.1;2.5;0.31
e4;1;0.3;0.1;1386;0.2772;0.75;2.5;0.27
e6;1;0.3;0.1;438;0.0876;0.75;2.5;0.08
e4;1;0.4;0;1732;0.3464;1;2.5;0.34
e6;1;0.4;0;0;0;1;2.5;0
e4;1;0.2;0.2;854;0.1708;0.5;2.5;0.17
e6;1;0.2;0.2;867;0.1734;0.5;2.5;0.17
e4;0.75;0;1;0;0;0;0.75;0
e6;0.75;0;1;3252;0.6504;0;0.75;0.65
e4;0.75;0.25;0.75;862;0.1724;0.25;0.75;0.17
e6;0.75;0.25;0.75;2495;0.499;0.25;0.75;0.49
e4;0.75;0.1;0.9;392;0.0784;0.1;0.75;0.07
e6;0.75;0.1;0.9;2834;0.5668;0.1;0.75;0.56
e4;0.75;0.75;0.25;2463;0.4926;0.75;0.75;0.49
e6;0.75;0.75;0.25;828;0.1656;0.75;0.75;0.16
e4;0.75;1;0;3256;0.6512;1;0.75;0.65
e6;0.75;1;0;0;0;1;0.75;0
e4;0.75;0.5;0.5;1664;0.3328;0.5;0.75;0.33
e6;0.75;0.5;0.5;1600;0.32;0.5;0.75;0.32
