e4;0.25;0;1;0;0;0;0.25;0
e6;0.25;0;1;1058;0.2116;0;0.25;0.22
e4;0.25;0.25;0.75;400;0.08;0.25;0.25;0.08
e6;0.25;0.25;0.75;643;0.1286;0.25;0.25;0.13
e4;0.25;0.1;0.9;205;0.041;0.1;0.25;0.05
e6;0.25;0.1;0.9;756;0.1512;0.1;0.25;0.16
e4;0.25;0.75;0.25;562;0.1124;0.75;0.25;0.13
e6;0.25;0.75;0.25;326;0.0652;0.75;0.25;0.07
e4;0.25;1;0;1024;0.2048;1;0.25;0.22
e6;0.25;1;0;0;0;1;0.25;0
e4;0.25;0.5;0.5;489;0.0978;0.5;0.25;0.1
e6;0.25;0.5;0.5;542;0.1084;0.5;0.25;0.11
e4;0.5;0;1;0;0;0;0.5;0
e6;0.5;0;1;2081;0.4162;0;0.5;0.42
e4;0.5;0.25;0.75;627;0.1254;0.25;0.5;0.13
e6;0.5;0.25;0.75;1468;0.2936;0.25;0.5;0.3
e4;0.5;0.1;0.9;275;0.055;0.1;0.5;0.06
e6;0.5;0.1;0.9;1635;0.327;0.1;0.5;0.36
e4;0.5;0.75;0.25;1449;0.2898;0.75;0.5;0.31
e6;0.5;0.75;0.25;547;0.1094;0.75;0.5;0.12
e4;0.5;1;0;2187;0.4374;1;0.5;0.45
e6;0.5;1;0;0;0;1;0.5;0
e4;0.5;0.5;0.5;1035;0.207;0.5;0.5;0.22
e6;0.5;0.5;0.5;1053;0.2106;0.5;0.5;0.22
e4;1;0;1;0;0;0;2;0
e6;1;0;1;4195;0.839;0;2;0.87
e4;1;0.125;0.875;457;0.0914;0.25;2;0.1
e6;1;0.125;0.875;3138;0.6276;0.25;2;0.75
e4;1;0.05;0.95;187;0.0374;0.1;2;0.04
e6;1;0.05;0.95;3547;0.7094;0.1;2;0.81
e4;1;0.375;0.625;1364;0.2728;0.75;2;0.31
e6;1;0.375;0.625;2424;0.4848;0.75;2;0.54
e4;1;0.5;0.5;1920;0.384;1;2;0.42
e6;1;0.5;0.5;1966;0.3932;1;2;0.43
e4;1;0.25;0.75;939;0.1878;0.5;2;0.21
e6;1;0.25;0.75;2963;0.5926;0.5;2;0.64
e4;1;0;1;0;0;0;3;0
e6;1;0;1;4153;0.8306;0;3;0.87
e4;1;0.0833333;0.916667;266;0.0532;0.25;3;0.06
e6;1;0.0833333;0.916667;3147;0.6294;0.25;3;0.79
e4;1;0.0333333;0.966667;134;0.0268;0.1;3;0.03
e6;1;0.0333333;0.966667;3551;0.7102;0.1;3;0.83
e4;1;0.25;0.75;948;0.1896;0.75;3;0.21
e6;1;0.25;0.75;2944;0.5888;0.75;3;0.64
e4;1;0.333333;0.666667;1210;0.242;1;3;0.27
e6;1;0.333333;0.666667;2635;0.527;1;3;0.58
e4;1;0.166667;0.833333;615;0.123;0.5;3;0.14
e6;1;0.166667;0.833333;3142;0.6284;0.5;3;0.71
e4;1;0;1;0;0;0;4;0
e6;1;0;1;4200;0.84;0;4;0.87
e4;1;0.0625;0.9375;212;0.0424;0.25;4;0.05
e6;1;0.0625;0.9375;3627;0.7254;0.25;4;0.81
e4;1;0.025;0.975;125;0.025;0.1;4;0.03
e6;1;0.025;0.975;3583;0.7166;0.1;4;0.83
e4;1;0.1875;0.8125;710;0.142;0.75;4;0.15
e6;1;0.1875;0.8125;3141;0.6282;0.75;4;0.7
e4;1;0.25;0.75;955;0.191;1;4;0.21
e6;1;0.25;0.75;2987;0.5974;1;4;0.64
e4;1;0.125;0.875;428;0.0856;0.5;4;0.1
e6;1;0.125;0.875;3043;0.6086;0.5;4;0.75
e4;0.1;0;1;0;0;0;0.1;0
e6;0.1;0;1;437;0.0874;0;0.1;0.09
e4;0.1;0.25;0.75;150;0.03;0.25;0.1;0.03
e6;0.1;0.25;0.75;228;0.0456;0.25;0.1;0.05
e4;0.1;0.1;0.9;107;0.0214;0.1;0.1;0.02
e6;0.1;0.1;0.9;225;0.045;0.1;0.1;0.05
e4;0.1;0.75;0.25;185;0.037;0.75;0.1;0.04
e6;0.1;0.75;0.25;141;0.0282;0.75;0.1;0.03
e4;0.1;1;0;407;0.0814;1;0.1;0.08
e6;0.1;1;0;0;0;1;0.1;0
e4;0.1;0.5;0.5;163;0.0326;0.5;0.1;0.04
e6;0.1;0.5;0.5;207;0.0414;0.5;0.1;0.04
e4;1;0;1;0;0;0;1.25;0
e6;1;0;1;4160;0.832;0;1.25;0.87
e4;1;0.2;0.8;767;0.1534;0.25;1.25;0.17
e6;1;0.2;0.8;3078;0.6156;0.25;1.25;0.68
e4;1;0.08;0.92;279;0.0558;0.1;1.25;0.06
e6;1;0.08;0.92;3420;0.684;0.1;1.25;0.79
e4;1;0.6;0.4;2393;0.4786;0.75;1.25;0.5
e6;1;0.6;0.4;1646;0.3292;0.75;1.25;0.35
e4;1;0.8;0.2;3046;0.6092;1;1.25;0.68
e6;1;0.8;0.2;735;0.147;1;1.25;0.17
e4;1;0.4;0.6;1599;0.3198;0.5;1.25;0.34
e6;1;0.4;0.6;2365;0.473;0.5;1.25;0.51
e4;1;0;1;0;0;0;1;0
e6;1;0;1;4078;0.8156;0;1;0.87
e4;1;0.25;0.75;978;0.1956;0.25;1;0.21
e6;1;0.25;0.75;3029;0.6058;0.25;1;0.64
e4;1;0.1;0.9;350;0.07;0.1;1;0.08
e6;1;0.1;0.9;3153;0.6306;0.1;1;0.77
e4;1;0.75;0.25;3025;0.605;0.75;1;0.65
e6;1;0.75;0.25;950;0.19;0.75;1;0.21
e4;1;1;0;4185;0.837;1;1;0.87
e6;1;1;0;0;0;1;1;0
e4;1;0.5;0.5;1892;0.3784;0.5;1;0.41
e6;1;0.5;0.5;2032;0.4064;0.5;1;0.44
e4;1;0;1;0;0;0;3.25;0
e6;1;0;1;4197;0.8394;0;3.25;0.87
e4;1;0.0769231;0.923077;261;0.0522;0.25;3.25;0.06
e6;1;0.0769231;0.923077;3248;0.6496;0.25;3.25;0.79
e4;1;0.0307692;0.969231;128;0.0256;0.1;3.25;0.03
e6;1;0.0307692;0.969231;3720;0.744;0.1;3.25;0.83
e4;1;0.230769;0.769231;864;0.1728;0.75;3.25;0.19
e6;1;0.230769;0.769231;2993;0.5986;0.75;3.25;0.66
e4;1;0.307692;0.692308;1240;0.248;1;3.25;0.27
e6;1;0.307692;0.692308;2716;0.5432;1;3.25;0.58
e4;1;0.153846;0.846154;598;0.1196;0.5;3.25;0.13
e6;1;0.153846;0.846154;3359;0.6718;0.5;3.25;0.72
e4;1;0;1;0;0;0;2.75;0
e6;1;0;1;4116;0.8232;0;2.75;0.87
e4;1;0.0909091;0.909091;319;0.0638;0.25;2.75;0.07
e6;1;0.0909091;0.909091;3313;0.6626;0.25;2.75;0.78
e4;1;0.0363636;0.963636;133;0.0266;0.1;2.75;0.03
e6;1;0.0363636;0.963636;3450;0.69;0.1;2.75;0.82
e4;1;0.272727;0.727273;1069;0.2138;0.75;2.75;0.23
e6;1;0.272727;0.727273;2928;0.5856;0.75;2.75;0.62
e4;1;0.363636;0.636364;1445;0.289;1;2.75;0.31
e6;1;0.363636;0.636364;2580;0.516;1;2.75;0.54
e4;1;0.181818;0.818182;691;0.1382;0.5;2.75;0.15
e6;1;0.181818;0.818182;3195;0.639;0.5;2.75;0.7
e4;1;0;1;0;0;0;3.5;0
e6;1;0;1;4254;0.8508;0;3.5;0.87
e4;1;0.0714286;0.928571;244;0.0488;0.25;3.5;0.06
e6;1;0.0714286;0.928571;3093;0.6186;0.25;3.5;0.79
e4;1;0.0285714;0.971429;134;0.0268;0.1;3.5;0.03
e6;1;0.0285714;0.971429;3792;0.7584;0.1;3.5;0.83
e4;1;0.214286;0.785714;779;0.1558;0.75;3.5;0.17
e6;1;0.214286;0.785714;3060;0.612;0.75;3.5;0.68
e4;1;0.285714;0.714286;1072;0.2144;1;3.5;0.24
e6;1;0.285714;0.714286;2783;0.5566;1;3.5;0.61
e4;1;0.142857;0.857143;535;0.107;0.5;3.5;0.12
e6;1;0.142857;0.857143;3229;0.6458;0.5;3.5;0.73
e4;1;0;1;0;0;0;4.25;0
e6;1;0;1;4216;0.8432;0;4.25;0.87
e4;1;0.0588235;0.941176;224;0.0448;0.25;4.25;0.05
e6;1;0.0588235;0.941176;3710;0.742;0.25;4.25;0.8
e4;1;0.0235294;0.976471;54;0.0108;0.1;4.25;0.01
e6;1;0.0235294;0.976471;3051;0.6102;0.1;4.25;0.84
e4;1;0.176471;0.823529;654;0.1308;0.75;4.25;0.15
e6;1;0.176471;0.823529;3029;0.6058;0.75;4.25;0.7
e4;1;0.235294;0.764706;899;0.1798;1;4.25;0.19
e6;1;0.235294;0.764706;3113;0.6226;1;4.25;0.66
e4;1;0.117647;0.882353;454;0.0908;0.5;4.25;0.1
e6;1;0.117647;0.882353;3310;0.662;0.5;4.25;0.75
e4;1;0;1;0;0;0;3.75;0
e6;1;0;1;4170;0.834;0;3.75;0.87
e4;1;0.0666667;0.933333;285;0.057;0.25;3.75;0.06
e6;1;0.0666667;0.933333;3660;0.732;0.25;3.75;0.79
e4;1;0.0266667;0.973333;125;0.025;0.1;3.75;0.03
e6;1;0.0266667;0.973333;3523;0.7046;0.1;3.75;0.83
e4;1;0.2;0.8;807;0.1614;0.75;3.75;0.17
e6;1;0.2;0.8;3180;0.636;0.75;3.75;0.68
e4;1;0.266667;0.733333;1042;0.2084;1;3.75;0.23
e6;1;0.266667;0.733333;2894;0.5788;1;3.75;0.62
e4;1;0.133333;0.866667;457;0.0914;0.5;3.75;0.1
e6;1;0.133333;0.866667;3333;0.6666;0.5;3.75;0.75
e4;1;0;1;0;0;0;4.5;0
e6;1;0;1;4075;0.815;0;4.5;0.87
e4;1;0.0555556;0.944444;209;0.0418;0.25;4.5;0.05
e6;1;0.0555556;0.944444;3598;0.7196;0.25;4.5;0.8
e4;1;0.0222222;0.977778;50;0.01;0.1;4.5;0.01
e6;1;0.0222222;0.977778;2992;0.5984;0.1;4.5;0.84
e4;1;0.166667;0.833333;656;0.1312;0.75;4.5;0.14
e6;1;0.166667;0.833333;3248;0.6496;0.75;4.5;0.71
e4;1;0.222222;0.777778;856;0.1712;1;4.5;0.19
e6;1;0.222222;0.777778;2992;0.5984;1;4.5;0.66
e4;1;0.111111;0.888889;404;0.0808;0.5;4.5;0.09
e6;1;0.111111;0.888889;3359;0.6718;0.5;4.5;0.76
e4;1;0;1;0;0;0;1.75;0
e6;1;0;1;4251;0.8502;0;1.75;0.87
e4;1;0.142857;0.857143;575;0.115;0.25;1.75;0.12
e6;1;0.142857;0.857143;3405;0.681;0.25;1.75;0.73
e4;1;0.0571429;0.942857;205;0.041;0.1;1.75;0.05
e6;1;0.0571429;0.942857;3227;0.6454;0.1;1.75;0.8
e4;1;0.428571;0.571429;1792;0.3584;0.75;1.75;0.37
e6;1;0.428571;0.571429;2322;0.4644;0.75;1.75;0.48
e4;1;0.571429;0.428571;2302;0.4604;1;1.75;0.5
e6;1;0.571429;0.428571;1667;0.3334;1;1.75;0.35
e4;1;0.285714;0.714286;1088;0.2176;0.5;1.75;0.24
e6;1;0.285714;0.714286;2806;0.5612;0.5;1.75;0.61
e4;1;0;1;0;0;0;4.75;0
e6;1;0;1;4236;0.8472;0;4.75;0.87
e4;1;0.0526316;0.947368;181;0.0362;0.25;4.75;0.04
e6;1;0.0526316;0.947368;3553;0.7106;0.25;4.75;0.81
e4;1;0.0210526;0.978947;48;0.0096;0.1;4.75;0.01
e6;1;0.0210526;0.978947;2844;0.5688;0.1;4.75;0.84
e4;1;0.157895;0.842105;523;0.1046;0.75;4.75;0.12
e6;1;0.157895;0.842105;3184;0.6368;0.75;4.75;0.73
e4;1;0.210526;0.789474;792;0.1584;1;4.75;0.17
e6;1;0.210526;0.789474;3073;0.6146;1;4.75;0.68
e4;1;0.105263;0.894737;409;0.0818;0.5;4.75;0.09
e6;1;0.105263;0.894737;3352;0.6704;0.5;4.75;0.76
e4;1;0;1;0;0;0;2.5;0
e6;1;0;1;4171;0.8342;0;2.5;0.87
e4;1;0.1;0.9;361;0.0722;0.25;2.5;0.08
e6;1;0.1;0.9;3241;0.6482;0.25;2.5;0.77
e4;1;0.04;0.96;133;0.0266;0.1;2.5;0.03
e6;1;0.04;0.96;3491;0.6982;0.1;2.5;0.82
e4;1;0.3;0.7;1181;0.2362;0.75;2.5;0.25
e6;1;0.3;0.7;2755;0.551;0.75;2.5;0.6
e4;1;0.4;0.6;1578;0.3156;1;2.5;0.34
e6;1;0.4;0.6;2432;0.4864;1;2.5;0.51
e4;1;0.2;0.8;784;0.1568;0.5;2.5;0.17
e6;1;0.2;0.8;3215;0.643;0.5;2.5;0.68
e4;1;0;1;0;0;0;5;0
e6;1;0;1;4154;0.8308;0;5;0.87
e4;1;0.05;0.95;161;0.0322;0.25;5;0.04
e6;1;0.05;0.95;3226;0.6452;0.25;5;0.81
e4;1;0.02;0.98;42;0.0084;0.1;5;0.01
e6;1;0.02;0.98;2842;0.5684;0.1;5;0.84
e4;1;0.15;0.85;595;0.119;0.75;5;0.13
e6;1;0.15;0.85;3314;0.6628;0.75;5;0.73
e4;1;0.2;0.8;794;0.1588;1;5;0.17
e6;1;0.2;0.8;3187;0.6374;1;5;0.68
e4;1;0.1;0.9;384;0.0768;0.5;5;0.08
e6;1;0.1;0.9;3432;0.6864;0.5;5;0.77
e4;1;0;1;0;0;0;1.5;0
e6;1;0;1;4144;0.8288;0;1.5;0.87
e4;1;0.166667;0.833333;669;0.1338;0.25;1.5;0.14
e6;1;0.166667;0.833333;3337;0.6674;0.25;1.5;0.71
e4;1;0.0666667;0.933333;264;0.0528;0.1;1.5;0.06
e6;1;0.0666667;0.933333;3379;0.6758;0.1;1.5;0.79
e4;1;0.5;0.5;1893;0.3786;0.75;1.5;0.41
e6;1;0.5;0.5;1978;0.3956;0.75;1.5;0.43
e4;1;0.666667;0.333333;2677;0.5354;1;1.5;0.57
e6;1;0.666667;0.333333;1307;0.2614;1;1.5;0.28
e4;1;0.333333;0.666667;1206;0.2412;0.5;1.5;0.27
e6;1;0.333333;0.666667;2666;0.5332;0.5;1.5;0.58
e4;1;0;1;0;0;0;2.25;0
e6;1;0;1;4170;0.834;0;2.25;0.87
e4;1;0.111111;0.888889;382;0.0764;0.25;2.25;0.09
e6;1;0.111111;0.888889;3334;0.6668;0.25;2.25;0.76
e4;1;0.0444444;0.955556;132;0.0264;0.1;2.25;0.03
e6;1;0.0444444;0.955556;3492;0.6984;0.1;2.25;0.82
e4;1;0.333333;0.666667;1247;0.2494;0.75;2.25;0.27
e6;1;0.333333;0.666667;2684;0.5368;0.75;2.25;0.58
e4;1;0.444444;0.555556;1774;0.3548;1;2.25;0.37
e6;1;0.444444;0.555556;2312;0.4624;1;2.25;0.48
e4;1;0.222222;0.777778;863;0.1726;0.5;2.25;0.19
e6;1;0.222222;0.777778;3045;0.609;0.5;2.25;0.66
e4;0.75;0;1;0;0;0;0.75;0
e6;0.75;0;1;3225;0.645;0;0.75;0.65
e4;0.75;0.25;0.75;768;0.1536;0.25;0.75;0.17
e6;0.75;0.25;0.75;2246;0.4492;0.25;0.75;0.49
e4;0.75;0.1;0.9;298;0.0596;0.1;0.75;0.07
e6;0.75;0.1;0.9;2344;0.4688;0.1;0.75;0.56
e4;0.75;0.75;0.25;2246;0.4492;0.75;0.75;0.49
e6;0.75;0.75;0.25;761;0.1522;0.75;0.75;0.16
e4;0.75;1;0;3109;0.6218;1;0.75;0.65
e6;0.75;1;0;0;0;1;0.75;0
e4;0.75;0.5;0.5;1582;0.3164;0.5;0.75;0.33
e6;0.75;0.5;0.5;1498;0.2996;0.5;0.75;0.32
