step;d2;d3;d1
1;0;0;0
2;0;0;0
3;0;0;0
4;0;0;0
5;0;0;0
6;0;0;0
7;0;0;0
8;0;0;0
9;0;0;0
10;0;0;0
11;0;0;0
12;0;0;0
13;0;0;0
14;0;0;0
15;0;0;0
16;0;0;0
17;0;0;0
18;0;0;0
19;0;0;0
20;0;0;0
21;0;0;0
22;0;0;0
23;0;0;0
24;0;0;0
25;0;0;0
26;0;0;0
27;0;0;0
28;0;0;0
29;0;0;0
30;0;0;0
31;0;0;0
32;0;0;0
33;0;0;0
34;0;0;0
35;0;0;0
36;0;0;0
37;0;0;0
38;0;0;0
39;0;0;0
40;0;0;0
41;0;0;0
42;0;0;0
43;0;0;0
44;0;0;0
45;0;0;0
46;0;0;0
47;0;0;0
48;0;0;0
49;0;0;0
50;0;0;0
51;0;0;0
52;0;0;0
53;0;0;0
54;0;0;0
55;0;0;0
56;0;0;0
57;0;0;0
58;0;0;0
59;0;0;0
60;0;0;0
61;0;0;0
62;0;0;0
63;0;0;0
64;0;0;0
65;0;0;0
66;0;0;0
67;0;0;0
68;0;0;0
69;0;0;0
70;0;0;0
71;0;0;0
72;0;0;0
73;0;0;0
74;0;0;0
75;0;1;0
76;1;0;0
77;0;0;1
78;1;0;0
79;0;0;0
80;0;0;1
81;1;0;0
82;0;1;0
83;0;1;0
84;1;0;0
85;1;0;0
86;0;1;0
87;1;1;0
88;0;1;0
89;1;1;0
90;0;1;0
91;0;0;1
92;1;0;0
93;1;1;0
94;0;1;0
95;0;1;0
96;0;0;1
97;0;0;0
98;1;0;0
99;0;0;1
100;0;0;2
101;0;1;1
102;0;0;0
103;0;1;1
104;1;1;0
105;0;1;0
106;1;1;0
107;0;1;1
108;0;2;0
109;1;0;0
110;1;0;1
111;0;0;0
112;1;0;1
113;0;1;1
114;1;1;2
115;0;2;3
116;0;2;3
117;1;2;2
118;0;2;3
119;0;0;3
120;0;1;2
121;1;0;1
122;0;0;1
123;1;0;0
124;0;0;1
125;0;0;0
126;0;0;0
127;0;1;1
128;0;0;2
129;2;0;0
130;0;1;0
131;0;1;1
132;0;0;0
133;1;0;0
134;0;0;0
135;0;0;1
136;1;0;0
137;0;0;0
138;0;0;0
139;1;0;1
140;0;0;0
141;0;1;1
142;1;1;1
143;0;1;1
144;1;1;1
145;0;1;1
146;1;1;0
147;0;0;1
148;0;1;0
149;1;0;1
150;0;1;0
151;1;1;0
152;1;2;1
153;0;1;2
154;1;0;1
155;0;0;0
156;0;1;0
157;1;1;1
158;2;0;0
159;0;0;1
160;0;1;1
161;1;0;2
162;2;0;1
163;0;0;2
164;1;1;2
165;1;0;1
166;1;1;0
167;0;1;1
168;0;0;0
169;1;0;1
170;1;0;0
171;0;0;1
172;0;1;0
173;0;1;0
174;1;0;0
175;0;0;0
176;0;1;0
177;1;0;1
178;1;1;0
179;1;0;0
180;1;1;1
181;0;0;1
182;1;1;1
183;0;2;2
184;1;1;2
185;0;1;2
186;0;1;1
187;1;0;0
188;0;0;0
189;0;1;2
190;1;0;1
191;0;0;0
192;1;0;0
193;1;0;0
194;1;0;1
195;1;0;0
196;0;0;2
197;1;0;1
198;1;0;1
199;0;1;1
200;0;0;0
201;1;0;0
202;1;1;0
203;0;1;1
204;0;1;1
205;0;1;0
206;0;0;0
207;2;1;0
208;0;1;0
209;0;1;1
210;1;0;2
211;0;0;2
212;1;1;2
213;1;0;2
214;0;0;1
215;1;0;1
216;0;1;2
217;1;1;1
218;0;1;2
219;1;0;1
220;0;0;1
221;1;0;0
222;0;0;0
223;0;0;0
224;0;0;0
225;1;0;0
226;1;1;1
227;0;1;2
228;1;0;1
229;0;1;0
230;1;0;0
231;0;0;1
232;1;0;0
233;0;0;1
234;1;0;0
235;0;0;0
236;0;1;0
237;1;0;1
238;0;0;0
239;0;0;0
240;1;0;1
241;0;1;0
242;0;1;1
243;1;0;0
244;1;0;1
245;0;0;1
246;0;0;0
247;1;1;0
248;1;1;0
249;1;1;1
250;1;0;1
251;1;1;1
252;0;0;1
253;1;1;0
254;0;1;0
255;1;0;1
256;0;0;1
257;1;0;1
258;0;0;0
259;0;0;1
260;1;0;0
261;0;0;0
262;0;0;0
263;0;1;1
264;0;1;0
265;1;0;0
266;0;0;0
267;0;0;0
268;0;1;0
269;0;1;1
270;1;0;2
271;0;0;1
272;0;0;1
273;0;0;1
274;0;1;1
275;1;0;0
276;0;1;0
277;2;1;0
278;1;2;1
279;0;2;1
280;1;1;2
281;1;2;1
282;1;1;2
283;2;2;2
284;0;2;3
285;0;1;3
286;0;1;2
287;1;0;2
288;0;1;2
289;1;0;2
290;0;0;1
291;0;0;1
292;1;0;0
293;0;0;0
294;0;0;1
295;0;0;1
296;1;1;0
297;0;0;1
298;1;1;0
299;0;0;0
300;1;1;1
301;1;1;0
302;1;2;1
303;0;2;2
304;0;0;2
305;1;0;2
306;0;0;2
307;0;0;2
308;1;1;1
309;0;1;2
310;0;1;1
311;0;1;1
312;1;1;1
313;0;2;1
314;0;2;1
315;0;2;0
316;1;1;0
317;1;1;0
318;0;1;0
319;1;1;1
320;0;1;0
321;1;1;1
322;0;2;1
323;0;1;1
324;1;0;0
325;0;1;0
326;0;1;1
327;1;0;1
328;0;1;0
329;0;0;0
330;1;0;0
331;1;0;1
332;0;1;0
333;0;1;1
334;0;0;2
335;0;1;2
336;1;0;2
337;2;1;2
338;0;2;2
339;0;1;3
340;0;1;2
341;1;1;2
342;1;1;2
343;1;1;2
344;1;0;2
345;0;1;1
346;1;1;0
347;0;1;1
348;0;1;1
349;0;1;1
350;1;1;0
351;0;1;1
352;1;1;0
353;0;1;0
354;0;1;0
355;1;1;1
356;0;2;0
357;0;1;1
358;0;0;0
359;1;0;1
360;0;1;0
361;1;0;1
362;1;0;0
363;0;1;1
364;1;1;0
365;0;0;0
366;1;0;1
367;0;1;1
368;1;0;0
369;0;0;1
370;1;0;0
371;0;0;1
372;1;0;1
373;0;0;1
374;1;0;0
375;0;1;0
376;0;0;1
377;0;1;0
378;1;1;1
379;0;1;2
380;1;0;1
381;0;0;1
382;0;1;0
383;1;1;1
384;1;0;1
385;1;1;1
386;1;1;1
387;0;1;2
388;1;0;1
389;0;1;1
390;0;0;1
391;0;1;1
392;0;1;0
393;1;0;0
394;1;0;0
395;0;1;1
396;1;1;0
397;0;1;1
398;0;0;0
399;1;0;0
400;0;0;0
401;1;2;1
402;0;2;1
403;0;0;1
404;1;1;1
405;0;2;1
406;1;2;1
407;0;2;1
408;0;1;2
409;1;1;2
410;1;0;2
411;1;0;2
412;0;0;2
413;1;0;1
414;0;0;1
415;0;0;0
416;0;0;1
417;1;1;0
418;1;1;0
419;0;1;1
420;1;0;1
421;0;0;0
422;0;0;1
423;0;0;0
424;1;0;1
425;1;0;0
426;0;1;1
427;0;1;1
428;1;1;1
429;0;1;1
430;1;1;0
431;0;1;1
432;1;0;0
433;0;0;0
434;0;1;1
435;1;1;1
436;1;1;1
437;1;0;1
438;1;1;0
439;0;0;0
440;1;1;1
441;0;0;2
442;0;0;1
443;1;1;1
444;0;2;1
445;1;1;2
446;0;1;1
447;0;1;1
448;1;1;2
449;0;1;2
450;1;1;2
451;0;0;2
452;1;1;1
453;0;1;1
454;0;0;1
455;1;0;0
456;0;0;0
457;1;1;1
458;0;0;1
459;1;0;1
460;0;0;0
461;1;0;1
462;0;1;2
463;1;0;2
464;0;1;2
465;1;1;2
466;0;1;2
467;0;0;1
468;0;0;0
469;1;0;0
470;0;0;1
471;0;1;0
472;1;1;1
473;1;1;1
474;1;0;0
475;0;0;1
476;0;1;0
477;1;0;1
478;0;1;0
479;0;0;1
480;1;1;0
481;0;0;1
482;0;0;0
483;0;1;1
484;0;1;1
485;1;0;1
486;0;0;0
487;0;1;0
488;1;1;0
489;0;1;1
490;0;0;0
491;1;0;1
492;1;0;0
493;0;0;1
494;1;0;0
495;0;1;0
496;1;0;1
497;0;1;0
498;1;1;1
499;0;1;2
500;1;1;1
501;0;1;1
502;1;0;0
503;0;1;1
504;1;1;0
505;0;1;0
506;0;0;1
507;1;1;1
508;0;2;1
509;0;2;1
510;1;1;0
511;0;1;0
512;0;0;0
513;1;1;1
514;0;2;1
515;1;1;1
516;0;2;1
517;1;0;1
518;0;0;0
519;0;0;1
520;0;1;0
521;0;0;1
522;1;1;0
523;0;1;0
524;0;1;0
525;0;0;1
526;0;0;1
527;0;1;0
528;1;1;0
529;0;1;0
530;0;0;1
531;1;0;0
532;0;1;0
533;0;1;1
534;0;0;0
535;1;1;0
536;1;2;1
537;0;1;1
538;1;2;0
539;0;2;1
540;0;0;1
541;1;1;0
542;0;1;0
543;0;1;0
544;0;1;1
545;1;1;0
546;0;1;1
547;0;0;0
548;0;0;0
549;0;1;1
550;0;0;0
551;1;1;0
552;0;0;0
553;1;0;0
554;0;1;0
555;0;1;1
556;0;1;1
557;0;1;1
558;0;0;0
559;0;0;0
560;0;1;1
561;0;0;1
562;1;0;1
563;1;1;0
564;0;0;0
565;0;1;0
566;1;0;0
567;0;0;0
568;1;0;1
569;1;1;1
570;1;1;1
571;0;0;2
572;0;1;1
573;1;0;0
574;0;1;0
575;0;0;1
576;1;1;0
577;0;2;1
578;0;0;1
579;1;1;0
580;0;0;0
581;0;0;1
582;1;1;0
583;1;1;1
584;2;2;1
585;0;1;2
586;0;0;1
587;0;1;1
588;0;1;0
589;1;1;0
590;0;2;1
591;1;0;1
592;0;0;1
593;1;1;0
594;0;0;0
595;0;1;1
596;0;0;0
597;0;0;1
598;1;1;1
599;0;0;2
600;1;0;1
601;0;0;1
602;1;0;0
603;0;1;1
604;0;1;0
605;1;0;1
606;1;0;1
607;0;1;1
608;1;1;0
609;0;2;1
610;1;1;1
611;0;1;1
612;1;0;1
613;0;0;1
614;0;0;0
615;0;0;1
616;0;0;0
617;1;1;0
618;0;1;1
619;1;0;0
620;0;1;0
621;0;1;0
622;0;1;1
623;1;0;0
624;0;1;0
625;0;0;0
626;0;0;0
627;0;1;0
628;0;1;0
629;1;0;1
630;0;1;0
631;1;1;0
632;0;2;0
633;1;1;1
634;0;2;0
635;1;1;1
636;0;1;1
637;1;1;0
638;0;2;0
639;1;1;0
640;0;1;0
641;0;1;0
642;0;0;1
643;0;1;0
644;0;1;1
645;0;1;0
646;1;0;0
647;0;0;0
648;0;1;1
649;0;0;0
650;1;0;1
651;1;0;1
652;0;0;0
653;1;1;1
654;0;1;1
655;1;1;1
656;0;1;2
657;1;1;1
658;0;1;1
659;0;0;0
660;0;1;0
661;0;1;0
662;1;1;1
663;0;1;1
664;1;1;1
665;0;1;2
666;1;2;1
667;0;1;2
668;0;1;1
669;1;0;1
670;1;0;1
671;0;0;1
672;0;1;1
673;1;1;0
674;0;1;1
675;0;1;0
676;1;1;1
677;1;0;1
678;0;0;2
679;1;0;1
680;0;1;0
681;0;0;1
682;0;0;0
683;0;0;0
684;0;0;1
685;0;1;0
686;0;0;1
687;0;0;0
688;1;0;1
689;0;0;0
690;1;1;0
691;0;0;1
692;0;1;0
693;1;1;1
694;1;2;1
695;0;3;2
696;1;3;1
697;0;3;1
698;0;2;2
699;1;2;1
700;0;2;2
701;1;1;2
702;0;1;2
703;0;1;1
704;0;1;0
705;1;1;0
706;0;0;1
707;1;0;0
708;0;1;1
709;1;0;0
710;0;1;0
711;0;1;0
712;0;1;0
713;1;1;1
714;0;0;1
715;0;0;1
716;1;1;0
717;0;1;1
718;0;1;0
719;1;0;1
720;1;1;1
721;0;1;0
722;1;1;1
723;0;1;1
724;0;0;0
725;1;1;0
726;0;1;1
727;0;0;0
728;1;0;0
729;1;0;0
730;1;0;0
731;0;1;0
732;1;1;1
733;1;0;1
734;1;0;0
735;0;0;1
736;1;1;0
737;1;0;1
738;1;0;0
739;0;1;1
740;0;1;0
741;1;0;0
742;1;1;1
743;0;1;2
744;1;1;1
745;0;1;2
746;1;0;1
747;0;1;1
748;0;0;0
749;0;0;0
750;1;1;0
751;0;1;1
752;1;1;0
753;0;1;0
754;0;1;0
755;0;1;1
756;0;1;0
757;1;1;0
758;0;1;0
759;0;0;0
760;1;0;1
761;0;1;0
762;1;0;0
763;0;0;1
764;1;1;0
765;0;1;0
766;1;0;1
767;0;0;0
768;1;0;1
769;0;1;1
770;1;1;0
771;0;2;0
772;1;1;0
773;0;1;0
774;0;1;0
775;1;1;0
776;0;2;1
777;1;1;1
778;1;2;1
779;0;1;1
780;0;0;0
781;1;1;0
782;1;1;1
783;1;1;0
784;0;0;1
785;0;1;0
786;1;1;0
787;0;1;1
788;1;0;0
789;0;1;1
790;1;1;0
791;0;0;1
792;1;0;0
793;0;0;0
794;1;1;1
795;0;0;2
796;1;1;1
797;0;1;1
798;0;2;0
799;1;0;0
800;0;0;1
801;0;0;0
802;1;1;0
803;1;1;1
804;0;1;1
805;0;0;1
806;0;0;0
807;0;1;0
808;0;0;1
809;0;1;1
810;1;1;0
811;0;0;0
812;1;0;1
813;0;1;0
814;0;0;1
815;1;0;1
816;0;1;0
817;0;0;0
818;1;0;0
819;0;0;0
820;0;0;1
821;0;0;0
822;1;0;1
823;1;1;0
824;0;2;0
825;0;2;0
826;1;1;1
827;0;2;0
828;1;1;0
829;0;1;1
830;1;1;0
831;0;1;0
832;1;1;1
833;1;0;1
834;0;0;0
835;1;0;1
836;0;1;0
837;1;0;0
838;0;0;0
839;0;0;0
840;1;1;2
841;0;1;3
842;1;1;2
843;0;1;3
844;1;0;2
845;0;0;2
846;0;0;1
847;0;0;0
848;1;0;0
849;0;1;0
850;0;1;1
851;1;0;1
852;0;1;1
853;0;1;1
854;1;1;0
855;0;0;1
856;1;1;0
857;0;0;1
858;1;0;0
859;0;0;0
860;1;1;1
861;0;1;2
862;1;1;1
863;0;0;1
864;1;1;1
865;0;1;1
866;1;0;1
867;0;1;2
868;1;0;1
869;0;1;2
870;0;0;1
871;0;1;0
872;0;1;0
873;1;1;1
874;1;1;1
875;1;0;1
876;0;1;0
877;1;1;0
878;1;0;1
879;0;0;0
880;0;0;1
881;1;0;0
882;0;1;0
883;1;0;1
884;0;0;1
885;0;0;0
886;1;0;0
887;0;0;0
888;0;1;1
889;1;0;0
890;0;1;1
891;0;1;0
892;1;1;0
893;0;1;1
894;1;0;0
895;0;0;0
896;0;1;0
897;0;1;1
898;1;1;0
899;0;0;1
900;1;1;0
901;0;2;0
902;0;1;1
903;1;1;0
904;0;0;1
905;0;1;0
906;1;0;0
907;0;1;1
908;1;2;0
909;0;2;1
910;0;2;0
911;1;1;0
912;1;1;0
913;0;2;0
914;0;3;1
915;0;2;1
916;0;2;1
917;1;3;0
918;0;2;1
919;0;2;0
920;0;1;0
921;0;1;1
922;1;0;0
923;0;0;1
924;0;1;1
925;1;1;0
926;0;0;0
927;1;0;1
928;0;1;0
929;1;1;1
930;0;0;2
931;1;0;1
932;0;0;1
933;0;1;1
934;1;1;1
935;1;1;1
936;1;1;1
937;0;2;1
938;0;0;1
939;1;0;1
940;1;1;0
941;0;2;0
942;0;0;1
943;0;0;1
944;2;1;0
945;0;2;0
946;0;1;1
947;1;1;0
948;0;1;0
949;1;0;1
950;0;1;1
951;1;0;0
952;0;0;1
953;0;0;1
954;0;1;0
955;0;2;0
956;0;1;0
957;1;0;1
958;0;1;0
959;0;1;1
960;1;1;1
961;1;0;1
962;0;1;1
963;1;1;0
964;0;2;1
965;0;2;1
966;1;1;1
967;1;0;1
968;0;1;1
969;0;1;1
970;0;0;1
971;1;0;0
972;0;1;1
973;0;1;1
974;1;0;0
975;0;1;1
976;0;1;0
977;0;0;0
978;0;2;1
979;1;2;1
980;0;4;0
981;1;2;1
982;1;2;1
983;1;1;1
984;1;0;1
985;1;1;0
986;0;0;1
987;1;1;0
988;0;1;0
989;1;1;1
990;0;0;1
991;1;1;1
992;0;2;1
993;1;1;1
994;0;1;0
995;0;0;1
996;0;1;0
997;0;1;0
998;0;1;1
999;1;2;0
1000;0;2;1
1001;0;2;0
1002;0;0;0
1003;1;1;0
1004;0;1;1
1005;1;1;1
1006;0;1;1
1007;1;0;0
1008;1;0;1
1009;0;1;1
1010;0;0;1
1011;1;1;0
1012;0;1;0
1013;0;1;1
1014;1;0;0
1015;0;1;1
1016;0;1;0
1017;1;0;0
1018;1;0;1
1019;0;1;0
1020;0;0;1
1021;1;1;0
1022;1;0;1
1023;0;1;0
1024;0;0;0
1025;0;0;1
1026;1;0;0
1027;0;0;0
1028;0;0;1
1029;0;0;2
1030;1;1;1
1031;0;0;1
1032;1;1;1
1033;0;1;1
1034;0;1;1
1035;1;1;0
1036;0;0;0
1037;0;1;0
1038;1;1;0
1039;1;1;1
1040;1;1;1
1041;1;1;1
1042;1;0;2
1043;0;0;2
1044;1;1;2
1045;1;0;2
1046;0;0;2
1047;1;0;1
1048;0;0;0
1049;1;0;1
1050;0;0;1
1051;1;1;0
1052;0;1;1
1053;0;0;0
1054;1;1;1
1055;1;3;1
1056;1;2;2
1057;0;2;1
1058;1;2;1
1059;2;3;0
1060;1;3;0
1061;0;3;0
1062;1;2;0
1063;0;2;0
1064;0;1;1
1065;1;0;0
1066;0;1;0
1067;1;1;0
1068;0;1;1
1069;0;1;0
1070;1;1;1
1071;1;0;1
1072;0;0;1
1073;1;1;0
1074;0;1;0
1075;0;1;0
1076;1;1;0
1077;1;0;0
1078;0;1;1
1079;0;0;0
1080;1;1;0
1081;0;1;0
1082;1;1;1
1083;1;2;1
1084;0;2;1
1085;1;2;1
1086;1;2;1
1087;1;2;0
1088;0;1;1
1089;1;1;0
1090;0;0;0
1091;1;1;1
1092;1;1;1
1093;1;1;1
1094;1;2;0
1095;1;2;1
1096;0;2;2
1097;0;2;1
1098;1;1;2
1099;1;2;1
1100;0;1;1
1101;1;1;0
1102;0;0;1
1103;0;0;0
1104;0;1;0
1105;1;1;0
1106;0;2;1
1107;1;0;1
1108;0;1;1
1109;1;1;0
1110;0;1;0
1111;0;1;1
1112;1;1;0
1113;0;1;1
1114;1;0;1
1115;0;0;0
1116;1;0;1
1117;0;0;1
1118;0;1;0
1119;1;1;0
1120;1;0;1
1121;0;1;0
1122;0;0;1
1123;1;0;1
1124;1;0;0
1125;0;1;0
1126;1;1;1
1127;0;0;2
1128;1;0;1
1129;0;1;0
1130;1;1;1
1131;0;2;2
1132;1;1;2
1133;1;1;1
1134;0;0;2
1135;0;1;2
1136;0;0;1
1137;1;1;0
1138;0;1;1
1139;1;1;0
1140;0;1;1
1141;1;1;1
1142;0;1;1
1143;1;0;0
1144;0;1;0
1145;0;1;0
1146;1;1;1
1147;0;0;2
1148;1;0;1
1149;0;0;0
1150;0;1;1
1151;0;1;1
1152;1;1;0
1153;1;0;1
1154;1;0;0
1155;0;1;0
1156;1;0;0
1157;0;1;1
1158;1;1;0
1159;0;1;1
1160;0;1;1
1161;1;1;0
1162;1;1;1
1163;1;0;1
1164;1;1;0
1165;0;0;1
1166;0;1;0
1167;1;1;0
1168;0;1;1
1169;0;2;0
1170;1;2;0
1171;1;2;1
1172;0;3;1
1173;0;2;2
1174;0;3;1
1175;1;2;1
1176;0;2;0
1177;0;2;1
1178;0;1;0
1179;0;0;0
1180;0;2;0
1181;0;2;1
1182;0;2;0
1183;0;1;0
1184;1;0;0
1185;0;0;1
1186;0;1;0
1187;1;0;0
1188;0;1;0
1189;1;1;0
1190;0;1;0
1191;1;1;0
1192;0;2;0
1193;0;1;1
1194;0;2;1
1195;0;1;1
1196;1;1;1
1197;1;0;1
1198;0;0;1
1199;0;0;0
1200;1;0;0
1201;0;1;1
1202;0;1;0
1203;1;1;1
1204;1;1;1
1205;1;0;1
1206;0;1;0
1207;0;1;0
1208;0;1;1
1209;0;0;0
1210;0;1;1
1211;1;0;0
1212;0;1;1
1213;0;1;0
1214;1;1;1
1215;0;2;1
1216;0;1;1
1217;1;0;1
1218;1;1;0
1219;0;1;1
1220;1;1;0
1221;1;2;0
1222;0;1;0
1223;0;1;0
1224;0;0;1
1225;0;1;0
1226;1;1;1
1227;1;0;1
1228;0;1;1
1229;0;1;0
1230;0;1;1
1231;0;0;0
1232;1;1;1
1233;1;1;1
1234;1;1;0
1235;0;2;0
1236;0;1;0
1237;1;1;1
1238;1;2;0
1239;0;3;0
1240;1;2;0
1241;0;2;0
1242;1;1;1
1243;0;1;1
1244;0;0;0
1245;1;0;1
1246;1;1;0
1247;0;1;0
1248;0;1;0
1249;1;0;0
1250;0;1;0
1251;1;1;1
1252;0;0;2
1253;0;1;1
1254;0;1;0
1255;0;0;0
1256;0;1;0
1257;1;1;1
1258;0;1;0
1259;1;1;0
1260;0;1;1
1261;1;1;0
1262;0;1;0
1263;0;1;0
1264;0;0;0
1265;1;0;1
1266;1;1;0
1267;0;0;1
1268;0;1;0
1269;1;1;0
1270;0;1;1
1271;0;1;0
1272;1;1;0
1273;1;0;1
1274;0;1;1
1275;1;0;0
1276;0;0;0
1277;1;1;0
1278;1;1;1
1279;0;2;0
1280;0;0;0
1281;1;1;1
1282;1;2;0
1283;0;2;0
1284;0;1;0
1285;0;1;1
1286;0;1;0
1287;1;0;0
1288;1;1;0
1289;0;2;0
1290;1;2;1
1291;0;2;1
1292;0;2;2
1293;1;2;1
1294;1;1;2
1295;1;1;1
1296;0;1;2
1297;0;1;1
1298;1;1;1
1299;1;2;2
1300;0;1;3
1301;1;1;2
1302;0;0;3
1303;1;0;2
1304;0;1;1
1305;0;0;1
1306;0;0;0
1307;1;1;0
1308;0;0;1
1309;0;1;2
1310;1;0;2
1311;0;1;2
1312;0;2;2
1313;1;1;1
1314;0;0;2
1315;1;0;1
1316;0;1;1
1317;1;0;0
1318;0;0;0
1319;0;0;1
1320;1;0;0
1321;0;1;1
1322;1;0;0
1323;0;0;1
1324;0;1;0
1325;1;1;1
1326;0;1;1
1327;1;1;1
1328;1;1;1
1329;1;0;1
1330;1;0;0
1331;0;1;1
1332;0;1;1
1333;0;1;0
1334;0;1;0
1335;0;1;0
1336;0;1;0
1337;1;1;0
1338;1;2;0
1339;0;2;0
1340;1;0;1
1341;0;1;1
1342;1;1;0
1343;0;1;0
1344;1;1;1
1345;0;2;1
1346;1;1;1
1347;1;2;0
1348;0;3;1
1349;0;2;1
1350;0;3;1
1351;1;1;1
1352;0;2;0
1353;0;1;1
1354;1;1;0
1355;1;1;0
1356;1;0;1
1357;2;0;0
1358;0;1;1
1359;1;1;1
1360;0;1;2
1361;1;1;1
1362;0;1;2
1363;1;0;1
1364;0;0;2
1365;0;0;1
1366;1;1;1
1367;0;1;1
1368;1;1;1
1369;1;1;1
1370;1;1;0
1371;0;1;0
1372;1;1;0
1373;1;1;1
1374;1;1;1
1375;1;1;0
1376;0;0;1
1377;1;0;0
1378;0;1;0
1379;0;0;0
1380;1;0;1
1381;0;0;0
1382;1;0;1
1383;0;1;0
1384;0;0;1
1385;0;0;1
1386;1;0;0
1387;0;1;1
1388;1;1;0
1389;0;1;1
1390;1;1;0
1391;0;0;1
1392;1;1;0
1393;1;1;1
1394;1;0;1
1395;0;0;0
1396;0;1;0
1397;0;0;0
1398;0;1;1
1399;1;1;0
1400;0;1;0
1401;1;1;0
1402;0;1;1
1403;1;1;0
1404;0;1;1
1405;1;1;1
1406;0;1;2
1407;0;2;1
1408;0;1;1
1409;1;1;0
1410;1;1;0
1411;0;1;1
1412;1;1;0
1413;1;2;0
1414;1;1;1
1415;0;1;2
1416;1;1;1
1417;1;1;2
1418;1;0;2
1419;0;1;2
1420;1;1;1
1421;0;0;1
1422;0;1;0
1423;0;1;0
1424;1;1;1
1425;1;1;0
1426;0;1;1
1427;0;0;0
1428;1;0;1
1429;0;1;0
1430;1;0;1
1431;0;2;1
1432;1;1;1
1433;0;2;1
1434;0;1;1
1435;0;0;0
1436;0;0;0
1437;1;1;0
1438;0;1;1
1439;0;1;0
1440;1;1;1
1441;1;1;1
1442;0;1;1
1443;0;1;2
1444;1;0;1
1445;0;1;0
1446;1;1;1
1447;0;0;2
1448;1;1;1
1449;0;1;1
1450;0;1;1
1451;1;0;0
1452;1;1;1
1453;0;1;1
1454;0;1;1
1455;1;0;1
1456;0;1;1
1457;1;1;1
1458;0;1;1
1459;1;1;1
1460;0;2;1
1461;0;0;1
1462;1;1;0
1463;0;1;0
1464;1;1;0
1465;0;1;0
1466;0;1;1
1467;1;1;0
1468;0;0;1
1469;1;1;0
1470;0;0;0
1471;0;1;1
1472;0;1;1
1473;1;2;1
1474;0;3;2
1475;1;2;2
1476;0;3;1
1477;1;2;2
1478;0;2;1
1479;0;1;1
1480;0;1;1
1481;1;0;1
1482;0;1;0
1483;1;1;1
1484;1;1;1
1485;1;1;1
1486;1;2;1
1487;0;2;2
1488;1;2;1
1489;0;2;2
1490;1;1;1
1491;0;1;2
1492;0;1;1
1493;1;1;1
1494;0;1;1
1495;1;0;0
1496;0;0;1
1497;0;1;0
1498;1;1;1
1499;0;1;1
1500;0;1;0
1501;0;1;1
1502;0;0;2
1503;1;0;2
1504;0;1;2
1505;1;0;1
1506;0;0;1
1507;0;1;0
1508;1;1;1
1509;0;1;1
1510;1;1;1
1511;1;2;1
1512;0;1;2
1513;1;0;1
1514;0;1;1
1515;0;1;0
1516;1;1;1
1517;1;2;1
1518;0;2;1
1519;0;2;1
1520;1;2;1
1521;0;1;1
1522;1;1;0
1523;0;0;0
1524;0;1;1
1525;0;0;1
1526;0;1;0
1527;1;1;0
1528;1;0;1
1529;0;1;1
1530;1;0;0
1531;0;1;1
1532;0;1;0
1533;0;0;0
1534;1;1;0
1535;0;1;0
1536;1;1;0
1537;0;1;1
1538;0;0;1
1539;1;1;1
1540;0;2;1
1541;1;1;0
1542;1;1;1
1543;1;1;0
1544;1;0;1
1545;0;0;0
1546;0;1;1
1547;1;1;0
1548;0;1;0
1549;1;1;1
1550;0;2;0
1551;0;0;0
1552;1;1;1
1553;1;1;0
1554;0;0;0
1555;0;1;1
1556;1;0;1
1557;0;1;0
1558;0;1;0
1559;0;1;1
1560;0;1;2
1561;1;1;1
1562;0;0;2
1563;1;2;1
1564;0;2;1
1565;1;1;2
1566;0;2;2
1567;0;1;2
1568;1;1;1
1569;0;1;1
1570;1;1;0
1571;0;2;1
1572;0;1;1
1573;1;1;1
1574;1;0;1
1575;0;0;2
1576;0;0;1
1577;1;0;0
1578;0;1;1
1579;1;0;0
1580;0;1;0
1581;1;1;1
1582;1;1;2
1583;1;1;1
1584;0;1;1
1585;1;1;1
1586;0;0;2
1587;1;1;1
1588;0;2;2
1589;0;1;2
1590;1;0;2
1591;1;0;2
1592;0;1;1
1593;1;1;1
1594;0;1;1
1595;0;0;0
1596;1;0;1
1597;0;0;0
1598;1;0;1
1599;0;0;0
1600;0;0;1
1601;1;0;1
1602;1;0;0
1603;0;0;1
1604;0;1;0
1605;1;1;0
1606;1;1;1
1607;1;0;0
1608;0;1;1
1609;1;0;1
1610;1;1;1
1611;1;0;1
1612;1;1;1
1613;0;1;2
1614;1;1;1
1615;0;1;1
1616;0;1;1
1617;0;0;0
1618;0;0;0
1619;0;0;0
1620;0;0;1
1621;0;1;1
1622;0;1;0
1623;2;0;0
1624;2;0;1
1625;0;1;1
1626;1;0;1
1627;0;1;1
1628;0;1;0
1629;1;1;1
1630;0;0;1
1631;0;0;0
1632;0;0;1
1633;0;0;0
1634;1;1;0
1635;1;1;0
1636;0;1;1
1637;0;1;0
1638;1;1;1
1639;1;2;1
1640;0;2;2
1641;1;1;1
1642;0;0;2
1643;0;1;1
1644;1;1;1
1645;0;1;1
1646;1;1;0
1647;0;1;1
1648;1;1;0
1649;0;1;0
1650;0;0;1
1651;1;1;1
1652;1;1;1
1653;0;1;2
1654;1;0;1
1655;0;0;0
1656;1;1;0
1657;0;2;1
1658;0;1;1
1659;1;0;1
1660;0;1;0
1661;0;1;0
1662;0;1;0
1663;0;1;1
1664;1;1;0
1665;0;1;0
1666;1;0;0
1667;0;1;1
1668;1;1;0
1669;0;1;1
1670;1;1;0
1671;0;0;1
1672;1;0;0
1673;0;1;0
1674;1;1;0
1675;0;1;0
1676;1;1;0
1677;1;1;1
1678;1;2;0
1679;1;1;0
1680;1;0;0
1681;0;1;0
1682;0;1;1
1683;0;1;0
1684;1;1;0
1685;1;2;0
1686;0;3;0
1687;1;2;1
1688;0;3;1
1689;1;3;1
1690;1;3;0
1691;1;3;1
1692;1;3;2
1693;0;3;1
1694;0;1;1
1695;0;0;0
1696;1;1;0
1697;0;1;0
1698;1;1;1
1699;1;2;1
1700;1;2;1
1701;1;2;1
1702;0;1;1
1703;1;0;0
1704;1;2;1
1705;0;2;2
1706;0;1;2
1707;1;1;1
1708;0;0;2
1709;1;0;2
1710;0;0;3
1711;1;1;2
1712;0;0;2
1713;1;0;1
1714;0;1;0
1715;1;1;1
1716;0;0;2
1717;1;1;1
1718;0;1;2
1719;1;0;1
1720;0;1;0
1721;0;1;1
1722;0;1;1
1723;0;0;1
1724;0;1;0
1725;1;1;1
1726;1;1;0
1727;0;1;1
1728;1;1;0
1729;1;2;0
1730;0;3;0
1731;1;1;1
1732;0;1;1
1733;1;1;0
1734;0;0;0
1735;0;1;1
1736;0;0;1
1737;1;1;0
1738;0;1;0
1739;0;1;0
1740;1;1;1
1741;1;0;1
1742;0;1;2
1743;0;1;1
1744;0;0;1
1745;0;0;0
1746;1;0;0
1747;0;1;1
1748;1;1;1
1749;1;1;1
1750;1;2;1
1751;0;1;1
1752;1;1;0
1753;0;1;1
1754;1;0;1
1755;1;1;0
1756;0;1;1
1757;1;0;0
1758;0;1;0
1759;1;1;1
1760;0;2;2
1761;0;1;2
1762;1;0;1
1763;0;1;1
1764;1;1;0
1765;0;0;1
1766;1;1;1
1767;1;1;1
1768;0;0;1
1769;1;0;2
1770;0;2;1
1771;0;0;1
1772;1;1;1
1773;0;1;2
1774;1;1;1
1775;0;1;2
1776;1;1;1
1777;0;0;2
1778;1;0;1
1779;0;0;1
1780;1;1;1
1781;0;0;2
1782;0;1;1
1783;1;0;0
1784;0;2;1
1785;1;1;2
1786;0;1;1
1787;1;0;0
1788;1;1;0
1789;0;1;2
1790;0;0;1
1791;1;1;0
1792;0;0;1
1793;1;0;1
1794;0;0;0
1795;0;0;0
1796;1;1;0
1797;0;1;1
1798;1;1;1
1799;0;1;1
1800;1;1;0
1801;0;1;0
1802;0;1;1
1803;0;1;0
1804;2;1;0
1805;1;3;0
1806;1;2;0
1807;0;1;0
1808;0;1;1
1809;0;2;0
1810;1;2;2
1811;1;1;1
1812;1;3;2
1813;0;4;2
1814;1;3;2
1815;1;3;2
1816;1;2;2
1817;1;2;2
1818;1;2;2
1819;1;1;2
1820;1;0;1
1821;0;1;1
1822;1;1;0
1823;0;1;1
1824;1;1;0
1825;0;1;1
1826;0;1;0
1827;1;1;0
1828;1;1;1
1829;1;1;1
1830;0;1;1
1831;1;0;1
1832;0;0;1
1833;0;1;0
1834;1;0;1
1835;0;1;0
1836;1;0;1
1837;0;1;0
1838;0;0;0
1839;0;0;1
1840;0;1;1
1841;0;0;0
1842;1;1;0
1843;0;2;1
1844;1;1;1
1845;0;2;0
1846;0;1;1
1847;0;1;1
1848;1;1;1
1849;0;1;1
1850;0;0;1
1851;0;1;0
1852;0;0;0
1853;0;0;1
1854;0;0;0
1855;0;0;0
1856;1;0;0
1857;0;0;1
1858;1;1;0
1859;0;0;0
1860;0;1;1
1861;0;0;0
1862;1;1;1
1863;0;2;1
1864;0;0;2
1865;1;0;2
1866;0;1;1
1867;1;0;0
1868;0;0;1
1869;1;1;1
1870;0;1;2
1871;1;1;1
1872;0;1;2
1873;1;1;1
1874;0;1;2
1875;1;1;1
1876;0;0;2
1877;0;1;1
1878;0;0;1
1879;1;1;0
1880;0;2;1
1881;0;1;1
1882;0;0;1
1883;1;1;0
1884;0;1;1
1885;1;1;0
1886;0;1;1
1887;1;0;0
1888;0;0;0
1889;1;1;1
1890;0;1;1
1891;0;1;1
1892;1;1;1
1893;1;1;1
1894;1;0;0
1895;1;1;1
1896;0;1;1
1897;1;1;1
1898;0;0;2
1899;1;1;2
1900;1;1;2
1901;0;2;2
1902;1;1;3
1903;1;2;2
1904;0;1;2
1905;0;0;2
1906;1;1;1
1907;0;1;1
1908;0;1;0
1909;0;1;1
1910;1;1;0
1911;0;0;0
1912;0;1;1
1913;0;1;0
1914;1;0;0
1915;0;0;1
1916;1;0;0
1917;0;1;0
1918;0;1;1
1919;0;1;0
1920;0;1;0
1921;1;1;1
1922;1;2;0
1923;0;2;1
1924;0;2;1
1925;1;1;2
1926;2;1;1
1927;0;2;2
1928;1;1;2
1929;0;1;1
1930;0;1;1
1931;1;1;0
1932;0;1;1
1933;1;1;1
1934;0;2;1
1935;0;1;0
1936;1;1;0
1937;0;1;1
1938;1;0;0
1939;0;1;0
1940;0;0;1
1941;1;1;0
1942;1;0;1
1943;0;1;1
1944;0;1;1
1945;0;2;0
1946;1;1;1
1947;0;2;0
1948;1;1;1
1949;0;2;1
1950;1;1;1
1951;0;2;0
1952;0;0;1
1953;1;1;0
1954;0;1;0
1955;0;1;0
1956;0;0;1
1957;1;1;0
1958;0;2;0
1959;0;1;1
1960;0;0;0
1961;0;0;0
1962;1;1;1
1963;0;2;2
1964;0;1;2
1965;1;0;2
1966;0;0;2
1967;0;0;2
1968;0;1;1
1969;1;1;0
1970;0;1;1
1971;1;0;0
1972;0;1;0
1973;0;0;1
1974;0;1;1
1975;1;0;0
1976;0;1;0
1977;0;1;0
1978;1;1;1
1979;0;1;1
1980;1;1;0
1981;1;2;0
1982;0;2;1
1983;0;1;0
1984;1;1;1
1985;0;1;1
1986;0;1;0
1987;1;0;0
1988;0;1;1
1989;0;0;0
1990;1;1;0
1991;0;1;0
1992;0;0;1
1993;1;2;0
1994;0;2;1
1995;0;1;2
1996;1;1;1
1997;0;2;2
1998;0;0;2
1999;0;1;1
2000;0;1;2
2001;0;1;2
2002;0;1;1
2003;2;1;0
2004;0;2;1
2005;1;0;1
2006;0;0;1
2007;1;0;0
2008;0;0;0
2009;0;0;1
2010;1;0;0
2011;1;0;1
2012;0;0;1
2013;0;0;0
2014;0;0;0
2015;1;1;0
2016;0;0;1
2017;1;1;0
2018;0;1;1
2019;1;0;0
2020;0;1;0
2021;1;1;1
2022;0;1;1
2023;0;1;1
2024;0;1;0
2025;1;1;1
2026;1;2;1
2027;0;2;1
2028;0;1;0
2029;1;0;0
2030;0;0;1
2031;0;0;0
2032;1;1;1
2033;2;1;1
2034;0;2;1
2035;0;1;2
2036;1;1;1
2037;1;1;1
2038;1;2;0
2039;1;2;1
2040;0;2;1
2041;0;2;1
2042;0;0;1
2043;0;1;1
2044;0;0;1
2045;1;1;1
2046;1;1;1
2047;1;0;1
2048;0;1;0
2049;1;0;1
2050;0;0;0
2051;0;0;0
2052;0;1;1
2053;1;1;1
2054;2;0;0
2055;1;1;1
2056;1;1;1
2057;0;1;1
2058;0;1;0
2059;1;1;1
2060;0;1;1
2061;0;1;0
2062;1;1;1
2063;0;0;2
2064;0;1;1
2065;1;1;0
2066;1;1;1
2067;1;0;1
2068;1;0;1
2069;1;0;1
2070;1;0;0
2071;0;1;1
2072;1;1;0
2073;0;1;1
2074;0;1;0
2075;0;1;1
2076;1;0;0
2077;0;0;1
2078;0;1;0
2079;1;0;1
2080;2;1;0
2081;1;0;0
2082;1;1;1
2083;1;0;0
2084;0;1;1
2085;1;0;1
2086;1;1;0
2087;0;2;0
2088;0;1;1
2089;0;0;1
2090;1;1;0
2091;0;1;0
2092;1;0;1
2093;0;1;1
2094;1;1;1
2095;0;1;2
2096;0;1;1
2097;1;1;1
2098;1;0;1
2099;0;1;0
2100;1;1;1
2101;0;1;2
2102;0;0;1
2103;1;1;0
2104;0;1;1
2105;1;0;0
2106;0;0;1
2107;0;1;0
2108;0;1;1
2109;0;1;0
2110;0;1;0
2111;0;1;0
2112;1;1;1
2113;1;0;1
2114;0;0;0
2115;1;0;1
2116;0;1;0
2117;1;0;1
2118;0;0;1
2119;1;0;1
2120;0;0;0
2121;1;1;1
2122;0;1;1
2123;0;0;0
2124;0;0;1
2125;1;0;0
2126;0;1;0
2127;0;1;0
2128;0;1;0
2129;0;0;1
2130;0;0;0
2131;1;0;0
2132;0;1;0
2133;1;1;1
2134;0;1;1
2135;1;1;0
2136;0;0;1
2137;1;1;0
2138;0;0;1
2139;0;1;0
2140;1;1;0
2141;0;1;1
2142;0;1;0
2143;1;0;1
2144;0;1;0
2145;1;1;0
2146;1;1;1
2147;1;2;0
2148;0;0;1
2149;1;0;0
2150;0;1;0
2151;1;1;1
2152;0;1;0
2153;0;1;1
2154;1;1;1
2155;0;1;2
2156;1;1;1
2157;0;2;1
2158;0;1;2
2159;1;1;1
2160;0;1;2
2161;0;1;1
2162;1;1;0
2163;1;1;1
2164;1;1;0
2165;1;1;1
2166;1;1;1
2167;1;1;1
2168;1;0;1
2169;1;1;0
2170;0;1;1
2171;1;1;0
2172;0;2;0
2173;0;2;0
2174;1;1;1
2175;0;2;0
2176;0;1;0
2177;0;2;1
2178;1;0;1
2179;1;0;0
2180;0;0;0
2181;0;1;1
2182;1;0;0
2183;0;1;0
2184;0;0;1
2185;0;1;0
2186;0;1;0
2187;0;1;1
2188;1;0;1
2189;0;1;2
2190;1;2;1
2191;0;1;2
2192;0;1;1
2193;0;1;1
2194;0;1;1
2195;1;0;0
2196;2;0;1
2197;0;0;1
2198;0;0;0
2199;1;1;0
2200;0;1;1
2201;0;1;0
2202;1;1;1
2203;1;0;1
2204;0;0;1
2205;0;1;0
2206;0;1;1
2207;1;1;1
2208;0;1;1
2209;0;1;2
2210;0;1;1
2211;1;0;1
2212;1;1;1
2213;0;1;1
2214;1;1;1
2215;0;2;1
2216;0;2;2
2217;1;1;2
2218;0;1;1
2219;0;0;1
2220;0;1;0
2221;1;0;0
2222;0;1;0
2223;0;1;0
2224;1;1;1
2225;1;0;1
2226;0;1;1
2227;0;0;0
2228;0;0;1
2229;1;1;0
2230;0;1;0
2231;1;0;1
2232;0;1;1
2233;0;2;0
2234;0;1;0
2235;1;1;1
2236;1;0;0
2237;0;1;1
2238;0;1;0
2239;0;1;0
2240;1;1;1
2241;1;1;1
2242;1;0;0
2243;1;1;1
2244;0;1;2
2245;1;1;1
2246;0;1;1
2247;0;1;2
2248;1;1;2
2249;0;2;2
2250;0;2;2
2251;1;2;2
2252;0;1;3
2253;1;0;2
2254;0;1;1
2255;1;0;2
2256;0;0;2
2257;1;0;1
2258;0;1;1
2259;1;1;1
2260;0;0;2
2261;1;1;1
2262;0;0;2
2263;0;0;1
2264;1;1;1
2265;1;1;1
2266;0;1;1
2267;0;0;0
2268;0;0;0
2269;0;1;1
2270;1;1;1
2271;0;0;2
2272;0;1;1
2273;1;1;1
2274;0;2;1
2275;1;1;2
2276;1;1;2
2277;1;1;2
2278;1;1;2
2279;1;1;2
2280;1;0;2
2281;0;1;1
2282;0;1;1
2283;1;1;1
2284;0;1;1
2285;0;1;0
2286;0;1;1
2287;0;1;1
2288;1;0;0
2289;0;1;0
2290;0;1;1
2291;0;1;0
2292;1;1;0
2293;0;2;0
2294;1;1;0
2295;1;0;0
2296;1;1;1
2297;1;1;1
2298;0;0;2
2299;1;1;1
2300;0;1;2
2301;0;0;2
2302;0;0;2
2303;0;1;2
2304;0;1;1
2305;1;1;0
2306;1;0;1
2307;1;1;1
2308;1;1;1
2309;1;1;2
2310;0;1;1
2311;1;1;1
2312;1;1;1
2313;0;0;2
2314;1;1;1
2315;0;1;2
2316;1;0;2
2317;0;1;2
2318;1;1;1
2319;0;1;1
2320;1;1;0
2321;0;1;0
2322;0;1;1
2323;1;0;1
2324;0;1;0
2325;1;1;0
2326;0;1;0
2327;0;0;1
2328;1;0;0
2329;0;1;1
2330;1;1;1
2331;1;1;1
2332;1;1;1
2333;1;0;0
2334;0;1;1
2335;0;1;0
2336;1;1;1
2337;1;1;1
2338;1;0;0
2339;1;1;1
2340;0;0;1
2341;0;0;1
2342;0;0;0
2343;0;1;1
2344;1;1;0
2345;0;1;1
2346;1;1;0
2347;0;1;1
2348;0;0;0
2349;1;1;1
2350;0;1;1
2351;1;2;0
2352;0;1;1
2353;1;0;0
2354;0;1;1
2355;0;1;0
2356;1;1;1
2357;1;2;1
2358;0;1;2
2359;1;1;1
2360;0;0;1
2361;1;1;0
2362;0;1;1
2363;0;1;0
2364;0;1;0
2365;0;1;0
2366;1;1;0
2367;0;1;1
2368;0;1;1
2369;1;0;2
2370;0;0;1
2371;0;0;1
2372;0;0;0
2373;1;0;0
2374;0;1;1
2375;1;0;0
2376;1;1;1
2377;0;1;1
2378;0;1;1
2379;1;1;0
2380;0;1;0
2381;0;1;0
2382;1;1;0
2383;0;1;0
2384;1;1;1
2385;0;2;0
2386;1;1;1
2387;1;1;2
2388;1;2;1
2389;0;0;2
2390;0;0;1
2391;1;1;1
2392;0;1;1
2393;0;1;0
2394;1;1;0
2395;0;1;1
2396;0;1;1
2397;1;1;0
2398;0;2;1
2399;1;3;1
2400;0;3;2
2401;1;3;1
2402;0;2;1
2403;1;2;0
2404;0;2;1
2405;1;0;1
2406;0;0;1
2407;0;1;0
2408;1;1;0
2409;0;1;0
2410;0;1;0
2411;0;1;0
2412;0;1;0
2413;1;1;1
2414;0;2;0
2415;1;1;1
2416;0;2;0
2417;0;2;1
2418;1;1;1
2419;0;2;0
2420;0;1;1
2421;1;1;0
2422;1;1;1
2423;1;0;1
2424;1;0;0
2425;0;0;0
2426;0;0;0
2427;1;0;0
2428;0;1;1
2429;0;0;0
2430;1;1;1
2431;1;0;1
2432;0;1;1
2433;1;1;0
2434;0;1;1
2435;0;0;0
2436;1;0;0
2437;0;0;0
2438;1;1;1
2439;0;0;2
2440;1;0;1
2441;0;1;1
2442;0;1;0
2443;0;1;0
2444;1;1;1
2445;1;1;1
2446;1;1;0
2447;1;2;1
2448;1;1;2
2449;1;2;1
2450;0;2;1
2451;0;1;2
2452;0;0;1
2453;1;0;0
2454;0;1;0
2455;0;1;0
2456;1;0;0
2457;0;1;1
2458;0;1;1
2459;1;1;1
2460;0;2;2
2461;1;1;2
2462;0;0;2
2463;0;0;1
2464;1;0;1
2465;0;0;1
2466;0;1;0
2467;0;1;1
2468;0;0;0
2469;0;1;1
2470;0;1;0
2471;0;0;0
2472;0;1;0
2473;1;0;0
2474;0;1;0
2475;1;1;0
2476;0;0;1
2477;0;0;1
2478;0;0;0
2479;1;1;1
2480;1;0;1
2481;0;1;2
2482;1;1;1
2483;0;1;1
2484;1;0;1
2485;0;1;1
2486;1;0;1
2487;1;1;0
2488;0;2;1
2489;1;1;2
2490;1;1;1
2491;0;0;1
2492;1;1;1
2493;0;0;1
2494;1;1;1
2495;0;0;2
2496;1;1;1
2497;0;0;2
2498;1;0;1
2499;0;0;1
2500;0;1;0
2501;1;1;1
2502;1;1;1
2503;2;2;1
2504;0;2;1
2505;1;1;1
2506;1;3;0
2507;0;3;1
2508;1;1;1
2509;0;2;2
2510;0;2;1
2511;1;0;1
2512;0;1;0
2513;1;1;1
2514;1;1;1
2515;1;1;1
2516;0;1;1
2517;1;1;1
2518;0;1;1
2519;1;0;1
2520;0;1;0
2521;1;1;1
2522;0;0;1
2523;1;0;1
2524;1;1;0
2525;0;1;0
2526;1;1;1
2527;0;0;2
2528;1;1;1
2529;0;0;1
2530;1;0;1
2531;0;1;0
2532;1;1;1
2533;0;1;2
2534;0;0;1
2535;0;0;0
2536;1;1;1
2537;1;1;1
2538;1;0;1
2539;0;0;1
2540;1;0;0
2541;0;1;0
2542;1;1;1
2543;1;1;1
2544;1;1;1
2545;0;2;1
2546;1;0;1
2547;0;1;1
2548;0;1;0
2549;1;1;1
2550;0;1;1
2551;1;1;0
2552;0;1;1
2553;1;0;0
2554;0;0;0
2555;0;1;1
2556;1;1;0
2557;0;1;1
2558;1;1;0
2559;0;1;1
2560;0;0;0
2561;1;0;0
2562;0;0;0
2563;1;0;0
2564;0;1;0
2565;0;0;1
2566;0;1;0
2567;1;1;0
2568;0;1;1
2569;0;0;0
2570;0;1;0
2571;0;0;1
2572;1;1;0
2573;0;0;1
2574;1;1;0
2575;0;1;1
2576;1;1;1
2577;0;0;2
2578;0;1;1
2579;1;1;0
2580;0;1;0
2581;0;0;0
2582;1;0;1
2583;1;1;0
2584;0;0;0
2585;1;1;1
2586;0;1;2
2587;0;1;1
2588;0;0;1
2589;0;1;0
2590;1;0;0
2591;0;0;1
2592;0;1;0
2593;1;0;0
2594;0;1;0
2595;1;1;0
2596;0;1;1
2597;0;0;0
2598;1;0;1
2599;0;0;0
2600;1;0;1
2601;1;0;1
2602;0;1;0
2603;1;1;0
2604;0;1;1
2605;1;0;0
2606;0;0;1
2607;0;1;0
2608;1;1;1
2609;0;2;1
2610;1;2;2
2611;2;2;1
2612;2;3;2
2613;2;4;2
2614;1;3;2
2615;2;2;2
2616;0;2;3
2617;1;1;3
2618;0;2;3
2619;1;1;3
2620;0;1;3
2621;0;2;3
2622;0;1;3
2623;0;1;2
2624;0;0;1
2625;1;1;1
2626;1;0;1
2627;0;0;1
2628;1;1;0
2629;0;1;1
2630;1;1;0
2631;0;1;1
2632;1;1;1
2633;0;1;0
2634;0;0;0
2635;1;1;1
2636;1;1;1
2637;0;0;2
2638;0;0;1
2639;1;0;0
2640;1;1;1
2641;0;0;2
2642;0;0;1
2643;1;1;1
2644;0;1;1
2645;1;0;0
2646;0;1;1
2647;1;1;0
2648;0;1;0
2649;1;1;1
2650;1;1;0
2651;2;1;1
2652;0;1;1
2653;0;0;1
2654;1;0;0
2655;1;1;0
2656;0;0;1
2657;1;1;0
2658;0;1;1
2659;0;1;0
2660;0;0;0
2661;1;0;0
2662;0;1;1
2663;1;1;0
2664;0;1;0
2665;0;1;1
2666;1;0;0
2667;0;0;1
2668;1;0;0
2669;1;2;0
2670;0;1;0
2671;0;2;1
2672;0;1;1
2673;1;1;0
2674;1;0;0
2675;0;1;1
2676;0;0;0
2677;1;1;1
2678;0;1;1
2679;1;1;2
2680;0;0;2
2681;1;0;2
2682;0;0;2
2683;1;0;1
2684;1;1;1
2685;1;1;1
2686;0;1;2
2687;1;1;1
2688;0;2;2
2689;1;1;2
2690;0;2;2
2691;0;1;2
2692;1;1;1
2693;0;1;1
2694;0;1;1
2695;0;0;0
2696;1;0;0
2697;0;0;0
2698;1;1;1
2699;0;0;2
2700;0;1;1
2701;1;0;1
2702;1;0;1
2703;1;0;0
2704;0;2;1
2705;0;1;1
2706;0;0;0
2707;1;0;1
2708;0;0;0
2709;1;1;0
2710;0;1;1
2711;1;0;0
2712;0;1;0
2713;1;1;0
2714;0;0;1
2715;1;1;0
2716;1;0;0
2717;1;1;0
2718;0;1;1
2719;0;0;0
2720;1;0;0
2721;0;1;1
2722;1;1;0
2723;0;1;0
2724;1;1;0
2725;0;0;0
2726;1;1;1
2727;1;1;0
2728;0;0;1
2729;1;1;0
2730;0;0;0
2731;1;1;0
2732;0;0;1
2733;0;0;0
2734;0;0;1
2735;0;1;0
2736;1;1;1
2737;0;1;1
2738;1;1;2
2739;0;2;2
2740;1;3;2
2741;1;3;2
2742;0;3;2
2743;0;2;1
2744;0;2;1
2745;0;2;1
2746;1;1;1
2747;1;2;1
2748;0;2;1
2749;0;2;2
2750;1;2;1
2751;0;1;2
2752;0;1;1
2753;0;1;0
2754;1;1;0
2755;0;0;0
2756;0;1;1
2757;0;2;0
2758;1;1;1
2759;0;2;0
2760;0;1;0
2761;1;0;1
2762;0;1;1
2763;1;1;1
2764;0;1;2
2765;0;1;1
2766;1;1;1
2767;0;2;1
2768;1;1;2
2769;1;2;1
2770;0;2;2
2771;0;1;2
2772;1;0;1
2773;0;1;0
2774;1;0;1
2775;0;0;2
2776;0;0;1
2777;1;1;1
2778;1;1;2
2779;0;1;3
2780;0;1;2
2781;0;1;2
2782;1;0;1
2783;0;2;1
2784;0;0;1
2785;1;1;1
2786;1;1;1
2787;1;1;1
2788;1;2;1
2789;0;3;1
2790;0;2;1
2791;1;2;1
2792;0;2;2
2793;0;0;1
2794;1;1;1
2795;0;0;1
2796;0;1;1
2797;1;1;1
2798;0;1;1
2799;1;2;0
2800;0;2;1
2801;1;1;1
2802;0;2;1
2803;0;1;1
2804;1;0;0
2805;1;1;1
2806;1;0;1
2807;0;1;1
2808;1;0;1
2809;1;0;0
2810;0;0;1
2811;1;0;0
2812;0;1;0
2813;0;1;1
2814;0;1;2
2815;0;0;1
2816;0;0;0
2817;1;0;0
2818;0;0;0
2819;0;1;1
2820;0;0;1
2821;0;1;0
2822;1;1;1
2823;0;2;2
2824;2;2;2
2825;1;2;1
2826;1;2;2
2827;0;2;3
2828;0;2;2
2829;0;0;3
2830;0;0;2
2831;1;1;1
2832;0;1;1
2833;0;0;1
2834;1;0;0
2835;0;1;1
2836;0;1;0
2837;1;1;1
2838;0;1;1
2839;1;1;0
2840;1;1;1
2841;1;0;0
2842;0;0;1
2843;1;1;0
2844;1;1;0
2845;0;0;0
2846;0;0;1
2847;0;1;0
2848;1;1;1
2849;1;1;1
2850;0;1;2
2851;1;0;1
2852;0;0;2
2853;0;0;1
2854;1;0;0
2855;0;0;1
2856;0;0;0
2857;1;0;0
2858;1;0;1
2859;0;1;1
2860;1;0;0
2861;0;0;1
2862;1;0;0
2863;0;1;1
2864;0;1;0
2865;1;1;1
2866;0;0;1
2867;0;1;1
2868;1;0;1
2869;0;1;0
2870;0;1;1
2871;1;1;0
2872;0;1;0
2873;0;1;0
2874;1;1;1
2875;0;2;2
2876;1;2;1
2877;0;2;2
2878;0;2;2
2879;1;2;3
2880;1;3;2
2881;0;3;3
2882;0;1;3
2883;0;1;3
2884;0;1;2
2885;1;1;1
2886;1;1;1
2887;0;1;1
2888;0;1;2
2889;1;1;1
2890;0;1;2
2891;0;1;1
2892;0;1;2
2893;0;0;1
2894;1;0;0
2895;0;0;0
2896;0;1;1
2897;0;1;0
2898;0;0;0
2899;1;1;1
2900;0;0;2
2901;0;0;1
2902;0;1;1
2903;0;1;0
2904;0;0;0
2905;1;0;0
2906;0;0;1
2907;0;1;0
2908;1;1;0
2909;0;0;1
2910;1;0;1
2911;0;0;1
2912;0;1;0
2913;0;1;1
2914;1;1;1
2915;0;0;2
2916;1;1;1
2917;1;0;2
2918;1;0;2
2919;0;1;2
2920;1;1;1
2921;0;1;2
2922;1;1;1
2923;0;1;2
2924;1;1;2
2925;0;2;2
2926;1;1;2
2927;1;0;2
2928;0;1;2
2929;1;0;1
2930;0;1;1
2931;0;0;1
2932;1;1;2
2933;0;1;3
2934;1;2;2
2935;0;2;3
2936;1;2;2
2937;0;2;3
2938;1;0;2
2939;0;0;2
2940;1;1;1
2941;0;0;1
2942;1;0;1
2943;0;0;1
2944;0;0;0
2945;0;0;0
2946;1;0;1
2947;1;0;0
2948;0;1;1
2949;0;1;0
2950;1;1;0
2951;0;1;0
2952;1;2;1
2953;2;2;0
2954;0;2;1
2955;1;1;1
2956;0;2;1
2957;0;2;1
2958;1;3;1
2959;1;3;1
2960;0;3;1
2961;0;3;1
2962;1;2;1
2963;0;2;1
2964;0;1;1
2965;1;1;0
2966;1;1;0
2967;0;1;1
2968;0;1;1
2969;1;1;2
2970;1;1;1
2971;0;0;2
2972;0;0;1
2973;1;0;0
2974;0;0;1
2975;1;0;0
2976;0;1;0
2977;0;1;0
2978;0;0;1
2979;1;1;0
2980;0;0;0
2981;0;1;1
2982;1;1;1
2983;1;1;1
2984;1;0;1
2985;0;1;0
2986;1;0;0
2987;1;1;0
2988;0;0;1
2989;0;1;1
2990;1;0;0
2991;1;1;1
2992;1;1;1
2993;1;0;2
2994;0;0;1
2995;0;0;0
2996;1;0;0
2997;0;1;0
2998;0;0;1
2999;1;0;0
3000;0;0;1
3001;1;1;1
3002;1;1;1
3003;0;1;2
3004;1;1;1
3005;0;1;2
3006;1;0;2
3007;0;1;2
3008;1;0;1
3009;0;0;1
3010;0;0;0
3011;1;1;1
3012;1;1;1
3013;0;1;2
3014;1;0;1
3015;0;0;1
3016;1;1;0
3017;0;0;1
3018;0;1;0
3019;0;0;0
3020;1;1;0
3021;1;0;1
3022;0;1;0
3023;1;0;0
3024;0;0;1
3025;1;1;0
3026;0;1;1
3027;1;1;0
3028;0;1;0
3029;1;1;0
3030;0;1;0
3031;1;1;1
3032;0;1;0
3033;0;1;1
3034;1;1;0
3035;0;1;1
3036;0;1;0
3037;0;1;1
3038;1;1;0
3039;0;2;1
3040;1;1;1
3041;0;2;1
3042;1;0;1
3043;0;1;0
3044;0;0;1
3045;1;1;0
3046;0;1;1
3047;0;1;0
3048;1;1;0
3049;0;1;0
3050;0;1;0
3051;1;1;1
3052;0;2;1
3053;0;1;1
3054;1;0;0
3055;0;0;1
3056;1;0;0
3057;0;1;0
3058;1;0;1
3059;1;1;1
3060;0;0;1
3061;1;1;1
3062;0;1;1
3063;1;1;0
3064;0;0;0
3065;1;0;0
3066;0;0;0
3067;0;0;1
3068;0;1;0
3069;2;1;1
3070;0;1;1
3071;1;0;1
3072;0;0;1
3073;0;0;0
3074;1;0;1
3075;1;0;1
3076;0;0;0
3077;1;1;1
3078;0;0;1
3079;0;0;1
3080;1;1;1
3081;0;0;1
3082;1;1;1
3083;0;1;1
3084;1;1;0
3085;0;1;0
3086;0;1;0
3087;0;1;0
3088;1;1;0
3089;1;1;0
3090;0;2;0
3091;0;2;1
3092;1;2;0
3093;0;1;1
3094;0;1;1
3095;1;1;1
3096;0;2;0
3097;1;2;0
3098;0;2;0
3099;0;0;1
3100;1;1;0
3101;0;1;1
3102;1;1;0
3103;0;2;1
3104;0;1;1
3105;1;1;0
3106;2;2;0
3107;0;3;1
3108;0;2;2
3109;1;2;2
3110;0;2;2
3111;0;2;1
3112;0;1;2
3113;1;1;2
3114;0;1;2
3115;0;1;1
3116;1;1;1
3117;0;1;2
3118;0;1;1
3119;1;1;0
3120;1;1;0
3121;0;2;1
3122;1;1;2
3123;0;2;1
3124;1;0;1
3125;0;1;0
3126;1;1;0
3127;0;1;1
3128;1;1;0
3129;0;2;1
3130;1;1;1
3131;0;2;1
3132;1;1;1
3133;0;2;0
3134;0;1;1
3135;1;1;1
3136;0;1;1
3137;0;1;1
3138;1;2;1
3139;1;2;0
3140;1;2;1
3141;1;2;1
3142;1;1;1
3143;1;2;1
3144;1;2;1
3145;0;2;1
3146;1;1;1
3147;0;0;2
3148;1;0;1
3149;0;0;1
3150;1;0;0
3151;0;1;0
3152;0;1;1
3153;1;1;1
3154;1;1;1
3155;1;1;1
3156;0;1;1
3157;1;0;1
3158;0;0;0
3159;1;0;1
3160;1;1;0
3161;0;1;1
3162;1;1;0
3163;0;1;1
3164;1;0;1
3165;0;0;1
3166;1;0;0
3167;0;1;1
3168;1;1;0
3169;0;0;0
3170;1;1;1
3171;1;1;1
3172;1;0;1
3173;0;0;1
3174;0;2;0
3175;0;0;0
3176;0;0;0
3177;0;1;1
3178;1;0;0
3179;0;1;1
3180;1;1;0
3181;0;1;1
3182;1;2;0
3183;0;0;0
3184;1;0;0
3185;0;1;0
3186;0;0;1
3187;1;0;0
3188;1;1;1
3189;0;1;2
3190;0;1;1
3191;1;1;0
3192;0;1;1
3193;1;1;0
3194;0;1;1
3195;1;1;0
3196;0;2;1
3197;1;1;1
3198;0;1;0
3199;0;0;0
3200;1;1;0
3201;1;1;0
3202;0;1;1
3203;1;1;0
3204;0;0;1
3205;0;0;0
3206;1;0;1
3207;0;1;0
3208;1;1;0
3209;1;0;0
3210;0;0;1
3211;0;0;0
3212;1;0;1
3213;0;1;0
3214;1;1;0
3215;1;0;0
3216;0;0;2
3217;1;1;1
3218;0;0;2
3219;0;0;1
3220;1;1;1
3221;0;0;1
3222;0;1;1
3223;1;1;0
3224;0;1;1
3225;1;0;1
3226;0;0;1
3227;1;0;1
3228;1;0;1
3229;0;0;0
3230;0;1;1
3231;1;0;1
3232;1;0;0
3233;0;0;0
3234;0;0;1
3235;0;1;0
3236;0;0;1
3237;0;1;0
3238;1;1;1
3239;1;1;1
3240;1;1;2
3241;1;1;1
3242;0;0;2
3243;0;0;1
3244;1;0;1
3245;0;0;0
3246;1;1;0
3247;0;0;1
3248;1;1;1
3249;1;1;1
3250;1;1;2
3251;1;1;1
3252;0;1;1
3253;1;0;1
3254;0;0;1
3255;1;0;1
3256;0;1;1
3257;0;0;0
3258;1;1;0
3259;0;1;0
3260;0;1;0
3261;0;1;0
3262;0;0;0
3263;1;1;1
3264;0;1;0
3265;1;1;1
3266;1;1;1
3267;1;0;1
3268;0;0;0
3269;0;1;0
3270;1;0;1
3271;0;1;1
3272;1;1;0
3273;0;0;1
3274;1;1;0
3275;0;1;0
3276;1;0;1
3277;0;1;1
3278;1;0;0
3279;0;1;1
3280;1;1;0
3281;0;0;1
3282;1;0;0
3283;0;1;1
3284;0;1;0
3285;0;0;1
3286;1;1;0
3287;0;0;0
3288;0;0;1
3289;0;1;1
3290;0;0;0
3291;1;0;0
3292;0;0;0
3293;0;0;1
3294;1;1;0
3295;1;1;0
3296;1;0;1
3297;0;0;1
3298;0;0;1
3299;1;0;0
3300;0;0;1
3301;1;0;0
3302;0;1;1
3303;1;1;0
3304;0;0;0
3305;1;0;1
3306;0;0;0
3307;1;1;1
3308;0;1;2
3309;0;0;1
3310;1;0;0
3311;0;1;1
3312;1;0;0
3313;0;1;1
3314;1;1;0
3315;0;1;0
3316;0;1;1
3317;1;1;1
3318;0;0;1
3319;0;1;1
3320;1;0;1
3321;0;1;0
3322;0;1;0
3323;0;0;0
3324;0;0;0
3325;0;1;1
3326;0;0;0
3327;1;0;0
3328;0;1;1
3329;1;0;0
3330;0;1;1
3331;1;1;0
3332;0;2;1
3333;1;1;1
3334;0;1;1
3335;1;1;0
3336;0;1;0
3337;1;0;1
3338;0;1;1
3339;0;1;1
3340;1;1;1
3341;1;1;1
3342;1;1;0
3343;1;2;1
3344;0;1;2
3345;0;2;1
3346;1;1;2
3347;1;2;1
3348;1;1;1
3349;0;0;1
3350;0;0;0
3351;0;0;0
3352;0;1;0
3353;1;1;0
3354;0;2;0
3355;1;2;0
3356;0;2;1
3357;0;2;0
3358;0;1;0
3359;0;1;1
3360;0;1;0
3361;0;0;1
3362;0;0;0
3363;1;1;1
3364;0;1;1
3365;1;0;1
3366;0;1;0
3367;1;1;0
3368;0;2;1
3369;1;2;1
3370;0;1;1
3371;1;1;0
3372;0;1;1
3373;1;1;0
3374;0;2;0
3375;1;1;1
3376;0;2;0
3377;0;1;1
3378;0;1;0
3379;0;1;0
3380;0;1;1
3381;0;1;0
3382;1;1;0
3383;0;2;0
3384;1;0;0
3385;0;1;0
3386;1;1;1
3387;0;2;0
3388;0;0;1
3389;0;1;0
3390;0;1;0
3391;0;1;1
3392;1;0;0
3393;0;0;1
3394;1;1;0
3395;0;1;0
3396;0;1;1
3397;0;1;0
3398;0;1;0
3399;0;1;1
3400;1;1;0
3401;0;1;1
3402;0;2;0
3403;1;0;0
3404;0;1;1
3405;0;0;1
3406;0;1;0
3407;0;1;1
3408;0;1;0
3409;1;1;0
3410;0;2;1
3411;1;0;1
3412;0;0;1
3413;1;1;1
3414;1;1;1
3415;0;0;1
3416;0;0;2
3417;0;0;1
3418;1;1;1
3419;1;1;2
3420;1;1;2
3421;1;0;2
3422;0;1;1
3423;1;1;2
3424;0;1;2
3425;1;1;1
3426;0;1;1
3427;0;1;1
3428;0;0;0
3429;1;0;1
3430;1;1;0
3431;1;1;1
3432;0;1;1
3433;1;1;2
3434;1;2;1
3435;0;2;2
3436;1;1;2
3437;0;1;3
3438;0;0;2
3439;1;1;2
3440;1;1;2
3441;1;1;2
3442;0;1;2
3443;0;1;2
3444;1;0;1
3445;1;0;1
3446;0;1;1
3447;1;1;1
3448;1;1;1
3449;0;1;1
3450;1;2;0
3451;0;1;1
3452;1;1;0
3453;0;1;1
3454;1;1;0
3455;0;1;1
3456;0;0;1
3457;1;0;1
3458;1;1;0
3459;1;0;0
3460;1;1;1
3461;1;1;2
3462;0;1;2
3463;1;0;1
3464;0;1;0
3465;0;1;0
3466;0;1;1
3467;0;0;0
3468;1;0;0
3469;0;0;1
3470;1;0;1
3471;1;0;0
3472;0;0;0
3473;1;1;1
3474;0;1;2
3475;0;1;1
3476;1;1;0
3477;1;1;1
3478;1;2;1
3479;0;2;1
3480;1;1;2
3481;1;0;2
3482;0;1;2
3483;0;0;1
3484;1;1;1
3485;1;0;1
3486;0;0;0
3487;1;1;0
3488;0;1;1
3489;0;1;0
3490;0;1;1
3491;0;0;0
3492;1;1;0
3493;0;1;0
3494;0;1;0
3495;0;0;0
3496;0;1;0
3497;1;1;1
3498;0;1;1
3499;1;0;0
3500;0;0;1
3501;0;1;0
3502;1;0;0
3503;1;1;0
3504;0;0;0
3505;1;0;1
3506;0;0;0
3507;0;0;0
3508;1;0;0
3509;0;1;1
3510;1;1;1
3511;1;1;1
3512;1;1;0
3513;0;1;1
3514;1;1;2
3515;0;1;1
3516;1;0;2
3517;0;1;1
3518;1;1;1
3519;1;1;1
3520;1;1;0
3521;0;1;0
3522;0;0;1
3523;0;0;0
3524;0;0;0
3525;0;0;1
3526;1;0;0
3527;0;1;1
3528;1;1;0
3529;0;1;1
3530;0;0;0
3531;0;1;0
3532;0;1;1
3533;1;1;0
3534;0;2;0
3535;1;1;0
3536;0;0;1
3537;0;1;0
3538;1;1;1
3539;1;1;1
3540;1;1;0
3541;0;1;1
3542;1;1;0
3543;0;2;1
3544;1;1;1
3545;0;1;1
3546;0;1;0
3547;1;0;0
3548;0;1;1
3549;1;0;0
3550;0;1;1
3551;0;0;0
3552;1;1;0
3553;0;2;1
3554;1;1;1
3555;0;2;0
3556;0;0;1
3557;0;0;0
3558;0;1;1
3559;1;1;0
3560;0;0;1
3561;0;1;0
3562;1;1;0
3563;1;0;0
3564;0;1;2
3565;1;1;1
3566;0;1;2
3567;0;0;1
3568;1;0;1
3569;0;0;0
3570;1;1;0
3571;0;0;0
3572;0;1;1
3573;0;0;0
3574;1;1;1
3575;1;1;1
3576;1;0;0
3577;0;0;1
3578;0;1;1
3579;1;1;0
3580;0;1;0
3581;0;0;1
3582;1;0;0
3583;0;1;0
3584;1;1;1
3585;0;0;1
3586;1;0;0
3587;0;1;1
3588;0;0;0
3589;1;1;1
3590;1;1;1
3591;1;1;0
3592;0;1;0
3593;1;1;0
3594;1;1;0
3595;0;0;0
3596;0;0;1
3597;1;0;0
3598;0;1;1
3599;1;1;0
3600;0;1;1
3601;1;0;0
3602;0;1;1
3603;1;1;0
3604;0;0;1
3605;1;0;1
3606;1;1;1
3607;1;1;1
3608;0;1;2
3609;1;1;1
3610;0;0;2
3611;1;1;1
3612;0;0;2
3613;1;1;1
3614;0;1;1
3615;0;1;0
3616;0;1;1
3617;0;0;0
3618;0;0;0
3619;1;0;1
3620;0;0;1
3621;0;1;0
3622;0;1;0
3623;0;1;1
3624;0;1;1
3625;1;1;1
3626;0;1;1
3627;0;1;0
3628;1;0;0
3629;0;1;0
3630;1;1;1
3631;0;1;1
3632;1;1;0
3633;0;1;0
3634;0;1;0
3635;0;0;1
3636;0;1;0
3637;1;1;1
3638;1;0;1
3639;0;1;0
3640;0;1;1
3641;1;1;1
3642;0;0;1
3643;0;1;1
3644;0;0;0
3645;1;0;0
3646;0;1;0
3647;0;1;1
3648;0;2;1
3649;0;1;1
3650;0;1;1
3651;1;1;0
3652;1;1;1
3653;1;2;0
3654;1;1;1
3655;1;0;1
3656;1;1;0
3657;0;1;1
3658;1;1;0
3659;0;2;1
3660;1;1;1
3661;0;2;1
3662;1;0;1
3663;1;1;1
3664;0;0;1
3665;1;1;0
3666;0;1;1
3667;0;1;0
3668;0;0;1
3669;1;1;1
3670;1;2;1
3671;0;1;1
3672;1;2;1
3673;0;1;1
3674;1;1;0
3675;1;1;1
3676;1;1;1
3677;1;1;1
3678;0;1;1
3679;0;0;1
3680;0;1;1
3681;1;1;0
3682;1;1;0
3683;1;1;1
3684;0;2;1
3685;0;0;2
3686;1;1;1
3687;0;1;2
3688;0;1;1
3689;1;1;0
3690;0;1;0
3691;1;0;1
3692;0;0;1
3693;0;1;1
3694;0;1;0
3695;1;1;1
3696;1;1;1
3697;1;1;2
3698;1;2;1
3699;0;1;1
3700;0;1;1
3701;1;1;0
3702;0;1;1
3703;0;1;0
3704;1;0;1
3705;0;1;1
3706;0;1;1
3707;1;1;1
3708;0;2;1
3709;0;1;2
3710;1;2;1
3711;0;1;2
3712;1;1;1
3713;0;0;1
3714;1;0;1
3715;0;0;0
3716;0;0;0
3717;1;1;0
3718;1;1;0
3719;0;1;0
3720;1;1;1
3721;0;2;0
3722;0;1;1
3723;1;1;0
3724;0;1;0
3725;0;1;1
3726;1;1;0
3727;0;1;0
3728;1;1;0
3729;0;1;1
3730;1;1;1
3731;0;2;0
3732;1;0;1
3733;0;0;1
3734;0;0;0
3735;1;1;0
3736;0;1;1
3737;0;0;0
3738;0;1;0
3739;0;1;0
3740;0;1;1
3741;0;1;0
3742;1;1;1
3743;0;1;1
3744;0;0;0
3745;0;1;1
3746;1;2;0
3747;0;2;0
3748;1;1;0
3749;0;2;1
3750;1;1;0
3751;0;0;1
3752;0;0;0
3753;1;1;0
3754;0;1;1
3755;0;0;0
3756;1;1;1
3757;0;1;0
3758;0;1;0
3759;1;0;0
3760;1;0;0
3761;0;0;0
3762;0;1;2
3763;0;1;1
3764;1;1;1
3765;1;1;1
3766;1;1;1
3767;0;2;1
3768;1;0;2
3769;1;0;1
3770;0;0;1
3771;1;1;0
3772;0;1;1
3773;1;0;1
3774;0;0;1
3775;1;1;1
3776;0;1;1
3777;1;0;2
3778;0;1;2
3779;1;1;1
3780;0;2;1
3781;0;1;2
3782;1;1;1
3783;0;2;2
3784;1;2;2
3785;0;2;1
3786;0;0;2
3787;1;1;2
3788;1;0;2
3789;0;0;1
3790;1;1;0
3791;0;0;1
3792;0;1;0
3793;1;1;0
3794;0;0;0
3795;1;1;0
3796;0;1;0
3797;1;1;1
3798;0;1;1
3799;0;1;0
3800;1;1;1
3801;1;0;0
3802;1;0;1
3803;1;0;1
3804;0;0;1
3805;0;0;0
3806;1;0;0
3807;0;0;0
3808;1;0;1
3809;1;1;1
3810;1;1;1
3811;0;1;0
3812;1;1;1
3813;0;1;2
3814;0;1;1
3815;1;1;0
3816;0;1;1
3817;0;1;0
3818;1;1;1
3819;1;2;0
3820;1;1;1
3821;2;1;0
3822;0;2;0
3823;0;1;0
3824;0;1;0
3825;1;1;0
3826;1;1;0
3827;0;0;1
3828;1;0;0
3829;0;0;0
3830;0;1;1
3831;0;0;0
3832;1;1;0
3833;1;1;0
3834;0;1;1
3835;1;1;0
3836;0;1;1
3837;1;1;1
3838;0;2;0
3839;0;0;1
3840;1;0;0
3841;0;0;1
3842;0;1;0
3843;1;0;1
3844;1;1;0
3845;0;1;0
3846;0;1;1
3847;1;0;0
3848;0;1;1
3849;1;1;1
3850;1;1;1
3851;0;1;1
3852;1;0;0
3853;0;1;0
3854;0;0;0
3855;1;1;1
3856;0;1;2
3857;1;1;1
3858;0;0;1
3859;0;1;1
3860;1;0;1
3861;0;1;1
3862;1;0;0
3863;0;1;0
3864;0;1;0
3865;1;1;0
3866;0;1;1
3867;0;1;0
3868;0;1;0
3869;1;1;1
3870;0;1;2
3871;1;0;1
3872;0;0;1
3873;0;0;0
3874;1;0;0
3875;0;1;1
3876;1;1;0
3877;0;1;0
3878;1;0;0
3879;0;1;1
3880;1;1;0
3881;0;1;0
3882;0;0;0
3883;0;0;1
3884;1;0;0
3885;0;1;0
3886;1;1;1
3887;1;1;2
3888;1;0;1
3889;0;1;1
3890;0;1;0
3891;1;1;1
3892;1;1;1
3893;1;1;1
3894;0;1;1
3895;1;0;1
3896;1;1;0
3897;0;1;1
3898;0;1;0
3899;1;1;0
3900;1;0;1
3901;1;1;0
3902;1;2;1
3903;0;0;1
3904;1;1;2
3905;1;1;1
3906;1;0;1
3907;0;1;0
3908;1;1;0
3909;0;1;1
3910;1;1;0
3911;0;1;1
3912;1;1;0
3913;0;1;0
3914;0;1;0
3915;0;1;1
3916;0;0;1
3917;1;0;0
3918;0;0;1
3919;1;0;0
3920;1;0;1
3921;1;1;1
3922;1;0;0
3923;0;1;1
3924;1;1;1
3925;1;2;1
3926;2;3;2
3927;1;4;2
3928;1;3;3
3929;0;4;2
3930;1;3;2
3931;0;4;1
3932;1;2;2
3933;1;3;2
3934;0;3;1
3935;0;2;1
3936;1;1;0
3937;0;2;0
3938;0;0;0
3939;1;1;0
3940;0;1;0
3941;1;1;1
3942;0;2;0
3943;1;0;0
3944;0;0;1
3945;1;1;0
3946;0;0;1
3947;0;0;0
3948;0;1;1
3949;0;1;0
3950;1;0;1
3951;0;0;0
3952;1;0;0
3953;0;1;0
3954;0;1;1
3955;1;1;1
3956;1;0;2
3957;0;1;1
3958;0;1;0
3959;1;0;1
3960;0;0;1
3961;1;1;0
3962;0;0;0
3963;0;1;0
3964;1;0;0
3965;0;0;1
3966;1;0;0
3967;0;0;1
3968;1;1;0
3969;0;1;1
3970;1;1;0
3971;0;1;1
3972;0;1;0
3973;1;1;1
3974;1;1;1
3975;1;1;0
3976;0;1;1
3977;0;0;0
3978;2;0;1
3979;0;1;1
3980;1;0;1
3981;0;0;1
3982;1;0;0
3983;0;0;0
3984;0;1;0
3985;1;1;0
3986;1;0;1
3987;0;1;1
3988;0;0;1
3989;1;1;0
3990;0;1;0
3991;1;1;0
3992;1;0;0
3993;0;0;1
3994;0;0;0
3995;1;1;0
3996;1;2;1
3997;1;0;2
3998;1;1;1
3999;1;1;2
4000;1;0;1
4001;1;1;1
4002;1;1;1
4003;0;1;1
4004;1;1;1
4005;0;0;2
4006;1;0;1
4007;0;0;0
4008;1;0;1
4009;0;0;0
4010;1;0;1
4011;0;0;1
4012;1;1;0
4013;0;0;0
4014;1;2;1
4015;1;1;1
4016;0;2;1
4017;1;2;1
4018;1;2;0
4019;1;1;1
4020;1;1;0
4021;0;2;0
4022;1;0;1
4023;0;0;0
4024;0;1;1
4025;0;1;0
4026;1;1;0
4027;0;2;0
4028;1;1;1
4029;0;2;1
4030;1;2;1
4031;1;1;0
4032;1;2;0
4033;0;2;1
4034;0;1;1
4035;1;0;0
4036;0;1;0
4037;0;1;1
4038;0;1;0
4039;1;1;1
4040;1;1;0
4041;0;0;1
4042;0;0;0
4043;1;0;0
4044;0;0;1
4045;0;1;0
4046;1;1;1
4047;0;1;1
4048;0;1;1
4049;1;0;1
4050;0;0;1
4051;0;1;0
4052;0;1;1
4053;0;1;0
4054;1;1;0
4055;1;1;1
4056;1;1;1
4057;1;1;1
4058;1;1;1
4059;1;2;1
4060;0;2;2
4061;0;2;1
4062;1;1;1
4063;0;1;1
4064;1;0;0
4065;0;2;0
4066;0;1;1
4067;0;1;1
4068;0;1;0
4069;0;0;0
4070;0;2;1
4071;0;0;2
4072;0;1;1
4073;0;1;0
4074;0;1;1
4075;0;1;1
4076;1;1;1
4077;0;1;0
4078;0;0;1
4079;0;1;1
4080;2;1;0
4081;1;2;0
4082;1;1;1
4083;1;1;1
4084;1;1;1
4085;1;1;0
4086;1;2;1
4087;1;1;1
4088;2;2;1
4089;0;3;1
4090;0;1;2
4091;1;0;2
4092;0;1;1
4093;0;1;0
4094;0;0;1
4095;1;1;0
4096;0;1;0
4097;1;1;1
4098;0;2;0
4099;0;1;1
4100;1;1;0
4101;1;1;1
4102;1;0;1
4103;0;1;0
4104;0;0;1
4105;0;1;0
4106;1;1;1
4107;0;2;1
4108;0;1;1
4109;0;0;0
4110;0;0;0
4111;0;1;1
4112;1;1;1
4113;1;0;1
4114;0;1;0
4115;0;1;1
4116;1;1;1
4117;0;1;2
4118;1;1;1
4119;0;2;1
4120;0;1;2
4121;1;1;1
4122;0;0;1
4123;1;1;0
4124;0;1;1
4125;0;1;0
4126;0;0;1
4127;1;1;0
4128;0;1;1
4129;1;1;0
4130;0;2;1
4131;0;1;1
4132;1;0;0
4133;1;1;1
4134;0;1;1
4135;1;0;1
4136;0;1;1
4137;1;0;0
4138;0;1;0
4139;0;1;1
4140;0;1;2
4141;0;1;2
4142;1;0;2
4143;2;1;3
4144;1;0;2
4145;0;1;2
4146;1;1;2
4147;2;1;1
4148;1;1;2
4149;0;2;2
4150;1;0;2
4151;1;0;2
4152;0;1;2
4153;0;0;2
4154;1;1;2
4155;1;1;2
4156;1;1;2
4157;1;1;2
4158;0;1;3
4159;1;1;2
4160;0;0;3
4161;1;1;3
4162;1;0;3
4163;1;1;2
4164;0;1;2
4165;0;0;2
4166;0;0;2
4167;0;0;1
4168;1;0;1
4169;0;0;0
4170;1;1;0
4171;0;1;1
4172;0;1;1
4173;0;0;1
4174;1;0;1
4175;0;1;0
4176;0;0;0
4177;1;0;0
4178;0;1;1
4179;0;0;0
4180;1;1;1
4181;1;1;1
4182;1;1;2
4183;0;1;1
4184;0;1;0
4185;1;1;1
4186;0;1;1
4187;1;1;1
4188;1;1;1
4189;0;2;2
4190;0;1;2
4191;1;1;1
4192;1;0;2
4193;1;1;1
4194;0;1;2
4195;1;1;1
4196;0;0;2
4197;1;1;1
4198;0;1;2
4199;1;0;1
4200;0;1;1
4201;1;0;0
4202;0;1;1
4203;1;0;0
4204;0;1;1
4205;1;1;0
4206;0;1;1
4207;1;0;0
4208;0;1;1
4209;1;0;0
4210;0;1;0
4211;1;0;1
4212;0;1;0
4213;0;0;1
4214;0;0;0
4215;0;1;1
4216;1;1;1
4217;0;2;0
4218;0;2;1
4219;1;1;0
4220;0;1;1
4221;1;1;0
4222;0;1;1
4223;0;1;0
4224;1;1;1
4225;0;1;1
4226;1;1;0
4227;0;1;1
4228;1;0;0
4229;0;0;1
4230;1;0;0
4231;0;0;0
4232;0;1;0
4233;1;1;1
4234;1;2;1
4235;0;1;1
4236;0;0;1
4237;1;1;0
4238;1;1;1
4239;1;1;0
4240;0;2;1
4241;1;0;2
4242;0;0;1
4243;0;1;1
4244;1;0;0
4245;0;0;1
4246;1;2;0
4247;0;2;0
4248;1;1;1
4249;0;2;0
4250;1;1;1
4251;1;1;0
4252;0;1;1
4253;0;1;1
4254;0;1;0
4255;0;0;0
4256;1;1;1
4257;0;1;1
4258;0;0;1
4259;1;0;0
4260;0;0;1
4261;1;0;0
4262;0;0;1
4263;0;1;0
4264;0;1;0
4265;0;0;0
4266;1;1;1
4267;0;0;2
4268;1;0;1
4269;0;1;0
4270;0;1;1
4271;0;0;0
4272;0;1;1
4273;1;1;1
4274;0;1;1
4275;1;0;1
4276;0;0;1
4277;1;0;0
4278;0;1;1
4279;0;0;0
4280;0;0;0
4281;0;1;0
4282;0;0;1
4283;0;0;0
4284;1;1;0
4285;1;2;0
4286;0;2;1
4287;1;2;1
4288;0;2;1
4289;0;1;0
4290;0;1;1
4291;1;0;0
4292;0;1;1
4293;1;1;0
4294;0;1;1
4295;0;1;0
4296;1;0;0
4297;0;1;1
4298;1;0;0
4299;0;1;1
4300;1;1;0
4301;0;1;0
4302;1;1;1
4303;0;2;0
4304;1;3;0
4305;0;2;1
4306;0;2;1
4307;1;2;0
4308;0;2;0
4309;1;1;1
4310;0;2;1
4311;0;1;1
4312;1;1;0
4313;1;1;0
4314;0;0;1
4315;0;0;1
4316;1;1;0
4317;0;1;1
4318;0;1;1
4319;1;1;1
4320;0;2;1
4321;0;0;2
4322;0;1;1
4323;1;1;0
4324;0;1;1
4325;1;1;0
4326;0;2;0
4327;0;1;1
4328;1;1;0
4329;0;1;0
4330;1;0;1
4331;0;1;0
4332;1;0;1
4333;0;2;0
4334;1;0;1
4335;0;1;0
4336;0;1;1
4337;0;1;1
4338;0;1;1
4339;2;0;0
4340;1;0;1
4341;1;0;0
4342;0;1;0
4343;1;0;1
4344;0;1;1
4345;0;0;0
4346;1;0;0
4347;0;0;1
4348;0;0;0
4349;1;0;1
4350;1;1;0
4351;0;0;1
4352;1;1;0
4353;0;0;1
4354;1;0;0
4355;0;1;0
4356;0;0;0
4357;1;1;0
4358;0;0;1
4359;1;1;0
4360;0;1;0
4361;0;0;1
4362;1;0;0
4363;0;1;1
4364;1;0;0
4365;0;1;0
4366;0;1;0
4367;1;1;0
4368;1;0;1
4369;0;0;1
4370;0;1;1
4371;0;1;1
4372;0;1;0
4373;1;1;0
4374;1;2;1
4375;0;2;1
4376;0;2;1
4377;0;1;1
4378;1;1;0
4379;1;1;0
4380;0;0;1
4381;1;0;0
4382;0;1;1
4383;1;1;0
4384;0;1;0
4385;1;0;1
4386;0;1;1
4387;0;0;1
4388;1;1;1
4389;0;1;1
4390;1;1;1
4391;0;1;1
4392;1;1;1
4393;1;2;1
4394;0;3;1
4395;1;2;2
4396;0;2;3
4397;0;2;2
4398;0;1;2
4399;1;1;1
4400;1;1;1
4401;1;0;0
4402;1;1;1
4403;1;0;2
4404;1;1;1
4405;0;1;2
4406;1;1;1
4407;0;0;1
4408;1;1;0
4409;0;1;0
4410;1;1;0
4411;0;1;1
4412;1;1;0
4413;0;0;0
4414;1;1;1
4415;1;1;0
4416;0;2;1
4417;1;1;0
4418;0;1;1
4419;1;0;0
4420;0;2;1
4421;0;1;1
4422;1;2;0
4423;0;1;1
4424;1;1;0
4425;0;0;1
4426;0;1;0
4427;1;0;1
4428;1;1;0
4429;1;1;1
4430;1;1;1
4431;1;1;1
4432;1;1;0
4433;0;1;0
4434;1;0;1
4435;0;1;0
4436;0;0;0
4437;0;1;0
4438;0;1;1
4439;0;1;1
4440;1;0;1
4441;0;1;0
4442;1;1;0
4443;1;1;0
4444;0;1;2
4445;0;0;2
4446;1;0;1
4447;1;1;1
4448;0;0;2
4449;1;1;1
4450;0;1;2
4451;1;0;1
4452;0;1;1
4453;1;1;0
4454;0;1;0
4455;1;0;0
4456;0;0;1
4457;0;1;0
4458;0;1;0
4459;1;0;1
4460;0;0;0
4461;1;0;1
4462;1;1;0
4463;0;1;0
4464;0;1;1
4465;1;1;0
4466;0;1;0
4467;1;0;1
4468;0;1;1
4469;1;1;0
4470;0;0;1
4471;1;0;0
4472;0;1;0
4473;0;1;1
4474;1;0;0
4475;0;1;1
4476;1;1;1
4477;1;1;0
4478;1;1;1
4479;1;1;0
4480;1;1;1
4481;1;1;1
4482;1;0;1
4483;0;1;1
4484;1;1;0
4485;0;1;0
4486;1;1;1
4487;0;2;1
4488;0;1;1
4489;1;1;1
4490;0;0;1
4491;0;0;0
4492;0;0;1
4493;1;0;1
4494;0;0;1
4495;1;0;0
4496;0;1;0
4497;1;1;1
4498;0;1;1
4499;0;1;1
4500;0;0;0
4501;1;0;0
4502;1;1;0
4503;0;1;0
4504;1;0;1
4505;1;0;1
4506;0;1;0
4507;0;1;0
4508;0;1;1
4509;0;2;0
4510;1;1;1
4511;2;2;0
4512;1;3;0
4513;0;2;0
4514;0;1;0
4515;0;0;0
4516;1;1;1
4517;0;1;1
4518;0;1;0
4519;1;0;1
4520;1;0;0
4521;0;1;0
4522;0;1;1
4523;1;1;0
4524;0;0;1
4525;0;0;1
4526;1;0;2
4527;0;0;2
4528;0;0;1
4529;0;1;0
4530;1;1;0
4531;0;0;0
4532;1;0;2
4533;1;1;1
4534;1;0;2
4535;1;0;1
4536;0;1;1
4537;1;1;0
4538;0;0;1
4539;0;0;0
4540;1;1;1
4541;1;1;1
4542;0;1;1
4543;1;0;1
4544;0;0;1
4545;0;0;1
4546;1;1;0
4547;0;1;0
4548;1;0;0
4549;0;1;1
4550;1;0;0
4551;0;1;1
4552;0;0;1
4553;1;1;1
4554;0;2;1
4555;1;2;1
4556;1;1;1
4557;1;0;1
4558;1;1;0
4559;0;1;1
4560;0;0;0
4561;1;1;1
4562;1;1;1
4563;1;1;1
4564;1;0;1
4565;0;0;0
4566;0;1;1
4567;0;0;1
4568;0;1;0
4569;1;0;0
4570;0;0;1
4571;0;0;0
4572;1;0;0
4573;0;1;0
4574;1;1;0
4575;0;1;1
4576;1;1;0
4577;0;1;1
4578;0;1;0
4579;1;1;1
4580;0;1;1
4581;0;1;1
4582;1;0;0
4583;0;0;0
4584;0;0;0
4585;1;0;1
4586;0;1;0
4587;1;1;0
4588;0;0;1
4589;1;1;0
4590;0;1;1
4591;0;0;0
4592;1;1;1
4593;1;0;1
4594;0;0;1
4595;1;0;0
4596;0;0;0
4597;1;0;1
4598;0;0;1
4599;1;0;0
4600;1;1;0
4601;0;1;0
4602;0;1;1
4603;1;2;1
4604;0;2;2
4605;1;1;1
4606;0;1;1
4607;0;1;1
4608;0;1;0
4609;1;2;1
4610;0;1;2
4611;1;2;2
4612;0;3;2
4613;0;2;2
4614;0;2;2
4615;1;1;3
4616;0;2;2
4617;0;2;3
4618;0;2;2
4619;1;1;3
4620;0;2;3
4621;1;2;3
4622;1;2;2
4623;1;2;3
4624;1;2;3
4625;1;2;3
4626;1;1;4
4627;0;1;3
4628;0;1;2
4629;1;0;1
4630;0;1;0
4631;1;1;0
4632;0;1;1
4633;1;0;0
4634;0;1;1
4635;0;1;0
4636;0;1;1
4637;0;1;0
4638;1;1;1
4639;1;1;1
4640;1;2;0
4641;0;2;0
4642;0;1;1
4643;0;2;0
4644;0;1;1
4645;1;1;0
4646;0;1;1
4647;0;1;0
4648;0;1;1
4649;1;0;1
4650;0;1;0
4651;0;1;1
4652;0;0;0
4653;1;1;1
4654;1;1;1
4655;1;1;0
4656;0;1;1
4657;1;1;2
4658;1;2;1
4659;1;2;2
4660;0;0;2
4661;0;1;1
4662;1;1;0
4663;1;1;1
4664;1;1;0
4665;1;1;1
4666;1;2;1
4667;1;2;1
4668;0;1;2
4669;0;0;1
4670;0;1;0
4671;1;1;1
4672;0;0;1
4673;0;1;1
4674;1;1;1
4675;1;1;1
4676;1;2;0
4677;0;2;0
4678;1;1;1
4679;0;2;0
4680;0;1;1
4681;1;0;0
4682;0;1;1
4683;0;0;1
4684;1;1;1
4685;0;0;1
4686;1;1;0
4687;0;1;0
4688;1;1;0
4689;0;1;0
4690;0;0;0
4691;1;0;1
4692;1;1;0
4693;0;1;0
4694;0;0;1
4695;0;0;1
4696;0;1;1
4697;0;1;1
4698;1;0;0
4699;1;1;0
4700;0;2;0
4701;1;1;1
4702;1;2;0
4703;1;2;1
4704;1;2;1
4705;1;2;1
4706;1;1;1
4707;0;0;1
4708;0;1;1
4709;0;0;0
4710;1;1;1
4711;0;1;1
4712;0;1;0
4713;0;0;1
4714;0;0;0
4715;0;1;1
4716;1;1;1
4717;1;2;1
4718;0;2;1
4719;1;3;0
4720;0;2;1
4721;1;1;1
4722;0;1;1
4723;1;0;0
4724;0;0;1
4725;0;0;0
4726;1;1;0
4727;0;1;0
4728;1;1;0
4729;0;1;1
4730;1;0;0
4731;0;1;1
4732;0;1;0
4733;1;0;0
4734;0;0;1
4735;0;1;0
4736;1;1;0
4737;1;2;1
4738;0;1;2
4739;1;1;1
4740;0;2;2
4741;1;1;2
4742;0;1;2
4743;0;1;2
4744;0;0;1
4745;1;0;0
4746;0;0;0
4747;1;0;0
4748;0;0;1
4749;1;0;0
4750;0;0;0
4751;0;1;1
4752;1;1;1
4753;0;1;2
4754;0;2;2
4755;1;0;2
4756;0;0;2
4757;0;1;1
4758;1;1;1
4759;0;1;1
4760;1;0;1
4761;0;1;1
4762;1;0;0
4763;0;0;1
4764;1;0;0
4765;0;1;0
4766;1;1;1
4767;0;0;1
4768;0;2;0
4769;0;1;0
4770;1;1;1
4771;1;2;2
4772;1;2;1
4773;0;1;1
4774;1;1;0
4775;0;0;1
4776;0;1;0
4777;1;1;1
4778;1;0;1
4779;0;1;1
4780;1;1;0
4781;0;1;0
4782;1;1;0
4783;0;0;1
4784;1;0;1
4785;0;0;1
4786;1;1;0
4787;0;2;1
4788;1;1;0
4789;0;1;1
4790;1;1;0
4791;0;1;0
4792;0;1;1
4793;1;1;0
4794;1;1;0
4795;0;2;1
4796;0;2;1
4797;0;1;1
4798;1;1;0
4799;0;1;0
4800;1;1;0
4801;0;0;0
4802;1;1;0
4803;0;0;1
4804;0;1;0
4805;1;1;0
4806;1;1;0
4807;1;1;0
4808;1;1;1
4809;1;0;0
4810;0;1;0
4811;0;1;0
4812;1;1;1
4813;0;1;1
4814;1;1;1
4815;0;1;1
4816;0;0;1
4817;1;1;1
4818;0;1;2
4819;0;1;1
4820;0;0;0
4821;0;1;1
4822;0;0;1
4823;1;1;0
4824;0;0;1
4825;1;1;0
4826;0;0;0
4827;0;0;1
4828;1;1;0
4829;0;1;1
4830;0;0;0
4831;1;1;0
4832;0;0;0
4833;1;1;1
4834;1;1;0
4835;0;1;1
4836;0;0;0
4837;1;1;0
4838;1;1;1
4839;1;1;1
4840;0;0;1
4841;1;1;1
4842;0;2;1
4843;0;1;1
4844;1;1;1
4845;0;1;1
4846;1;1;1
4847;0;0;2
4848;1;1;1
4849;0;1;1
4850;1;0;1
4851;0;0;0
4852;1;1;1
4853;1;0;1
4854;0;0;2
4855;1;1;1
4856;0;2;2
4857;0;1;1
4858;1;1;1
4859;1;1;0
4860;0;1;1
4861;0;1;1
4862;1;0;1
4863;1;0;0
4864;0;1;1
4865;0;0;0
4866;1;1;1
4867;0;0;1
4868;1;0;1
4869;1;2;0
4870;0;1;1
4871;0;0;1
4872;1;1;1
4873;0;1;1
4874;1;0;0
4875;0;2;1
4876;0;1;1
4877;1;0;1
4878;0;1;0
4879;1;1;0
4880;0;0;1
4881;0;1;1
4882;1;1;1
4883;1;2;2
4884;1;1;2
4885;0;2;2
4886;0;0;2
4887;1;1;1
4888;0;0;2
4889;1;0;1
4890;0;0;0
4891;1;1;0
4892;0;1;1
4893;0;0;0
4894;0;1;0
4895;0;1;0
4896;1;1;0
4897;1;0;1
4898;0;1;1
4899;0;1;1
4900;0;1;1
4901;0;1;0
4902;1;0;1
4903;1;1;0
4904;1;1;1
4905;1;1;1
4906;1;1;0
4907;0;2;1
4908;0;1;2
4909;0;1;1
4910;2;1;1
4911;2;1;1
4912;1;1;1
4913;0;1;1
4914;0;1;1
4915;1;0;0
4916;0;0;1
4917;0;1;0
4918;1;1;0
4919;0;0;0
4920;0;1;1
4921;1;0;1
4922;1;1;0
4923;1;1;1
4924;0;1;1
4925;1;1;1
4926;1;1;1
4927;0;2;1
4928;1;0;2
4929;0;1;3
4930;1;2;2
4931;0;2;2
4932;1;1;1
4933;0;1;2
4934;0;1;1
4935;1;1;2
4936;1;1;2
4937;1;1;2
4938;0;1;2
4939;1;1;1
4940;1;0;1
4941;0;1;1
4942;1;1;0
4943;0;1;0
4944;1;1;1
4945;0;1;2
4946;0;1;1
4947;1;0;0
4948;1;1;1
4949;0;0;2
4950;0;0;1
4951;1;0;1
4952;1;0;0
4953;0;1;0
4954;0;0;1
4955;1;0;1
4956;1;0;1
4957;0;0;1
4958;1;0;0
4959;0;1;1
4960;0;0;0
4961;1;0;0
4962;0;0;0
4963;0;0;1
4964;1;0;1
4965;0;1;1
4966;0;0;0
4967;0;0;0
4968;1;0;1
4969;0;0;0
4970;0;0;0
4971;0;0;0
4972;0;1;0
4973;2;0;0
4974;0;1;1
4975;0;0;0
4976;0;1;0
4977;0;1;0
4978;1;1;1
4979;0;0;2
4980;1;1;1
4981;0;1;2
4982;0;1;1
4983;1;1;1
4984;1;1;1
4985;1;2;0
4986;1;2;1
4987;0;2;1
4988;0;1;1
4989;0;0;1
4990;0;1;0
4991;1;1;1
4992;1;2;1
4993;0;1;1
4994;1;1;1
4995;0;0;1
4996;0;0;0
4997;0;1;1
4998;1;0;0
4999;0;1;0
